%!PS-Adobe-3.0 EPSF-3.0
%%Creator: MATLAB, The Mathworks, Inc.
%%Title: ./fig5a.eps
%%CreationDate: 05/25/2013  06:22:56
%%DocumentNeededFonts: Helvetica
%%DocumentProcessColors: Cyan Magenta Yellow Black
%%LanguageLevel: 2
%%Pages: 1
%%BoundingBox:    49   198   549   613
%%EndComments

%%BeginProlog
% MathWorks dictionary
/MathWorks 160 dict begin
% definition operators
/bdef {bind def} bind def
/ldef {load def} bind def
/xdef {exch def} bdef
/xstore {exch store} bdef
% operator abbreviations
/c  /clip ldef
/cc /concat ldef
/cp /closepath ldef
/gr /grestore ldef
/gs /gsave ldef
/mt /moveto ldef
/np /newpath ldef
/cm /currentmatrix ldef
/sm /setmatrix ldef
/rm /rmoveto ldef
/rl /rlineto ldef
/s {show newpath} bdef
/sc {setcmykcolor} bdef
/sr /setrgbcolor ldef
/sg /setgray ldef
/w /setlinewidth ldef
/j /setlinejoin ldef
/cap /setlinecap ldef
/rc {rectclip} bdef
/rf {rectfill} bdef
% page state control
/pgsv () def
/bpage {/pgsv save def} bdef
/epage {pgsv restore} bdef
/bplot /gsave ldef
/eplot {stroke grestore} bdef
% orientation switch
/portraitMode 0 def /landscapeMode 1 def /rotateMode 2 def
% coordinate system mappings
/dpi2point 0 def
% font control
/FontSize 0 def
/FMS {/FontSize xstore findfont [FontSize 0 0 FontSize neg 0 0]
  makefont setfont} bdef
/reencode {exch dup where {pop load} {pop StandardEncoding} ifelse
  exch dup 3 1 roll findfont dup length dict begin
  { 1 index /FID ne {def}{pop pop} ifelse } forall
  /Encoding exch def currentdict end definefont pop} bdef
/isroman {findfont /CharStrings get /Agrave known} bdef
/FMSR {3 1 roll 1 index dup isroman {reencode} {pop pop} ifelse
  exch FMS} bdef
/csm {1 dpi2point div -1 dpi2point div scale neg translate
 dup landscapeMode eq {pop -90 rotate}
  {rotateMode eq {90 rotate} if} ifelse} bdef
% line types: solid, dotted, dashed, dotdash
/SO { [] 0 setdash } bdef
/DO { [.5 dpi2point mul 4 dpi2point mul] 0 setdash } bdef
/DA { [6 dpi2point mul] 0 setdash } bdef
/DD { [.5 dpi2point mul 4 dpi2point mul 6 dpi2point mul 4
  dpi2point mul] 0 setdash } bdef
% macros for lines and objects
/L {lineto stroke} bdef
/MP {3 1 roll moveto 1 sub {rlineto} repeat} bdef
/AP {{rlineto} repeat} bdef
/PDlw -1 def
/W {/PDlw currentlinewidth def setlinewidth} def
/PP {closepath eofill} bdef
/DP {closepath stroke} bdef
/MR {4 -2 roll moveto dup  0 exch rlineto exch 0 rlineto
  neg 0 exch rlineto closepath} bdef
/FR {MR stroke} bdef
/PR {MR fill} bdef
/L1i {{currentfile picstr readhexstring pop} image} bdef
/tMatrix matrix def
/MakeOval {newpath tMatrix currentmatrix pop translate scale
0 0 1 0 360 arc tMatrix setmatrix} bdef
/FO {MakeOval stroke} bdef
/PO {MakeOval fill} bdef
/PD {currentlinewidth 2 div 0 360 arc fill
   PDlw -1 eq not {PDlw w /PDlw -1 def} if} def
/FA {newpath tMatrix currentmatrix pop translate scale
  0 0 1 5 -2 roll arc tMatrix setmatrix stroke} bdef
/PA {newpath tMatrix currentmatrix pop	translate 0 0 moveto scale
  0 0 1 5 -2 roll arc closepath tMatrix setmatrix fill} bdef
/FAn {newpath tMatrix currentmatrix pop translate scale
  0 0 1 5 -2 roll arcn tMatrix setmatrix stroke} bdef
/PAn {newpath tMatrix currentmatrix pop translate 0 0 moveto scale
  0 0 1 5 -2 roll arcn closepath tMatrix setmatrix fill} bdef
/vradius 0 def /hradius 0 def /lry 0 def
/lrx 0 def /uly 0 def /ulx 0 def /rad 0 def
/MRR {/vradius xdef /hradius xdef /lry xdef /lrx xdef /uly xdef
  /ulx xdef newpath tMatrix currentmatrix pop ulx hradius add uly
  vradius add translate hradius vradius scale 0 0 1 180 270 arc 
  tMatrix setmatrix lrx hradius sub uly vradius add translate
  hradius vradius scale 0 0 1 270 360 arc tMatrix setmatrix
  lrx hradius sub lry vradius sub translate hradius vradius scale
  0 0 1 0 90 arc tMatrix setmatrix ulx hradius add lry vradius sub
  translate hradius vradius scale 0 0 1 90 180 arc tMatrix setmatrix
  closepath} bdef
/FRR {MRR stroke } bdef
/PRR {MRR fill } bdef
/MlrRR {/lry xdef /lrx xdef /uly xdef /ulx xdef /rad lry uly sub 2 div def
  newpath tMatrix currentmatrix pop ulx rad add uly rad add translate
  rad rad scale 0 0 1 90 270 arc tMatrix setmatrix lrx rad sub lry rad
  sub translate rad rad scale 0 0 1 270 90 arc tMatrix setmatrix
  closepath} bdef
/FlrRR {MlrRR stroke } bdef
/PlrRR {MlrRR fill } bdef
/MtbRR {/lry xdef /lrx xdef /uly xdef /ulx xdef /rad lrx ulx sub 2 div def
  newpath tMatrix currentmatrix pop ulx rad add uly rad add translate
  rad rad scale 0 0 1 180 360 arc tMatrix setmatrix lrx rad sub lry rad
  sub translate rad rad scale 0 0 1 0 180 arc tMatrix setmatrix
  closepath} bdef
/FtbRR {MtbRR stroke } bdef
/PtbRR {MtbRR fill } bdef
/stri 6 array def /dtri 6 array def
/smat 6 array def /dmat 6 array def
/tmat1 6 array def /tmat2 6 array def /dif 3 array def
/asub {/ind2 exch def /ind1 exch def dup dup
  ind1 get exch ind2 get sub exch } bdef
/tri_to_matrix {
  2 0 asub 3 1 asub 4 0 asub 5 1 asub
  dup 0 get exch 1 get 7 -1 roll astore } bdef
/compute_transform {
  dmat dtri tri_to_matrix tmat1 invertmatrix 
  smat stri tri_to_matrix tmat2 concatmatrix } bdef
/ds {stri astore pop} bdef
/dt {dtri astore pop} bdef
/db {2 copy /cols xdef /rows xdef mul dup 3 mul string
  currentfile 
  3 index 0 eq {/ASCIIHexDecode filter}
  {/ASCII85Decode filter 3 index 2 eq {/RunLengthDecode filter} if }
  ifelse exch readstring pop
  dup 0 3 index getinterval /rbmap xdef
  dup 2 index dup getinterval /gbmap xdef
  1 index dup 2 mul exch getinterval /bbmap xdef pop pop}bdef
/it {gs np dtri aload pop moveto lineto lineto cp c
  cols rows 8 compute_transform 
  rbmap gbmap bbmap true 3 colorimage gr}bdef
/il {newpath moveto lineto stroke}bdef
currentdict end def
%%EndProlog

%%BeginSetup
MathWorks begin

0 cap

end
%%EndSetup

%%Page: 1 1
%%BeginPageSetup
%%PageBoundingBox:    49   198   549   613
MathWorks begin
bpage
%%EndPageSetup

%%BeginObject: obj1
bplot

/dpi2point 2.77778 def
portraitMode 0050 1700 csm

   88    -3  1387  1151 rc
125 dict begin %Colortable dictionary
/c0 { 0.000000 0.000000 0.000000 sr} bdef
/c1 { 1.000000 1.000000 1.000000 sr} bdef
/c2 { 0.900000 0.000000 0.000000 sr} bdef
/c3 { 0.000000 0.820000 0.000000 sr} bdef
/c4 { 0.000000 0.000000 0.800000 sr} bdef
/c5 { 0.910000 0.820000 0.320000 sr} bdef
/c6 { 1.000000 0.260000 0.820000 sr} bdef
/c7 { 0.000000 0.820000 0.820000 sr} bdef
c0
1 j
1 sg
   0    0 1601 1202 rf
1.38889 w
0 -979 1240 0 0 979 208 90 4 MP
PP
-1240 0 0 -979 1240 0 0 979 208 90 5 MP stroke
0.925926 w
DO
0 sg
 208 1069 mt  208   90 L
 208   90 mt  208   90 L
 414 1069 mt  414   90 L
 414   90 mt  414   90 L
 621 1069 mt  621   90 L
 621   90 mt  621   90 L
 828 1069 mt  828   90 L
 828   90 mt  828   90 L
1034 1069 mt 1034   90 L
1034   90 mt 1034   90 L
1241 1069 mt 1241   90 L
1241   90 mt 1241   90 L
1448 1069 mt 1448   90 L
1448   90 mt 1448   90 L
SO
1.38889 w
 208   90 mt 1448   90 L
 208 1069 mt 1448 1069 L
 208   90 mt  208 1069 L
1448   90 mt 1448 1069 L
 208 1069 mt 1448 1069 L
 208   90 mt  208 1069 L
 208 1069 mt  208 1056 L
 208   90 mt  208  102 L
%%IncludeResource: font Helvetica
/Helvetica /ISOLatin1Encoding 27.7778 FMSR

 201 1102 mt 
(0) s
 414 1069 mt  414 1056 L
 414   90 mt  414  102 L
 407 1102 mt 
(5) s
 621 1069 mt  621 1056 L
 621   90 mt  621  102 L
 606 1102 mt 
(10) s
 828 1069 mt  828 1056 L
 828   90 mt  828  102 L
 813 1102 mt 
(15) s
1034 1069 mt 1034 1056 L
1034   90 mt 1034  102 L
1019 1102 mt 
(20) s
1241 1069 mt 1241 1056 L
1241   90 mt 1241  102 L
1226 1102 mt 
(25) s
1448 1069 mt 1448 1056 L
1448   90 mt 1448  102 L
1433 1102 mt 
(30) s
 208   90 mt  220   90 L
1448   90 mt 1435   90 L
 154  100 mt 
(250) s
 208  411 mt  220  411 L
1448  411 mt 1435  411 L
 154  421 mt 
(396) s
 208  654 mt  220  654 L
1448  654 mt 1435  654 L
 154  664 mt 
(560) s
 208  858 mt  220  858 L
1448  858 mt 1435  858 L
 154  868 mt 
(750) s
 208 1001 mt  220 1001 L
1448 1001 mt 1435 1001 L
 154 1011 mt 
(920) s
 208 1069 mt  220 1069 L
1448 1069 mt 1435 1069 L
 139 1079 mt 
(1013) s
 208   90 mt 1448   90 L
 208 1069 mt 1448 1069 L
 208   90 mt  208 1069 L
1448   90 mt 1448 1069 L
gs 208 90 1241 980 rc
4.16667 w
0 6 0 14 0 20 189 28 0 29 0 35 0 38 39 41 
0 46 0 48 0 50 102 60 0 52 0 59 0 64 -106 68 
0 70 0 79 0 69 0 103 642 90 21 MP stroke
gr

4.16667 w
gs 515 69 372 1021 rc
 638   86 mt  646   94 L
 646   86 mt  638   94 L
 638  189 mt  646  197 L
 646  189 mt  638  197 L
 638  258 mt  646  266 L
 646  258 mt  638  266 L
 638  337 mt  646  345 L
 646  337 mt  638  345 L
 638  407 mt  646  415 L
 646  407 mt  638  415 L
 532  475 mt  540  483 L
 540  475 mt  532  483 L
 532  539 mt  540  547 L
 540  539 mt  532  547 L
 532  598 mt  540  606 L
 540  598 mt  532  606 L
 532  650 mt  540  658 L
 540  650 mt  532  658 L
 634  710 mt  642  718 L
 642  710 mt  634  718 L
 634  760 mt  642  768 L
 642  760 mt  634  768 L
 634  808 mt  642  816 L
 642  808 mt  634  816 L
 634  854 mt  642  862 L
 642  854 mt  634  862 L
 673  895 mt  681  903 L
 681  895 mt  673  903 L
 673  933 mt  681  941 L
 681  933 mt  673  941 L
 673  968 mt  681  976 L
 681  968 mt  673  976 L
 673  997 mt  681 1005 L
 681  997 mt  673 1005 L
 862 1025 mt  870 1033 L
 870 1025 mt  862 1033 L
 862 1045 mt  870 1053 L
 870 1045 mt  862 1053 L
 862 1059 mt  870 1067 L
 870 1059 mt  862 1067 L
 862 1065 mt  870 1073 L
 870 1065 mt  862 1073 L
gr

gs 208 90 1241 980 rc
DD
0 6 0 14 0 20 250 28 0 29 0 35 0 38 59 41 
0 46 0 48 0 50 204 60 0 52 0 59 0 64 -89 68 
0 70 0 79 0 69 0 103 629 90 21 MP stroke
gr

DD
gs 520 69 554 1021 rc
SO
 625   86 mt  633   94 L
 633   86 mt  625   94 L
 625  189 mt  633  197 L
 633  189 mt  625  197 L
 625  258 mt  633  266 L
 633  258 mt  625  266 L
 625  337 mt  633  345 L
 633  337 mt  625  345 L
 625  407 mt  633  415 L
 633  407 mt  625  415 L
 536  475 mt  544  483 L
 544  475 mt  536  483 L
 536  539 mt  544  547 L
 544  539 mt  536  547 L
 536  598 mt  544  606 L
 544  598 mt  536  606 L
 536  650 mt  544  658 L
 544  650 mt  536  658 L
 740  710 mt  748  718 L
 748  710 mt  740  718 L
 740  760 mt  748  768 L
 748  760 mt  740  768 L
 740  808 mt  748  816 L
 748  808 mt  740  816 L
 740  854 mt  748  862 L
 748  854 mt  740  862 L
 799  895 mt  807  903 L
 807  895 mt  799  903 L
 799  933 mt  807  941 L
 807  933 mt  799  941 L
 799  968 mt  807  976 L
 807  968 mt  799  976 L
 799  997 mt  807 1005 L
 807  997 mt  799 1005 L
1049 1025 mt 1057 1033 L
1057 1025 mt 1049 1033 L
1049 1045 mt 1057 1053 L
1057 1045 mt 1049 1053 L
1049 1059 mt 1057 1067 L
1057 1059 mt 1049 1067 L
1049 1065 mt 1057 1073 L
1057 1065 mt 1049 1073 L
DD
gr

gs 208 90 1241 980 rc
SO
0.6 sg
0 6 0 14 0 20 252 28 0 29 0 35 0 38 -3 41 
0 46 0 48 0 50 -64 60 0 52 0 59 0 64 28 68 
0 70 0 79 0 69 0 103 835 90 21 MP stroke
gr

0.6 sg
SO
gs 776 69 293 1021 rc
 831   86 mt  839   94 L
 839   86 mt  831   94 L
 831  189 mt  839  197 L
 839  189 mt  831  197 L
 831  258 mt  839  266 L
 839  258 mt  831  266 L
 831  337 mt  839  345 L
 839  337 mt  831  345 L
 831  407 mt  839  415 L
 839  407 mt  831  415 L
 859  475 mt  867  483 L
 867  475 mt  859  483 L
 859  539 mt  867  547 L
 867  539 mt  859  547 L
 859  598 mt  867  606 L
 867  598 mt  859  606 L
 859  650 mt  867  658 L
 867  650 mt  859  658 L
 795  710 mt  803  718 L
 803  710 mt  795  718 L
 795  760 mt  803  768 L
 803  760 mt  795  768 L
 795  808 mt  803  816 L
 803  808 mt  795  816 L
 795  854 mt  803  862 L
 803  854 mt  795  862 L
 792  895 mt  800  903 L
 800  895 mt  792  903 L
 792  933 mt  800  941 L
 800  933 mt  792  941 L
 792  968 mt  800  976 L
 800  968 mt  792  976 L
 792  997 mt  800 1005 L
 800  997 mt  792 1005 L
1044 1025 mt 1052 1033 L
1052 1025 mt 1044 1033 L
1044 1045 mt 1052 1053 L
1052 1045 mt 1044 1053 L
1044 1059 mt 1052 1067 L
1052 1059 mt 1044 1067 L
1044 1065 mt 1052 1073 L
1052 1065 mt 1044 1073 L
gr

gs 208 90 1241 980 rc
DD
0 6 0 14 0 20 291 28 0 29 0 35 0 38 122 41 
0 46 0 48 0 50 -56 60 0 52 0 59 0 64 3 68 
0 70 0 79 0 69 0 103 848 90 21 MP stroke
gr

DD
gs 775 69 454 1021 rc
SO
 844   86 mt  852   94 L
 852   86 mt  844   94 L
 844  189 mt  852  197 L
 852  189 mt  844  197 L
 844  258 mt  852  266 L
 852  258 mt  844  266 L
 844  337 mt  852  345 L
 852  337 mt  844  345 L
 844  407 mt  852  415 L
 852  407 mt  844  415 L
 847  475 mt  855  483 L
 855  475 mt  847  483 L
 847  539 mt  855  547 L
 855  539 mt  847  547 L
 847  598 mt  855  606 L
 855  598 mt  847  606 L
 847  650 mt  855  658 L
 855  650 mt  847  658 L
 791  710 mt  799  718 L
 799  710 mt  791  718 L
 791  760 mt  799  768 L
 799  760 mt  791  768 L
 791  808 mt  799  816 L
 799  808 mt  791  816 L
 791  854 mt  799  862 L
 799  854 mt  791  862 L
 913  895 mt  921  903 L
 921  895 mt  913  903 L
 913  933 mt  921  941 L
 921  933 mt  913  941 L
 913  968 mt  921  976 L
 921  968 mt  913  976 L
 913  997 mt  921 1005 L
 921  997 mt  913 1005 L
1204 1025 mt 1212 1033 L
1212 1025 mt 1204 1033 L
1204 1045 mt 1212 1053 L
1212 1045 mt 1204 1053 L
1204 1059 mt 1212 1067 L
1212 1059 mt 1204 1067 L
1204 1065 mt 1212 1073 L
1212 1065 mt 1204 1073 L
DD
gr

gs 208 90 1241 980 rc
gr

0 sg
 119  670 mt  -90 rotate
(Pressure \(hPa\)) s
90 rotate
 598 1136 mt 
(Relative Humidity RMS error \(Percent\)) s
 598   39 mt 
(AQUA observation - Land intratropical) s
 687   70 mt 
(Radiosonde - Retrieval) s
 204 1080 mt 
( ) s
1445  100 mt 
( ) s
SO
1.38889 w
1 sg
0 147 430 0 0 -147 991 257 4 MP
PP
-430 0 0 147 430 0 0 -147 991 257 5 MP stroke
0.925926 w
DO
SO
1.38889 w
0 sg
 991  257 mt 1421  257 L
 991  110 mt 1421  110 L
 991  257 mt  991  110 L
1421  257 mt 1421  110 L
 991  257 mt 1421  257 L
 991  257 mt  991  110 L
 991  257 mt 1421  257 L
 991  110 mt 1421  110 L
 991  257 mt  991  110 L
1421  257 mt 1421  110 L
1095  142 mt 
(Retrieval Cal\(Obs\) Clear) s
gs 991 110 431 148 rc
4.16667 w
80 0 1007 131 2 MP stroke
gs 1026 111 42 41 rc
1043  127 mt 1051  135 L
1051  127 mt 1043  135 L
gr

gr

4.16667 w
1095  177 mt 
(Retrieval Obs Clear) s
gs 991 110 431 148 rc
DD
80 0 1007 166 2 MP stroke
SO
gs 1026 146 42 41 rc
1043  162 mt 1051  170 L
1051  162 mt 1043  170 L
gr

gr

1095  211 mt 
(Retrieval Cal\(Obs\) Cloudy) s
gs 991 110 431 148 rc
0.6 sg
80 0 1007 200 2 MP stroke
gs 1026 180 42 41 rc
1043  196 mt 1051  204 L
1051  196 mt 1043  204 L
gr

gr

0.6 sg
0 sg
1095  246 mt 
(Retrieval Obs Cloudy) s
gs 991 110 431 148 rc
DD
0.6 sg
80 0 1007 235 2 MP stroke
SO
gs 1026 215 42 41 rc
1043  231 mt 1051  239 L
1051  231 mt 1043  239 L
gr

1.38889 w
gr

1.38889 w
0.6 sg

end %%Color Dict

eplot
%%EndObject

epage
end

showpage

%%Trailer
%%EOF
