%!PS-Adobe-3.0 EPSF-3.0
%%Creator: MATLAB, The Mathworks, Inc. Version 7.6.0.324 (R2008a). Operating System: Linux 2.6.17-5mdv #1 SMP Wed Sep 13 14:28:02 EDT 2006 x86_64.
%%Title: /gaia5/data2/estellus/datas/SMFW_test/METOP.full/results/../../mt_1.eps
%%CreationDate: 02/11/2011  14:46:30
%%DocumentNeededFonts: Helvetica
%%DocumentProcessColors: Cyan Magenta Yellow Black
%%LanguageLevel: 2
%%Pages: 1
%%BoundingBox:    77   210   548   599
%%EndComments

%%BeginProlog
% MathWorks dictionary
/MathWorks 160 dict begin
% definition operators
/bdef {bind def} bind def
/ldef {load def} bind def
/xdef {exch def} bdef
/xstore {exch store} bdef
% operator abbreviations
/c  /clip ldef
/cc /concat ldef
/cp /closepath ldef
/gr /grestore ldef
/gs /gsave ldef
/mt /moveto ldef
/np /newpath ldef
/cm /currentmatrix ldef
/sm /setmatrix ldef
/rm /rmoveto ldef
/rl /rlineto ldef
/s {show newpath} bdef
/sc {setcmykcolor} bdef
/sr /setrgbcolor ldef
/sg /setgray ldef
/w /setlinewidth ldef
/j /setlinejoin ldef
/cap /setlinecap ldef
/rc {rectclip} bdef
/rf {rectfill} bdef
% page state control
/pgsv () def
/bpage {/pgsv save def} bdef
/epage {pgsv restore} bdef
/bplot /gsave ldef
/eplot {stroke grestore} bdef
% orientation switch
/portraitMode 0 def /landscapeMode 1 def /rotateMode 2 def
% coordinate system mappings
/dpi2point 0 def
% font control
/FontSize 0 def
/FMS {/FontSize xstore findfont [FontSize 0 0 FontSize neg 0 0]
  makefont setfont} bdef
/reencode {exch dup where {pop load} {pop StandardEncoding} ifelse
  exch dup 3 1 roll findfont dup length dict begin
  { 1 index /FID ne {def}{pop pop} ifelse } forall
  /Encoding exch def currentdict end definefont pop} bdef
/isroman {findfont /CharStrings get /Agrave known} bdef
/FMSR {3 1 roll 1 index dup isroman {reencode} {pop pop} ifelse
  exch FMS} bdef
/csm {1 dpi2point div -1 dpi2point div scale neg translate
 dup landscapeMode eq {pop -90 rotate}
  {rotateMode eq {90 rotate} if} ifelse} bdef
% line types: solid, dotted, dashed, dotdash
/SO { [] 0 setdash } bdef
/DO { [.5 dpi2point mul 4 dpi2point mul] 0 setdash } bdef
/DA { [6 dpi2point mul] 0 setdash } bdef
/DD { [.5 dpi2point mul 4 dpi2point mul 6 dpi2point mul 4
  dpi2point mul] 0 setdash } bdef
% macros for lines and objects
/L {lineto stroke} bdef
/MP {3 1 roll moveto 1 sub {rlineto} repeat} bdef
/AP {{rlineto} repeat} bdef
/PDlw -1 def
/W {/PDlw currentlinewidth def setlinewidth} def
/PP {closepath eofill} bdef
/DP {closepath stroke} bdef
/MR {4 -2 roll moveto dup  0 exch rlineto exch 0 rlineto
  neg 0 exch rlineto closepath} bdef
/FR {MR stroke} bdef
/PR {MR fill} bdef
/L1i {{currentfile picstr readhexstring pop} image} bdef
/tMatrix matrix def
/MakeOval {newpath tMatrix currentmatrix pop translate scale
0 0 1 0 360 arc tMatrix setmatrix} bdef
/FO {MakeOval stroke} bdef
/PO {MakeOval fill} bdef
/PD {currentlinewidth 2 div 0 360 arc fill
   PDlw -1 eq not {PDlw w /PDlw -1 def} if} def
/FA {newpath tMatrix currentmatrix pop translate scale
  0 0 1 5 -2 roll arc tMatrix setmatrix stroke} bdef
/PA {newpath tMatrix currentmatrix pop	translate 0 0 moveto scale
  0 0 1 5 -2 roll arc closepath tMatrix setmatrix fill} bdef
/FAn {newpath tMatrix currentmatrix pop translate scale
  0 0 1 5 -2 roll arcn tMatrix setmatrix stroke} bdef
/PAn {newpath tMatrix currentmatrix pop translate 0 0 moveto scale
  0 0 1 5 -2 roll arcn closepath tMatrix setmatrix fill} bdef
/vradius 0 def /hradius 0 def /lry 0 def
/lrx 0 def /uly 0 def /ulx 0 def /rad 0 def
/MRR {/vradius xdef /hradius xdef /lry xdef /lrx xdef /uly xdef
  /ulx xdef newpath tMatrix currentmatrix pop ulx hradius add uly
  vradius add translate hradius vradius scale 0 0 1 180 270 arc 
  tMatrix setmatrix lrx hradius sub uly vradius add translate
  hradius vradius scale 0 0 1 270 360 arc tMatrix setmatrix
  lrx hradius sub lry vradius sub translate hradius vradius scale
  0 0 1 0 90 arc tMatrix setmatrix ulx hradius add lry vradius sub
  translate hradius vradius scale 0 0 1 90 180 arc tMatrix setmatrix
  closepath} bdef
/FRR {MRR stroke } bdef
/PRR {MRR fill } bdef
/MlrRR {/lry xdef /lrx xdef /uly xdef /ulx xdef /rad lry uly sub 2 div def
  newpath tMatrix currentmatrix pop ulx rad add uly rad add translate
  rad rad scale 0 0 1 90 270 arc tMatrix setmatrix lrx rad sub lry rad
  sub translate rad rad scale 0 0 1 270 90 arc tMatrix setmatrix
  closepath} bdef
/FlrRR {MlrRR stroke } bdef
/PlrRR {MlrRR fill } bdef
/MtbRR {/lry xdef /lrx xdef /uly xdef /ulx xdef /rad lrx ulx sub 2 div def
  newpath tMatrix currentmatrix pop ulx rad add uly rad add translate
  rad rad scale 0 0 1 180 360 arc tMatrix setmatrix lrx rad sub lry rad
  sub translate rad rad scale 0 0 1 0 180 arc tMatrix setmatrix
  closepath} bdef
/FtbRR {MtbRR stroke } bdef
/PtbRR {MtbRR fill } bdef
/stri 6 array def /dtri 6 array def
/smat 6 array def /dmat 6 array def
/tmat1 6 array def /tmat2 6 array def /dif 3 array def
/asub {/ind2 exch def /ind1 exch def dup dup
  ind1 get exch ind2 get sub exch } bdef
/tri_to_matrix {
  2 0 asub 3 1 asub 4 0 asub 5 1 asub
  dup 0 get exch 1 get 7 -1 roll astore } bdef
/compute_transform {
  dmat dtri tri_to_matrix tmat1 invertmatrix 
  smat stri tri_to_matrix tmat2 concatmatrix } bdef
/ds {stri astore pop} bdef
/dt {dtri astore pop} bdef
/db {2 copy /cols xdef /rows xdef mul dup 3 mul string
  currentfile 
  3 index 0 eq {/ASCIIHexDecode filter}
  {/ASCII85Decode filter 3 index 2 eq {/RunLengthDecode filter} if }
  ifelse exch readstring pop
  dup 0 3 index getinterval /rbmap xdef
  dup 2 index dup getinterval /gbmap xdef
  1 index dup 2 mul exch getinterval /bbmap xdef pop pop}bdef
/it {gs np dtri aload pop moveto lineto lineto cp c
  cols rows 8 compute_transform 
  rbmap gbmap bbmap true 3 colorimage gr}bdef
/il {newpath moveto lineto stroke}bdef
currentdict end def
%%EndProlog

%%BeginSetup
MathWorks begin

0 cap

end
%%EndSetup

%%Page: 1 1
%%BeginPageSetup
%%PageBoundingBox:    77   210   548   599
MathWorks begin
bpage
%%EndPageSetup

%%BeginObject: obj1
bplot

/dpi2point 3.33333 def
portraitMode 0060 2040 csm

  197    41  1570  1298 rc
86 dict begin %Colortable dictionary
/c0 { 0.000000 0.000000 0.000000 sr} bdef
/c1 { 1.000000 1.000000 1.000000 sr} bdef
/c2 { 0.900000 0.000000 0.000000 sr} bdef
/c3 { 0.000000 0.820000 0.000000 sr} bdef
/c4 { 0.000000 0.000000 0.800000 sr} bdef
/c5 { 0.910000 0.820000 0.320000 sr} bdef
/c6 { 1.000000 0.260000 0.820000 sr} bdef
/c7 { 0.000000 0.820000 0.820000 sr} bdef
c0
1 j
1 sg
   0    0 1921 1442 rf
1.66667 w
0 402 596 0 0 -402 296 510 4 MP
PP
-596 0 0 402 596 0 0 -402 296 510 5 MP stroke
1.11111 w
DO
0 sg
 296  510 mt  892  510 L
 892  510 mt  892  510 L
 296  429 mt  892  429 L
 892  429 mt  892  429 L
 296  349 mt  892  349 L
 892  349 mt  892  349 L
 296  268 mt  892  268 L
 892  268 mt  892  268 L
 296  188 mt  892  188 L
 892  188 mt  892  188 L
 296  108 mt  892  108 L
 892  108 mt  892  108 L
SO
1.66667 w
 296  510 mt  892  510 L
 296  108 mt  892  108 L
 296  510 mt  296  108 L
 892  510 mt  892  108 L
 296  510 mt  892  510 L
 296  510 mt  296  108 L
 296  510 mt  296  504 L
 296  108 mt  296  113 L
 327  510 mt  327  504 L
 327  108 mt  327  113 L
 358  510 mt  358  504 L
 358  108 mt  358  113 L
 390  510 mt  390  504 L
 390  108 mt  390  113 L
 421  510 mt  421  504 L
 421  108 mt  421  113 L
 452  510 mt  452  504 L
 452  108 mt  452  113 L
 484  510 mt  484  504 L
 484  108 mt  484  113 L
 515  510 mt  515  504 L
 515  108 mt  515  113 L
 546  510 mt  546  504 L
 546  108 mt  546  113 L
 578  510 mt  578  504 L
 578  108 mt  578  113 L
 609  510 mt  609  504 L
 609  108 mt  609  113 L
 641  510 mt  641  504 L
 641  108 mt  641  113 L
 672  510 mt  672  504 L
 672  108 mt  672  113 L
 703  510 mt  703  504 L
 703  108 mt  703  113 L
 735  510 mt  735  504 L
 735  108 mt  735  113 L
 766  510 mt  766  504 L
 766  108 mt  766  113 L
 797  510 mt  797  504 L
 797  108 mt  797  113 L
 829  510 mt  829  504 L
 829  108 mt  829  113 L
 860  510 mt  860  504 L
 860  108 mt  860  113 L
 892  510 mt  892  504 L
 892  108 mt  892  113 L
 296  510 mt  301  510 L
 892  510 mt  886  510 L
%%IncludeResource: font Helvetica
/Helvetica /ISOLatin1Encoding 33.3333 FMSR

 268  522 mt 
(0) s
 296  429 mt  301  429 L
 892  429 mt  886  429 L
 268  441 mt 
(3) s
 296  349 mt  301  349 L
 892  349 mt  886  349 L
 268  361 mt 
(6) s
 296  268 mt  301  268 L
 892  268 mt  886  268 L
 268  280 mt 
(9) s
 296  188 mt  301  188 L
 892  188 mt  886  188 L
 249  200 mt 
(12) s
 296  108 mt  301  108 L
 892  108 mt  886  108 L
 249  120 mt 
(15) s
 296  510 mt  892  510 L
 296  108 mt  892  108 L
 296  510 mt  296  108 L
 892  510 mt  892  108 L
gs 296 108 597 403 rc
4.66667 w
32 2 31 -2 32 13 31 21 31 -4 32 -35 31 -31 31 -8 
32 -3 31 -1 32 0 31 -3 31 -1 32 1 31 7 31 15 
32 36 31 35 31 -7 296 418 20 MP stroke
gr

4.66667 w
 291  413 mt  301  423 L
 301  413 mt  291  423 L
 322  406 mt  332  416 L
 332  406 mt  322  416 L
 353  441 mt  363  451 L
 363  441 mt  353  451 L
 385  477 mt  395  487 L
 395  477 mt  385  487 L
 416  492 mt  426  502 L
 426  492 mt  416  502 L
 447  499 mt  457  509 L
 457  499 mt  447  509 L
 479  500 mt  489  510 L
 489  500 mt  479  510 L
 510  499 mt  520  509 L
 520  499 mt  510  509 L
 541  496 mt  551  506 L
 551  496 mt  541  506 L
 573  496 mt  583  506 L
 583  496 mt  573  506 L
 604  495 mt  614  505 L
 614  495 mt  604  505 L
 636  492 mt  646  502 L
 646  492 mt  636  502 L
 667  484 mt  677  494 L
 677  484 mt  667  494 L
 698  453 mt  708  463 L
 708  453 mt  698  463 L
 730  418 mt  740  428 L
 740  418 mt  730  428 L
 761  414 mt  771  424 L
 771  414 mt  761  424 L
 792  435 mt  802  445 L
 802  435 mt  792  445 L
 824  448 mt  834  458 L
 834  448 mt  824  458 L
 855  446 mt  865  456 L
 865  446 mt  855  456 L
 887  448 mt  897  458 L
 897  448 mt  887  458 L
gs 296 108 597 403 rc
DD
32 11 31 40 32 -40 31 19 31 -3 32 6 31 -31 31 -39 
32 -14 31 0 32 11 31 -7 31 3 32 0 31 -4 31 22 
32 45 31 33 31 -5 296 398 20 MP stroke
gr

DD
SO
 291  393 mt  301  403 L
 301  393 mt  291  403 L
 322  388 mt  332  398 L
 332  388 mt  322  398 L
 353  421 mt  363  431 L
 363  421 mt  353  431 L
 385  466 mt  395  476 L
 395  466 mt  385  476 L
 416  488 mt  426  498 L
 426  488 mt  416  498 L
 447  484 mt  457  494 L
 457  484 mt  447  494 L
 479  484 mt  489  494 L
 489  484 mt  479  494 L
 510  487 mt  520  497 L
 520  487 mt  510  497 L
 541  480 mt  551  490 L
 551  480 mt  541  490 L
 573  491 mt  583  501 L
 583  491 mt  573  501 L
 604  491 mt  614  501 L
 614  491 mt  604  501 L
 636  477 mt  646  487 L
 646  477 mt  636  487 L
 667  438 mt  677  448 L
 677  438 mt  667  448 L
 698  407 mt  708  417 L
 708  407 mt  698  417 L
 730  413 mt  740  423 L
 740  413 mt  730  423 L
 761  410 mt  771  420 L
 771  410 mt  761  420 L
 792  429 mt  802  439 L
 802  429 mt  792  439 L
 824  389 mt  834  399 L
 834  389 mt  824  399 L
 855  429 mt  865  439 L
 865  429 mt  855  439 L
 887  440 mt  897  450 L
 897  440 mt  887  450 L
DD
gs 296 108 597 403 rc
SO
1.66667 w
4.66667 w
0.5 sg
32 2 31 -4 32 -7 31 24 31 -8 32 -17 31 -29 31 -7 
32 -3 31 -1 32 0 31 -3 31 -2 32 1 31 6 31 13 
32 32 31 31 31 -11 296 433 20 MP stroke
gr

0.5 sg
SO
 291  428 mt  301  438 L
 301  428 mt  291  438 L
 322  417 mt  332  427 L
 332  417 mt  322  427 L
 353  448 mt  363  458 L
 363  448 mt  353  458 L
 385  480 mt  395  490 L
 395  480 mt  385  490 L
 416  493 mt  426  503 L
 426  493 mt  416  503 L
 447  499 mt  457  509 L
 457  499 mt  447  509 L
 479  500 mt  489  510 L
 489  500 mt  479  510 L
 510  498 mt  520  508 L
 520  498 mt  510  508 L
 541  495 mt  551  505 L
 551  495 mt  541  505 L
 573  495 mt  583  505 L
 583  495 mt  573  505 L
 604  494 mt  614  504 L
 614  494 mt  604  504 L
 636  491 mt  646  501 L
 646  491 mt  636  501 L
 667  484 mt  677  494 L
 677  484 mt  667  494 L
 698  455 mt  708  465 L
 708  455 mt  698  465 L
 730  438 mt  740  448 L
 740  438 mt  730  448 L
 761  430 mt  771  440 L
 771  430 mt  761  440 L
 792  454 mt  802  464 L
 802  454 mt  792  464 L
 824  447 mt  834  457 L
 834  447 mt  824  457 L
 855  443 mt  865  453 L
 865  443 mt  855  453 L
 887  445 mt  897  455 L
 897  445 mt  887  455 L
gs 296 108 597 403 rc
DD
32 9 31 32 32 -58 31 17 31 2 32 24 31 -36 31 -41 
32 -12 31 0 32 10 31 -8 31 3 32 0 31 -3 31 19 
32 40 31 31 31 -13 296 416 20 MP stroke
gr

DD
SO
 291  411 mt  301  421 L
 301  411 mt  291  421 L
 322  398 mt  332  408 L
 332  398 mt  322  408 L
 353  429 mt  363  439 L
 363  429 mt  353  439 L
 385  469 mt  395  479 L
 395  469 mt  385  479 L
 416  488 mt  426  498 L
 426  488 mt  416  498 L
 447  485 mt  457  495 L
 457  485 mt  447  495 L
 479  485 mt  489  495 L
 489  485 mt  479  495 L
 510  488 mt  520  498 L
 520  488 mt  510  498 L
 541  480 mt  551  490 L
 551  480 mt  541  490 L
 573  490 mt  583  500 L
 583  490 mt  573  500 L
 604  490 mt  614  500 L
 614  490 mt  604  500 L
 636  478 mt  646  488 L
 646  478 mt  636  488 L
 667  437 mt  677  447 L
 677  437 mt  667  447 L
 698  401 mt  708  411 L
 708  401 mt  698  411 L
 730  425 mt  740  435 L
 740  425 mt  730  435 L
 761  427 mt  771  437 L
 771  427 mt  761  437 L
 792  444 mt  802  454 L
 802  444 mt  792  454 L
 824  386 mt  834  396 L
 834  386 mt  824  396 L
 855  418 mt  865  428 L
 865  418 mt  855  428 L
 887  427 mt  897  437 L
 897  427 mt  887  437 L
DD
gs 296 108 597 403 rc
SO
1.66667 w
gr

1.66667 w
SO
0 sg
 263  400 mt  -90 rotate
(RMS TB \(K\)) s
90 rotate
 469   92 mt 
(METOP on Land) s
%%IncludeResource: font Helvetica
/Helvetica /ISOLatin1Encoding 20 FMSR

 219  609 mt  -45 rotate
(AMSUA 23.8) s
45 rotate
 304  555 mt  -45 rotate
(31.4) s
45 rotate
 335  555 mt  -45 rotate
(50.3) s
45 rotate
 367  555 mt  -45 rotate
(52.8) s
45 rotate
 398  555 mt  -45 rotate
(53.6) s
45 rotate
 429  555 mt  -45 rotate
(54.4) s
45 rotate
 453  563 mt  -45 rotate
(54.94) s
45 rotate
 492  555 mt  -45 rotate
(55.5) s
45 rotate
 515  563 mt  -45 rotate
(57.29) s
45 rotate
 530  580 mt  -45 rotate
(+-0.217) s
45 rotate
 505  635 mt  -45 rotate
(+-0.322 +-0.048) s
45 rotate
 537  635 mt  -45 rotate
(+-0.322 +-0.022) s
45 rotate
 568  635 mt  -45 rotate
(+-0.322 +-0.010) s
45 rotate
 592  643 mt  -45 rotate
(+-0.322 +-0.0045) s
45 rotate
 712  555 mt  -45 rotate
(89.0) s
45 rotate
 708  590 mt  -45 rotate
(MHS 89.0) s
45 rotate
 778  551 mt  -45 rotate
(157) s
45 rotate
 762  599 mt  -45 rotate
(183.31 +-1) s
45 rotate
 793  599 mt  -45 rotate
(183.31 +-3) s
45 rotate
 861  563 mt  -45 rotate
(190.3) s
45 rotate
%%IncludeResource: font Helvetica
/Helvetica /ISOLatin1Encoding 33.3333 FMSR

 291  523 mt 
( ) s
 888  120 mt 
( ) s
1 sg
0 120 417 0 0 -120 459 245 4 MP
PP
-417 0 0 120 417 0 0 -120 459 245 5 MP stroke
1.11111 w
DO
SO
1.66667 w
0 sg
 459  245 mt  876  245 L
 459  125 mt  876  125 L
 459  245 mt  459  125 L
 876  245 mt  876  125 L
 459  245 mt  876  245 L
 459  245 mt  459  125 L
 459  245 mt  876  245 L
 459  125 mt  876  125 L
 459  245 mt  459  125 L
 876  245 mt  876  125 L
%%IncludeResource: font Helvetica
/Helvetica /ISOLatin1Encoding 16.6667 FMSR

 593  146 mt 
(RT\(ANA\) - CAL\(OBS\) clear) s
gs 459 125 418 121 rc
4.66667 w
103 0 479 140 2 MP stroke
gr

4.66667 w
gs 507 116 48 48 rc
 525  135 mt  535  145 L
 535  135 mt  525  145 L
gr

gs 459 125 418 121 rc
gr

 593  169 mt 
(RT\(ANA\) - OBS clear \(5401 points\)) s
gs 459 125 418 121 rc
DD
103 0 479 162 2 MP stroke
SO
gs 507 139 48 47 rc
 525  157 mt  535  167 L
 535  157 mt  525  167 L
gr

1.66667 w
gr

1.66667 w
 593  214 mt 
(RT\(ANA\) - CAL\(OBS\) cloudy) s
gs 459 125 418 121 rc
4.66667 w
0.5 sg
103 0 479 207 2 MP stroke
gs 507 184 48 47 rc
 525  202 mt  535  212 L
 535  202 mt  525  212 L
gr

gr

4.66667 w
0.5 sg
0 sg
 593  237 mt 
(RT\(ANA\) - OBS cloudy \(4166 points\)) s
gs 459 125 418 121 rc
DD
0.5 sg
103 0 479 229 2 MP stroke
SO
gr

0.5 sg
gs 507 206 48 48 rc
 525  224 mt  535  234 L
 535  224 mt  525  234 L
gr

gs 459 125 418 121 rc
1.66667 w
gr

1.66667 w
1 sg
0 402 596 0 0 -402 296 1193 4 MP
PP
-596 0 0 402 596 0 0 -402 296 1193 5 MP stroke
1.11111 w
DO
0 sg
 296 1193 mt  892 1193 L
 892 1193 mt  892 1193 L
 296 1112 mt  892 1112 L
 892 1112 mt  892 1112 L
 296 1032 mt  892 1032 L
 892 1032 mt  892 1032 L
 296  951 mt  892  951 L
 892  951 mt  892  951 L
 296  871 mt  892  871 L
 892  871 mt  892  871 L
 296  791 mt  892  791 L
 892  791 mt  892  791 L
SO
1.66667 w
 296 1193 mt  892 1193 L
 296  791 mt  892  791 L
 296 1193 mt  296  791 L
 892 1193 mt  892  791 L
 296 1193 mt  892 1193 L
 296 1193 mt  296  791 L
 296 1193 mt  296 1187 L
 296  791 mt  296  796 L
 327 1193 mt  327 1187 L
 327  791 mt  327  796 L
 358 1193 mt  358 1187 L
 358  791 mt  358  796 L
 390 1193 mt  390 1187 L
 390  791 mt  390  796 L
 421 1193 mt  421 1187 L
 421  791 mt  421  796 L
 452 1193 mt  452 1187 L
 452  791 mt  452  796 L
 484 1193 mt  484 1187 L
 484  791 mt  484  796 L
 515 1193 mt  515 1187 L
 515  791 mt  515  796 L
 546 1193 mt  546 1187 L
 546  791 mt  546  796 L
 578 1193 mt  578 1187 L
 578  791 mt  578  796 L
 609 1193 mt  609 1187 L
 609  791 mt  609  796 L
 641 1193 mt  641 1187 L
 641  791 mt  641  796 L
 672 1193 mt  672 1187 L
 672  791 mt  672  796 L
 703 1193 mt  703 1187 L
 703  791 mt  703  796 L
 735 1193 mt  735 1187 L
 735  791 mt  735  796 L
 766 1193 mt  766 1187 L
 766  791 mt  766  796 L
 797 1193 mt  797 1187 L
 797  791 mt  797  796 L
 829 1193 mt  829 1187 L
 829  791 mt  829  796 L
 860 1193 mt  860 1187 L
 860  791 mt  860  796 L
 892 1193 mt  892 1187 L
 892  791 mt  892  796 L
 296 1193 mt  301 1193 L
 892 1193 mt  886 1193 L
%%IncludeResource: font Helvetica
/Helvetica /ISOLatin1Encoding 33.3333 FMSR

 268 1205 mt 
(0) s
 296 1112 mt  301 1112 L
 892 1112 mt  886 1112 L
 268 1124 mt 
(3) s
 296 1032 mt  301 1032 L
 892 1032 mt  886 1032 L
 268 1044 mt 
(6) s
 296  951 mt  301  951 L
 892  951 mt  886  951 L
 268  963 mt 
(9) s
 296  871 mt  301  871 L
 892  871 mt  886  871 L
 249  883 mt 
(12) s
 296  791 mt  301  791 L
 892  791 mt  886  791 L
 249  803 mt 
(15) s
 296 1193 mt  892 1193 L
 296  791 mt  892  791 L
 296 1193 mt  296  791 L
 892 1193 mt  892  791 L
gs 296 791 597 403 rc
4.66667 w
32 9 31 2 32 34 31 21 31 -13 32 -47 31 -29 31 -7 
32 -2 31 -2 32 0 31 -3 31 -1 32 0 31 2 31 4 
32 23 31 14 31 45 296 1100 20 MP stroke
gr

4.66667 w
 291 1095 mt  301 1105 L
 301 1095 mt  291 1105 L
 322 1140 mt  332 1150 L
 332 1140 mt  322 1150 L
 353 1154 mt  363 1164 L
 363 1154 mt  353 1164 L
 385 1177 mt  395 1187 L
 395 1177 mt  385 1187 L
 416 1181 mt  426 1191 L
 426 1181 mt  416 1191 L
 447 1183 mt  457 1193 L
 457 1183 mt  447 1193 L
 479 1183 mt  489 1193 L
 489 1183 mt  479 1193 L
 510 1182 mt  520 1192 L
 520 1182 mt  510 1192 L
 541 1179 mt  551 1189 L
 551 1179 mt  541 1189 L
 573 1179 mt  583 1189 L
 583 1179 mt  573 1189 L
 604 1177 mt  614 1187 L
 614 1177 mt  604 1187 L
 636 1175 mt  646 1185 L
 646 1175 mt  636 1185 L
 667 1168 mt  677 1178 L
 677 1168 mt  667 1178 L
 698 1139 mt  708 1149 L
 708 1139 mt  698 1149 L
 730 1092 mt  740 1102 L
 740 1092 mt  730 1102 L
 761 1079 mt  771 1089 L
 771 1079 mt  761 1089 L
 792 1100 mt  802 1110 L
 802 1100 mt  792 1110 L
 824 1134 mt  834 1144 L
 834 1134 mt  824 1144 L
 855 1136 mt  865 1146 L
 865 1136 mt  855 1146 L
 887 1145 mt  897 1155 L
 897 1145 mt  887 1155 L
gs 296 791 597 403 rc
DD
32 20 31 48 32 2 31 53 31 6 32 -71 31 -33 31 -42 
32 -14 31 -1 32 11 31 -7 31 3 32 1 31 -14 31 5 
32 83 31 9 31 17 296 1071 20 MP stroke
gr

DD
SO
 291 1066 mt  301 1076 L
 301 1066 mt  291 1076 L
 322 1083 mt  332 1093 L
 332 1083 mt  322 1093 L
 353 1092 mt  363 1102 L
 363 1092 mt  353 1102 L
 385 1175 mt  395 1185 L
 395 1175 mt  385 1185 L
 416 1180 mt  426 1190 L
 426 1180 mt  416 1190 L
 447 1166 mt  457 1176 L
 457 1166 mt  447 1176 L
 479 1167 mt  489 1177 L
 489 1167 mt  479 1177 L
 510 1170 mt  520 1180 L
 520 1170 mt  510 1180 L
 541 1163 mt  551 1173 L
 551 1163 mt  541 1173 L
 573 1174 mt  583 1184 L
 583 1174 mt  573 1184 L
 604 1173 mt  614 1183 L
 614 1173 mt  604 1183 L
 636 1159 mt  646 1169 L
 646 1159 mt  636 1169 L
 667 1117 mt  677 1127 L
 677 1117 mt  667 1127 L
 698 1084 mt  708 1094 L
 708 1084 mt  698 1094 L
 730 1013 mt  740 1023 L
 740 1013 mt  730 1023 L
 761 1019 mt  771 1029 L
 771 1019 mt  761 1029 L
 792 1072 mt  802 1082 L
 802 1072 mt  792 1082 L
 824 1074 mt  834 1084 L
 834 1074 mt  824 1084 L
 855 1122 mt  865 1132 L
 865 1122 mt  855 1132 L
 887 1142 mt  897 1152 L
 897 1142 mt  887 1152 L
DD
gs 296 791 597 403 rc
SO
1.66667 w
4.66667 w
0.5 sg
32 9 31 6 32 17 31 79 31 -19 32 -80 31 -31 31 -7 
32 -3 31 -2 32 0 31 -3 31 -1 32 0 31 2 31 5 
32 37 31 16 31 41 296 1087 20 MP stroke
gr

0.5 sg
SO
 291 1082 mt  301 1092 L
 301 1082 mt  291 1092 L
 322 1123 mt  332 1133 L
 332 1123 mt  322 1133 L
 353 1139 mt  363 1149 L
 363 1139 mt  353 1149 L
 385 1176 mt  395 1186 L
 395 1176 mt  385 1186 L
 416 1181 mt  426 1191 L
 426 1181 mt  416 1191 L
 447 1183 mt  457 1193 L
 457 1183 mt  447 1193 L
 479 1183 mt  489 1193 L
 489 1183 mt  479 1193 L
 510 1182 mt  520 1192 L
 520 1182 mt  510 1192 L
 541 1179 mt  551 1189 L
 551 1179 mt  541 1189 L
 573 1179 mt  583 1189 L
 583 1179 mt  573 1189 L
 604 1177 mt  614 1187 L
 614 1177 mt  604 1187 L
 636 1174 mt  646 1184 L
 646 1174 mt  636 1184 L
 667 1167 mt  677 1177 L
 677 1167 mt  667 1177 L
 698 1136 mt  708 1146 L
 708 1136 mt  698 1146 L
 730 1056 mt  740 1066 L
 740 1056 mt  730 1066 L
 761 1037 mt  771 1047 L
 771 1037 mt  761 1047 L
 792 1116 mt  802 1126 L
 802 1116 mt  792 1126 L
 824 1133 mt  834 1143 L
 834 1133 mt  824 1143 L
 855 1139 mt  865 1149 L
 865 1139 mt  855 1149 L
 887 1148 mt  897 1158 L
 897 1148 mt  887 1158 L
gs 296 791 597 403 rc
DD
32 23 31 47 32 -33 31 94 31 4 32 -72 31 -36 31 -43 
32 -14 31 -1 32 9 31 -6 31 2 32 0 31 -11 31 6 
32 86 31 18 31 4 296 1070 20 MP stroke
gr

DD
SO
 291 1065 mt  301 1075 L
 301 1065 mt  291 1075 L
 322 1069 mt  332 1079 L
 332 1069 mt  322 1079 L
 353 1087 mt  363 1097 L
 363 1087 mt  353 1097 L
 385 1173 mt  395 1183 L
 395 1173 mt  385 1183 L
 416 1179 mt  426 1189 L
 426 1179 mt  416 1189 L
 447 1168 mt  457 1178 L
 457 1168 mt  447 1178 L
 479 1168 mt  489 1178 L
 489 1168 mt  479 1178 L
 510 1170 mt  520 1180 L
 520 1170 mt  510 1180 L
 541 1164 mt  551 1174 L
 551 1164 mt  541 1174 L
 573 1173 mt  583 1183 L
 583 1173 mt  573 1183 L
 604 1172 mt  614 1182 L
 614 1172 mt  604 1182 L
 636 1158 mt  646 1168 L
 646 1158 mt  636 1168 L
 667 1115 mt  677 1125 L
 677 1115 mt  667 1125 L
 698 1079 mt  708 1089 L
 708 1079 mt  698 1089 L
 730 1007 mt  740 1017 L
 740 1007 mt  730 1017 L
 761 1011 mt  771 1021 L
 771 1011 mt  761 1021 L
 792 1105 mt  802 1115 L
 802 1105 mt  792 1115 L
 824 1072 mt  834 1082 L
 834 1072 mt  824 1082 L
 855 1119 mt  865 1129 L
 865 1119 mt  855 1129 L
 887 1142 mt  897 1152 L
 897 1142 mt  887 1152 L
DD
gs 296 791 597 403 rc
SO
1.66667 w
gr

1.66667 w
SO
0 sg
 263 1084 mt  -90 rotate
(RMS TB \(K\)) s
90 rotate
 456  775 mt 
(METOP on Ocean) s
%%IncludeResource: font Helvetica
/Helvetica /ISOLatin1Encoding 20 FMSR

 219 1292 mt  -45 rotate
(AMSUA 23.8) s
45 rotate
 304 1238 mt  -45 rotate
(31.4) s
45 rotate
 335 1238 mt  -45 rotate
(50.3) s
45 rotate
 367 1238 mt  -45 rotate
(52.8) s
45 rotate
 398 1238 mt  -45 rotate
(53.6) s
45 rotate
 429 1238 mt  -45 rotate
(54.4) s
45 rotate
 453 1246 mt  -45 rotate
(54.94) s
45 rotate
 492 1238 mt  -45 rotate
(55.5) s
45 rotate
 515 1246 mt  -45 rotate
(57.29) s
45 rotate
 530 1263 mt  -45 rotate
(+-0.217) s
45 rotate
 505 1318 mt  -45 rotate
(+-0.322 +-0.048) s
45 rotate
 537 1318 mt  -45 rotate
(+-0.322 +-0.022) s
45 rotate
 568 1318 mt  -45 rotate
(+-0.322 +-0.010) s
45 rotate
 592 1326 mt  -45 rotate
(+-0.322 +-0.0045) s
45 rotate
 712 1238 mt  -45 rotate
(89.0) s
45 rotate
 708 1273 mt  -45 rotate
(MHS 89.0) s
45 rotate
 778 1234 mt  -45 rotate
(157) s
45 rotate
 762 1282 mt  -45 rotate
(183.31 +-1) s
45 rotate
 793 1282 mt  -45 rotate
(183.31 +-3) s
45 rotate
 861 1246 mt  -45 rotate
(190.3) s
45 rotate
%%IncludeResource: font Helvetica
/Helvetica /ISOLatin1Encoding 33.3333 FMSR

 291 1206 mt 
( ) s
 888  803 mt 
( ) s
1 sg
0 120 427 0 0 -120 449 928 4 MP
PP
-427 0 0 120 427 0 0 -120 449 928 5 MP stroke
1.11111 w
DO
SO
1.66667 w
0 sg
 449  928 mt  876  928 L
 449  808 mt  876  808 L
 449  928 mt  449  808 L
 876  928 mt  876  808 L
 449  928 mt  876  928 L
 449  928 mt  449  808 L
 449  928 mt  876  928 L
 449  808 mt  876  808 L
 449  928 mt  449  808 L
 876  928 mt  876  808 L
%%IncludeResource: font Helvetica
/Helvetica /ISOLatin1Encoding 16.6667 FMSR

 582  829 mt 
(RT\(ANA\) - CAL\(OBS\) clear) s
gs 449 808 428 121 rc
4.66667 w
102 0 469 823 2 MP stroke
gr

4.66667 w
gs 497 799 47 48 rc
 515  818 mt  525  828 L
 525  818 mt  515  828 L
gr

gs 449 808 428 121 rc
gr

 582  852 mt 
(RT\(ANA\) - OBS clear \(9244 points\)) s
gs 449 808 428 121 rc
DD
102 0 469 845 2 MP stroke
SO
gs 497 822 47 47 rc
 515  840 mt  525  850 L
 525  840 mt  515  850 L
gr

1.66667 w
gr

1.66667 w
 582  897 mt 
(RT\(ANA\) - CAL\(OBS\) cloudy) s
gs 449 808 428 121 rc
4.66667 w
0.5 sg
102 0 469 890 2 MP stroke
gs 497 867 47 47 rc
 515  885 mt  525  895 L
 525  885 mt  515  895 L
gr

gr

4.66667 w
0.5 sg
0 sg
 582  920 mt 
(RT\(ANA\) - OBS cloudy \(17956 points\)) s
gs 449 808 428 121 rc
DD
0.5 sg
102 0 469 912 2 MP stroke
SO
gr

0.5 sg
gs 497 889 47 48 rc
 515  907 mt  525  917 L
 525  907 mt  515  917 L
gr

gs 449 808 428 121 rc
1.66667 w
gr

1.66667 w
1 sg
0 408 590 0 0 -408 1148 516 4 MP
PP
-590 0 0 408 590 0 0 -408 1148 516 5 MP stroke
1.11111 w
DO
0 sg
1148  516 mt 1738  516 L
1738  516 mt 1738  516 L
1148  434 mt 1738  434 L
1738  434 mt 1738  434 L
1148  352 mt 1738  352 L
1738  352 mt 1738  352 L
1148  271 mt 1738  271 L
1738  271 mt 1738  271 L
1148  189 mt 1738  189 L
1738  189 mt 1738  189 L
1148  108 mt 1738  108 L
1738  108 mt 1738  108 L
SO
1.66667 w
1148  516 mt 1738  516 L
1148  108 mt 1738  108 L
1148  516 mt 1148  108 L
1738  516 mt 1738  108 L
1148  516 mt 1738  516 L
1148  516 mt 1148  108 L
1148  516 mt 1148  510 L
1148  108 mt 1148  113 L
1187  516 mt 1187  510 L
1187  108 mt 1187  113 L
1226  516 mt 1226  510 L
1226  108 mt 1226  113 L
1266  516 mt 1266  510 L
1266  108 mt 1266  113 L
1305  516 mt 1305  510 L
1305  108 mt 1305  113 L
1344  516 mt 1344  510 L
1344  108 mt 1344  113 L
1384  516 mt 1384  510 L
1384  108 mt 1384  113 L
1423  516 mt 1423  510 L
1423  108 mt 1423  113 L
1462  516 mt 1462  510 L
1462  108 mt 1462  113 L
1502  516 mt 1502  510 L
1502  108 mt 1502  113 L
1541  516 mt 1541  510 L
1541  108 mt 1541  113 L
1580  516 mt 1580  510 L
1580  108 mt 1580  113 L
1620  516 mt 1620  510 L
1620  108 mt 1620  113 L
1659  516 mt 1659  510 L
1659  108 mt 1659  113 L
1698  516 mt 1698  510 L
1698  108 mt 1698  113 L
1738  516 mt 1738  510 L
1738  108 mt 1738  113 L
1148  516 mt 1153  516 L
1738  516 mt 1732  516 L
%%IncludeResource: font Helvetica
/Helvetica /ISOLatin1Encoding 33.3333 FMSR

1120  528 mt 
(0) s
1148  434 mt 1153  434 L
1738  434 mt 1732  434 L
1120  446 mt 
(3) s
1148  352 mt 1153  352 L
1738  352 mt 1732  352 L
1120  364 mt 
(6) s
1148  271 mt 1153  271 L
1738  271 mt 1732  271 L
1120  283 mt 
(9) s
1148  189 mt 1153  189 L
1738  189 mt 1732  189 L
1101  201 mt 
(12) s
1148  108 mt 1153  108 L
1738  108 mt 1732  108 L
1101  120 mt 
(15) s
1148  516 mt 1738  516 L
1148  108 mt 1738  108 L
1148  516 mt 1148  108 L
1738  516 mt 1738  108 L
gs 1148 108 591 409 rc
4.66667 w
40 2 39 -8 39 19 40 2 39 -11 39 15 40 -4 39 7 
39 -10 40 18 39 -2 39 8 40 -13 39 14 39 -9 1148 430 16 MP stroke
gr

4.66667 w
1143  425 mt 1153  435 L
1153  425 mt 1143  435 L
1182  416 mt 1192  426 L
1192  416 mt 1182  426 L
1221  430 mt 1231  440 L
1231  430 mt 1221  440 L
1261  417 mt 1271  427 L
1271  417 mt 1261  427 L
1300  425 mt 1310  435 L
1310  425 mt 1300  435 L
1339  423 mt 1349  433 L
1349  423 mt 1339  433 L
1379  441 mt 1389  451 L
1389  441 mt 1379  451 L
1418  431 mt 1428  441 L
1428  431 mt 1418  441 L
1457  438 mt 1467  448 L
1467  438 mt 1457  448 L
1497  434 mt 1507  444 L
1507  434 mt 1497  444 L
1536  449 mt 1546  459 L
1546  449 mt 1536  459 L
1575  438 mt 1585  448 L
1585  438 mt 1575  448 L
1615  440 mt 1625  450 L
1625  440 mt 1615  450 L
1654  459 mt 1664  469 L
1664  459 mt 1654  469 L
1693  451 mt 1703  461 L
1703  451 mt 1693  461 L
1733  453 mt 1743  463 L
1743  453 mt 1733  463 L
gs 1148 108 591 409 rc
DD
40 5 39 2 39 26 40 60 39 -3 39 -57 40 -2 39 3 
39 -6 40 25 39 -7 39 107 40 -80 39 138 39 -126 1148 363 16 MP stroke
gr

DD
SO
1143  358 mt 1153  368 L
1153  358 mt 1143  368 L
1182  232 mt 1192  242 L
1192  232 mt 1182  242 L
1221  370 mt 1231  380 L
1231  370 mt 1221  380 L
1261  290 mt 1271  300 L
1271  290 mt 1261  300 L
1300  397 mt 1310  407 L
1310  397 mt 1300  407 L
1339  390 mt 1349  400 L
1349  390 mt 1339  400 L
1379  415 mt 1389  425 L
1389  415 mt 1379  425 L
1418  409 mt 1428  419 L
1428  409 mt 1418  419 L
1457  412 mt 1467  422 L
1467  412 mt 1457  422 L
1497  410 mt 1507  420 L
1507  410 mt 1497  420 L
1536  353 mt 1546  363 L
1546  353 mt 1536  363 L
1575  350 mt 1585  360 L
1585  350 mt 1575  360 L
1615  410 mt 1625  420 L
1625  410 mt 1615  420 L
1654  436 mt 1664  446 L
1664  436 mt 1654  446 L
1693  438 mt 1703  448 L
1703  438 mt 1693  448 L
1733  443 mt 1743  453 L
1743  443 mt 1733  453 L
DD
gs 1148 108 591 409 rc
SO
1.66667 w
4.66667 w
0.5 sg
40 0 39 -7 39 4 40 10 39 -11 39 20 40 -9 39 3 
39 -10 40 23 39 -14 39 23 40 -15 39 17 39 -16 1148 439 16 MP stroke
gr

0.5 sg
SO
1143  434 mt 1153  444 L
1153  434 mt 1143  444 L
1182  418 mt 1192  428 L
1192  418 mt 1182  428 L
1221  435 mt 1231  445 L
1231  435 mt 1221  445 L
1261  420 mt 1271  430 L
1271  420 mt 1261  430 L
1300  443 mt 1310  453 L
1310  443 mt 1300  453 L
1339  429 mt 1349  439 L
1349  429 mt 1339  439 L
1379  452 mt 1389  462 L
1389  452 mt 1379  462 L
1418  442 mt 1428  452 L
1428  442 mt 1418  452 L
1457  445 mt 1467  455 L
1467  445 mt 1457  455 L
1497  436 mt 1507  446 L
1507  436 mt 1497  446 L
1536  456 mt 1546  466 L
1546  456 mt 1536  466 L
1575  445 mt 1585  455 L
1585  445 mt 1575  455 L
1615  455 mt 1625  465 L
1625  455 mt 1615  465 L
1654  459 mt 1664  469 L
1664  459 mt 1654  469 L
1693  452 mt 1703  462 L
1703  452 mt 1693  462 L
1733  452 mt 1743  462 L
1743  452 mt 1733  462 L
gs 1148 108 591 409 rc
DD
40 13 39 0 39 -6 40 44 39 0 39 -28 40 -11 39 8 
39 -11 40 32 39 -12 39 84 40 -55 39 92 39 -95 1148 392 16 MP stroke
gr

DD
SO
1143  387 mt 1153  397 L
1153  387 mt 1143  397 L
1182  292 mt 1192  302 L
1192  292 mt 1182  302 L
1221  384 mt 1231  394 L
1231  384 mt 1221  394 L
1261  329 mt 1271  339 L
1271  329 mt 1261  339 L
1300  413 mt 1310  423 L
1310  413 mt 1300  423 L
1339  401 mt 1349  411 L
1349  401 mt 1339  411 L
1379  433 mt 1389  443 L
1389  433 mt 1379  443 L
1418  422 mt 1428  432 L
1428  422 mt 1418  432 L
1457  430 mt 1467  440 L
1467  430 mt 1457  440 L
1497  419 mt 1507  429 L
1507  419 mt 1497  429 L
1536  391 mt 1546  401 L
1546  391 mt 1536  401 L
1575  391 mt 1585  401 L
1585  391 mt 1575  401 L
1615  435 mt 1625  445 L
1625  435 mt 1615  445 L
1654  429 mt 1664  439 L
1664  429 mt 1654  439 L
1693  429 mt 1703  439 L
1703  429 mt 1693  439 L
1733  442 mt 1743  452 L
1743  442 mt 1733  452 L
DD
gs 1148 108 591 409 rc
SO
1.66667 w
gr

1.66667 w
SO
0 sg
1115  403 mt  -90 rotate
(RMS TB \(K\)) s
90 rotate
1331   92 mt 
(AQUA on Land) s
%%IncludeResource: font Helvetica
/Helvetica /ISOLatin1Encoding 20 FMSR

1053  633 mt  -45 rotate
(AMSRE 6.925V) s
45 rotate
1146  579 mt  -45 rotate
(6.925H) s
45 rotate
1185  578 mt  -45 rotate
(10.65V) s
45 rotate
1225  579 mt  -45 rotate
(10.65H) s
45 rotate
1272  571 mt  -45 rotate
(18.7V) s
45 rotate
1310  571 mt  -45 rotate
(18.7H) s
45 rotate
1351  571 mt  -45 rotate
(23.8V) s
45 rotate
1389  571 mt  -45 rotate
(23.8H) s
45 rotate
1429  571 mt  -45 rotate
(36.5V) s
45 rotate
1468  571 mt  -45 rotate
(36.5H) s
45 rotate
1508  571 mt  -45 rotate
(89.0V) s
45 rotate
1546  571 mt  -45 rotate
(89.0H) s
45 rotate
1567  591 mt  -45 rotate
(HSB 150) s
45 rotate
1588  609 mt  -45 rotate
(183.31 +/-1) s
45 rotate
1627  609 mt  -45 rotate
(183.31 +/-3) s
45 rotate
1667  609 mt  -45 rotate
(183.31 +/-7) s
45 rotate
%%IncludeResource: font Helvetica
/Helvetica /ISOLatin1Encoding 33.3333 FMSR

1143  529 mt 
( ) s
1734  120 mt 
( ) s
1 sg
0 120 427 0 0 -120 1295 245 4 MP
PP
-427 0 0 120 427 0 0 -120 1295 245 5 MP stroke
1.11111 w
DO
SO
1.66667 w
0 sg
1295  245 mt 1722  245 L
1295  125 mt 1722  125 L
1295  245 mt 1295  125 L
1722  245 mt 1722  125 L
1295  245 mt 1722  245 L
1295  245 mt 1295  125 L
1295  245 mt 1722  245 L
1295  125 mt 1722  125 L
1295  245 mt 1295  125 L
1722  245 mt 1722  125 L
%%IncludeResource: font Helvetica
/Helvetica /ISOLatin1Encoding 16.6667 FMSR

1428  146 mt 
(RT\(ANA\) - CAL\(OBS\) clear) s
gs 1295 125 428 121 rc
4.66667 w
102 0 1315 140 2 MP stroke
gr

4.66667 w
gs 1343 116 47 48 rc
1361  135 mt 1371  145 L
1371  135 mt 1361  145 L
gr

gs 1295 125 428 121 rc
gr

1428  169 mt 
(RT\(ANA\) - OBS clear \(6689 points\)) s
gs 1295 125 428 121 rc
DD
102 0 1315 162 2 MP stroke
SO
gs 1343 139 47 47 rc
1361  157 mt 1371  167 L
1371  157 mt 1361  167 L
gr

1.66667 w
gr

1.66667 w
1428  214 mt 
(RT\(ANA\) - CAL\(OBS\) cloudy) s
gs 1295 125 428 121 rc
4.66667 w
0.5 sg
102 0 1315 207 2 MP stroke
gs 1343 184 47 47 rc
1361  202 mt 1371  212 L
1371  202 mt 1361  212 L
gr

gr

4.66667 w
0.5 sg
0 sg
1428  237 mt 
(RT\(ANA\) - OBS cloudy \(11610 points\)) s
gs 1295 125 428 121 rc
DD
0.5 sg
102 0 1315 229 2 MP stroke
SO
gr

0.5 sg
gs 1343 206 47 48 rc
1361  224 mt 1371  234 L
1371  224 mt 1361  234 L
gr

gs 1295 125 428 121 rc
1.66667 w
gr

1.66667 w
1 sg
0 408 590 0 0 -408 1148 1199 4 MP
PP
-590 0 0 408 590 0 0 -408 1148 1199 5 MP stroke
1.11111 w
DO
0 sg
1148 1199 mt 1738 1199 L
1738 1199 mt 1738 1199 L
1148 1117 mt 1738 1117 L
1738 1117 mt 1738 1117 L
1148 1035 mt 1738 1035 L
1738 1035 mt 1738 1035 L
1148  954 mt 1738  954 L
1738  954 mt 1738  954 L
1148  872 mt 1738  872 L
1738  872 mt 1738  872 L
1148  791 mt 1738  791 L
1738  791 mt 1738  791 L
SO
1.66667 w
1148 1199 mt 1738 1199 L
1148  791 mt 1738  791 L
1148 1199 mt 1148  791 L
1738 1199 mt 1738  791 L
1148 1199 mt 1738 1199 L
1148 1199 mt 1148  791 L
1148 1199 mt 1148 1193 L
1148  791 mt 1148  796 L
1187 1199 mt 1187 1193 L
1187  791 mt 1187  796 L
1226 1199 mt 1226 1193 L
1226  791 mt 1226  796 L
1266 1199 mt 1266 1193 L
1266  791 mt 1266  796 L
1305 1199 mt 1305 1193 L
1305  791 mt 1305  796 L
1344 1199 mt 1344 1193 L
1344  791 mt 1344  796 L
1384 1199 mt 1384 1193 L
1384  791 mt 1384  796 L
1423 1199 mt 1423 1193 L
1423  791 mt 1423  796 L
1462 1199 mt 1462 1193 L
1462  791 mt 1462  796 L
1502 1199 mt 1502 1193 L
1502  791 mt 1502  796 L
1541 1199 mt 1541 1193 L
1541  791 mt 1541  796 L
1580 1199 mt 1580 1193 L
1580  791 mt 1580  796 L
1620 1199 mt 1620 1193 L
1620  791 mt 1620  796 L
1659 1199 mt 1659 1193 L
1659  791 mt 1659  796 L
1698 1199 mt 1698 1193 L
1698  791 mt 1698  796 L
1738 1199 mt 1738 1193 L
1738  791 mt 1738  796 L
1148 1199 mt 1153 1199 L
1738 1199 mt 1732 1199 L
%%IncludeResource: font Helvetica
/Helvetica /ISOLatin1Encoding 33.3333 FMSR

1120 1211 mt 
(0) s
1148 1117 mt 1153 1117 L
1738 1117 mt 1732 1117 L
1120 1129 mt 
(3) s
1148 1035 mt 1153 1035 L
1738 1035 mt 1732 1035 L
1120 1047 mt 
(6) s
1148  954 mt 1153  954 L
1738  954 mt 1732  954 L
1120  966 mt 
(9) s
1148  872 mt 1153  872 L
1738  872 mt 1732  872 L
1101  884 mt 
(12) s
1148  791 mt 1153  791 L
1738  791 mt 1732  791 L
1101  803 mt 
(15) s
1148 1199 mt 1738 1199 L
1148  791 mt 1738  791 L
1148 1199 mt 1148  791 L
1738 1199 mt 1738  791 L
gs 1148 791 591 409 rc
4.66667 w
40 9 39 -3 39 50 40 61 39 -98 39 13 40 -43 39 126 
39 -77 40 -5 39 -40 39 -18 40 -8 39 5 39 -5 1148 1184 16 MP stroke
gr

4.66667 w
1143 1179 mt 1153 1189 L
1153 1179 mt 1143 1189 L
1182 1174 mt 1192 1184 L
1192 1174 mt 1182 1184 L
1221 1179 mt 1231 1189 L
1231 1179 mt 1221 1189 L
1261 1171 mt 1271 1181 L
1271 1171 mt 1261 1181 L
1300 1153 mt 1310 1163 L
1310 1153 mt 1300 1163 L
1339 1113 mt 1349 1123 L
1349 1113 mt 1339 1123 L
1379 1108 mt 1389 1118 L
1389 1108 mt 1379 1118 L
1418 1031 mt 1428 1041 L
1428 1031 mt 1418 1041 L
1457 1157 mt 1467 1167 L
1467 1157 mt 1457 1167 L
1497 1114 mt 1507 1124 L
1507 1114 mt 1497 1124 L
1536 1127 mt 1546 1137 L
1546 1127 mt 1536 1137 L
1575 1029 mt 1585 1039 L
1585 1029 mt 1575 1039 L
1615 1090 mt 1625 1100 L
1625 1090 mt 1615 1100 L
1654 1140 mt 1664 1150 L
1664 1140 mt 1654 1150 L
1693 1137 mt 1703 1147 L
1703 1137 mt 1693 1147 L
1733 1146 mt 1743 1156 L
1743 1146 mt 1733 1156 L
gs 1148 791 591 409 rc
DD
40 17 39 8 39 54 40 155 39 -167 39 -5 40 -58 39 121 
39 -80 40 -7 39 -33 39 -23 40 7 39 -14 39 13 1148 1157 16 MP stroke
gr

DD
SO
1143 1152 mt 1153 1162 L
1153 1152 mt 1143 1162 L
1182 1165 mt 1192 1175 L
1192 1165 mt 1182 1175 L
1221 1151 mt 1231 1161 L
1231 1151 mt 1221 1161 L
1261 1158 mt 1271 1168 L
1271 1158 mt 1261 1168 L
1300 1135 mt 1310 1145 L
1310 1135 mt 1300 1145 L
1339 1102 mt 1349 1112 L
1349 1102 mt 1339 1112 L
1379 1095 mt 1389 1105 L
1389 1095 mt 1379 1105 L
1418 1015 mt 1428 1025 L
1428 1015 mt 1418 1025 L
1457 1136 mt 1467 1146 L
1467 1136 mt 1457 1146 L
1497 1078 mt 1507 1088 L
1507 1078 mt 1497 1088 L
1536 1073 mt 1546 1083 L
1546 1073 mt 1536 1083 L
1575  906 mt 1585  916 L
1585  906 mt 1575  916 L
1615 1061 mt 1625 1071 L
1625 1061 mt 1615 1071 L
1654 1115 mt 1664 1125 L
1664 1115 mt 1654 1125 L
1693 1123 mt 1703 1133 L
1703 1123 mt 1693 1133 L
1733 1140 mt 1743 1150 L
1743 1140 mt 1733 1150 L
DD
gs 1148 791 591 409 rc
SO
1.66667 w
4.66667 w
0.5 sg
40 13 39 -1 39 31 40 129 39 -133 39 51 40 -71 39 107 
39 -79 40 8 39 -48 39 -24 40 -11 39 3 39 -5 1148 1183 16 MP stroke
gr

0.5 sg
SO
1143 1178 mt 1153 1188 L
1153 1178 mt 1143 1188 L
1182 1173 mt 1192 1183 L
1192 1173 mt 1182 1183 L
1221 1176 mt 1231 1186 L
1231 1176 mt 1221 1186 L
1261 1165 mt 1271 1175 L
1271 1165 mt 1261 1175 L
1300 1141 mt 1310 1151 L
1310 1141 mt 1300 1151 L
1339 1093 mt 1349 1103 L
1349 1093 mt 1339 1103 L
1379 1101 mt 1389 1111 L
1389 1101 mt 1379 1111 L
1418 1022 mt 1428 1032 L
1428 1022 mt 1418 1032 L
1457 1129 mt 1467 1139 L
1467 1129 mt 1457 1139 L
1497 1058 mt 1507 1068 L
1507 1058 mt 1497 1068 L
1536 1109 mt 1546 1119 L
1546 1109 mt 1536 1119 L
1575  976 mt 1585  986 L
1585  976 mt 1575  986 L
1615 1105 mt 1625 1115 L
1625 1105 mt 1615 1115 L
1654 1136 mt 1664 1146 L
1664 1136 mt 1654 1146 L
1693 1135 mt 1703 1145 L
1703 1135 mt 1693 1145 L
1733 1148 mt 1743 1158 L
1743 1148 mt 1733 1158 L
gs 1148 791 591 409 rc
DD
40 22 39 7 39 10 40 176 39 -156 39 40 40 -77 39 95 
39 -74 40 5 39 -38 39 -25 40 6 39 -18 39 16 1148 1157 16 MP stroke
gr

DD
SO
1143 1152 mt 1153 1162 L
1153 1152 mt 1143 1162 L
1182 1168 mt 1192 1178 L
1192 1168 mt 1182 1178 L
1221 1150 mt 1231 1160 L
1231 1150 mt 1221 1160 L
1261 1156 mt 1271 1166 L
1271 1156 mt 1261 1166 L
1300 1131 mt 1310 1141 L
1310 1131 mt 1300 1141 L
1339 1093 mt 1349 1103 L
1349 1093 mt 1339 1103 L
1379 1098 mt 1389 1108 L
1389 1098 mt 1379 1108 L
1418 1024 mt 1428 1034 L
1428 1024 mt 1418 1034 L
1457 1119 mt 1467 1129 L
1467 1119 mt 1457 1129 L
1497 1042 mt 1507 1052 L
1507 1042 mt 1497 1052 L
1536 1082 mt 1546 1092 L
1546 1082 mt 1536 1092 L
1575  926 mt 1585  936 L
1585  926 mt 1575  936 L
1615 1102 mt 1625 1112 L
1625 1102 mt 1615 1112 L
1654 1112 mt 1664 1122 L
1664 1112 mt 1654 1122 L
1693 1119 mt 1703 1129 L
1703 1119 mt 1693 1129 L
1733 1141 mt 1743 1151 L
1743 1141 mt 1733 1151 L
DD
gs 1148 791 591 409 rc
SO
1.66667 w
gr

1.66667 w
SO
0 sg
1115 1087 mt  -90 rotate
(RMS TB \(K\)) s
90 rotate
1319  775 mt 
(AQUA on Ocean) s
%%IncludeResource: font Helvetica
/Helvetica /ISOLatin1Encoding 20 FMSR

1053 1316 mt  -45 rotate
(AMSRE 6.925V) s
45 rotate
1146 1262 mt  -45 rotate
(6.925H) s
45 rotate
1185 1261 mt  -45 rotate
(10.65V) s
45 rotate
1225 1262 mt  -45 rotate
(10.65H) s
45 rotate
1272 1254 mt  -45 rotate
(18.7V) s
45 rotate
1310 1254 mt  -45 rotate
(18.7H) s
45 rotate
1351 1254 mt  -45 rotate
(23.8V) s
45 rotate
1389 1254 mt  -45 rotate
(23.8H) s
45 rotate
1429 1254 mt  -45 rotate
(36.5V) s
45 rotate
1468 1254 mt  -45 rotate
(36.5H) s
45 rotate
1508 1254 mt  -45 rotate
(89.0V) s
45 rotate
1546 1254 mt  -45 rotate
(89.0H) s
45 rotate
1567 1274 mt  -45 rotate
(HSB 150) s
45 rotate
1588 1292 mt  -45 rotate
(183.31 +/-1) s
45 rotate
1627 1292 mt  -45 rotate
(183.31 +/-3) s
45 rotate
1667 1292 mt  -45 rotate
(183.31 +/-7) s
45 rotate
%%IncludeResource: font Helvetica
/Helvetica /ISOLatin1Encoding 33.3333 FMSR

1143 1212 mt 
( ) s
1734  803 mt 
( ) s
1 sg
0 120 427 0 0 -120 1295 928 4 MP
PP
-427 0 0 120 427 0 0 -120 1295 928 5 MP stroke
1.11111 w
DO
SO
1.66667 w
0 sg
1295  928 mt 1722  928 L
1295  808 mt 1722  808 L
1295  928 mt 1295  808 L
1722  928 mt 1722  808 L
1295  928 mt 1722  928 L
1295  928 mt 1295  808 L
1295  928 mt 1722  928 L
1295  808 mt 1722  808 L
1295  928 mt 1295  808 L
1722  928 mt 1722  808 L
%%IncludeResource: font Helvetica
/Helvetica /ISOLatin1Encoding 16.6667 FMSR

1428  829 mt 
(RT\(ANA\) - CAL\(OBS\) clear) s
gs 1295 808 428 121 rc
4.66667 w
102 0 1315 823 2 MP stroke
gr

4.66667 w
gs 1343 799 47 48 rc
1361  818 mt 1371  828 L
1371  818 mt 1361  828 L
gr

gs 1295 808 428 121 rc
gr

1428  852 mt 
(RT\(ANA\) - OBS clear \(6449 points\)) s
gs 1295 808 428 121 rc
DD
102 0 1315 845 2 MP stroke
SO
gs 1343 822 47 47 rc
1361  840 mt 1371  850 L
1371  840 mt 1361  850 L
gr

1.66667 w
gr

1.66667 w
1428  897 mt 
(RT\(ANA\) - CAL\(OBS\) cloudy) s
gs 1295 808 428 121 rc
4.66667 w
0.5 sg
102 0 1315 890 2 MP stroke
gs 1343 867 47 47 rc
1361  885 mt 1371  895 L
1371  885 mt 1361  895 L
gr

gr

4.66667 w
0.5 sg
0 sg
1428  920 mt 
(RT\(ANA\) - OBS cloudy \(30000 points\)) s
gs 1295 808 428 121 rc
DD
0.5 sg
102 0 1315 912 2 MP stroke
SO
gr

0.5 sg
gs 1343 889 47 48 rc
1361  907 mt 1371  917 L
1371  907 mt 1361  917 L
gr

gs 1295 808 428 121 rc
1.66667 w
gr

1.66667 w

end %%Color Dict

eplot
%%EndObject

epage
end

showpage

%%Trailer
%%EOF
