%!PS-Adobe-3.0 EPSF-3.0
%%Creator: MATLAB, The Mathworks, Inc.
%%Title: ./mt_7c.eps
%%CreationDate: 05/25/2013  06:37:57
%%DocumentNeededFonts: Helvetica
%%DocumentProcessColors: Cyan Magenta Yellow Black
%%LanguageLevel: 2
%%Pages: 1
%%BoundingBox:    85   209   547   594
%%EndComments

%%BeginProlog
% MathWorks dictionary
/MathWorks 160 dict begin
% definition operators
/bdef {bind def} bind def
/ldef {load def} bind def
/xdef {exch def} bdef
/xstore {exch store} bdef
% operator abbreviations
/c  /clip ldef
/cc /concat ldef
/cp /closepath ldef
/gr /grestore ldef
/gs /gsave ldef
/mt /moveto ldef
/np /newpath ldef
/cm /currentmatrix ldef
/sm /setmatrix ldef
/rm /rmoveto ldef
/rl /rlineto ldef
/s {show newpath} bdef
/sc {setcmykcolor} bdef
/sr /setrgbcolor ldef
/sg /setgray ldef
/w /setlinewidth ldef
/j /setlinejoin ldef
/cap /setlinecap ldef
/rc {rectclip} bdef
/rf {rectfill} bdef
% page state control
/pgsv () def
/bpage {/pgsv save def} bdef
/epage {pgsv restore} bdef
/bplot /gsave ldef
/eplot {stroke grestore} bdef
% orientation switch
/portraitMode 0 def /landscapeMode 1 def /rotateMode 2 def
% coordinate system mappings
/dpi2point 0 def
% font control
/FontSize 0 def
/FMS {/FontSize xstore findfont [FontSize 0 0 FontSize neg 0 0]
  makefont setfont} bdef
/reencode {exch dup where {pop load} {pop StandardEncoding} ifelse
  exch dup 3 1 roll findfont dup length dict begin
  { 1 index /FID ne {def}{pop pop} ifelse } forall
  /Encoding exch def currentdict end definefont pop} bdef
/isroman {findfont /CharStrings get /Agrave known} bdef
/FMSR {3 1 roll 1 index dup isroman {reencode} {pop pop} ifelse
  exch FMS} bdef
/csm {1 dpi2point div -1 dpi2point div scale neg translate
 dup landscapeMode eq {pop -90 rotate}
  {rotateMode eq {90 rotate} if} ifelse} bdef
% line types: solid, dotted, dashed, dotdash
/SO { [] 0 setdash } bdef
/DO { [.5 dpi2point mul 4 dpi2point mul] 0 setdash } bdef
/DA { [6 dpi2point mul] 0 setdash } bdef
/DD { [.5 dpi2point mul 4 dpi2point mul 6 dpi2point mul 4
  dpi2point mul] 0 setdash } bdef
% macros for lines and objects
/L {lineto stroke} bdef
/MP {3 1 roll moveto 1 sub {rlineto} repeat} bdef
/AP {{rlineto} repeat} bdef
/PDlw -1 def
/W {/PDlw currentlinewidth def setlinewidth} def
/PP {closepath eofill} bdef
/DP {closepath stroke} bdef
/MR {4 -2 roll moveto dup  0 exch rlineto exch 0 rlineto
  neg 0 exch rlineto closepath} bdef
/FR {MR stroke} bdef
/PR {MR fill} bdef
/L1i {{currentfile picstr readhexstring pop} image} bdef
/tMatrix matrix def
/MakeOval {newpath tMatrix currentmatrix pop translate scale
0 0 1 0 360 arc tMatrix setmatrix} bdef
/FO {MakeOval stroke} bdef
/PO {MakeOval fill} bdef
/PD {currentlinewidth 2 div 0 360 arc fill
   PDlw -1 eq not {PDlw w /PDlw -1 def} if} def
/FA {newpath tMatrix currentmatrix pop translate scale
  0 0 1 5 -2 roll arc tMatrix setmatrix stroke} bdef
/PA {newpath tMatrix currentmatrix pop	translate 0 0 moveto scale
  0 0 1 5 -2 roll arc closepath tMatrix setmatrix fill} bdef
/FAn {newpath tMatrix currentmatrix pop translate scale
  0 0 1 5 -2 roll arcn tMatrix setmatrix stroke} bdef
/PAn {newpath tMatrix currentmatrix pop translate 0 0 moveto scale
  0 0 1 5 -2 roll arcn closepath tMatrix setmatrix fill} bdef
/vradius 0 def /hradius 0 def /lry 0 def
/lrx 0 def /uly 0 def /ulx 0 def /rad 0 def
/MRR {/vradius xdef /hradius xdef /lry xdef /lrx xdef /uly xdef
  /ulx xdef newpath tMatrix currentmatrix pop ulx hradius add uly
  vradius add translate hradius vradius scale 0 0 1 180 270 arc 
  tMatrix setmatrix lrx hradius sub uly vradius add translate
  hradius vradius scale 0 0 1 270 360 arc tMatrix setmatrix
  lrx hradius sub lry vradius sub translate hradius vradius scale
  0 0 1 0 90 arc tMatrix setmatrix ulx hradius add lry vradius sub
  translate hradius vradius scale 0 0 1 90 180 arc tMatrix setmatrix
  closepath} bdef
/FRR {MRR stroke } bdef
/PRR {MRR fill } bdef
/MlrRR {/lry xdef /lrx xdef /uly xdef /ulx xdef /rad lry uly sub 2 div def
  newpath tMatrix currentmatrix pop ulx rad add uly rad add translate
  rad rad scale 0 0 1 90 270 arc tMatrix setmatrix lrx rad sub lry rad
  sub translate rad rad scale 0 0 1 270 90 arc tMatrix setmatrix
  closepath} bdef
/FlrRR {MlrRR stroke } bdef
/PlrRR {MlrRR fill } bdef
/MtbRR {/lry xdef /lrx xdef /uly xdef /ulx xdef /rad lrx ulx sub 2 div def
  newpath tMatrix currentmatrix pop ulx rad add uly rad add translate
  rad rad scale 0 0 1 180 360 arc tMatrix setmatrix lrx rad sub lry rad
  sub translate rad rad scale 0 0 1 0 180 arc tMatrix setmatrix
  closepath} bdef
/FtbRR {MtbRR stroke } bdef
/PtbRR {MtbRR fill } bdef
/stri 6 array def /dtri 6 array def
/smat 6 array def /dmat 6 array def
/tmat1 6 array def /tmat2 6 array def /dif 3 array def
/asub {/ind2 exch def /ind1 exch def dup dup
  ind1 get exch ind2 get sub exch } bdef
/tri_to_matrix {
  2 0 asub 3 1 asub 4 0 asub 5 1 asub
  dup 0 get exch 1 get 7 -1 roll astore } bdef
/compute_transform {
  dmat dtri tri_to_matrix tmat1 invertmatrix 
  smat stri tri_to_matrix tmat2 concatmatrix } bdef
/ds {stri astore pop} bdef
/dt {dtri astore pop} bdef
/db {2 copy /cols xdef /rows xdef mul dup 3 mul string
  currentfile 
  3 index 0 eq {/ASCIIHexDecode filter}
  {/ASCII85Decode filter 3 index 2 eq {/RunLengthDecode filter} if }
  ifelse exch readstring pop
  dup 0 3 index getinterval /rbmap xdef
  dup 2 index dup getinterval /gbmap xdef
  1 index dup 2 mul exch getinterval /bbmap xdef pop pop}bdef
/it {gs np dtri aload pop moveto lineto lineto cp c
  cols rows 8 compute_transform 
  rbmap gbmap bbmap true 3 colorimage gr}bdef
/il {newpath moveto lineto stroke}bdef
currentdict end def
%%EndProlog

%%BeginSetup
MathWorks begin

0 cap

end
%%EndSetup

%%Page: 1 1
%%BeginPageSetup
%%PageBoundingBox:    85   209   547   594
MathWorks begin
bpage
%%EndPageSetup

%%BeginObject: obj1
bplot

/dpi2point 2.77778 def
portraitMode 0050 1700 csm

  187    50  1285  1069 rc
126 dict begin %Colortable dictionary
/c0 { 0.000000 0.000000 0.000000 sr} bdef
/c1 { 1.000000 1.000000 1.000000 sr} bdef
/c2 { 0.900000 0.000000 0.000000 sr} bdef
/c3 { 0.000000 0.820000 0.000000 sr} bdef
/c4 { 0.000000 0.000000 0.800000 sr} bdef
/c5 { 0.910000 0.820000 0.320000 sr} bdef
/c6 { 1.000000 0.260000 0.820000 sr} bdef
/c7 { 0.000000 0.820000 0.820000 sr} bdef
c0
1 j
1 sg
   0    0 1601 1202 rf
1.38889 w
0 311 460 0 0 -311 282 410 4 MP
PP
-460 0 0 311 460 0 0 -311 282 410 5 MP stroke
0.925926 w
DO
SO
1.38889 w
0 sg
 282  410 mt  742  410 L
 282   99 mt  742   99 L
 282  410 mt  282   99 L
 742  410 mt  742   99 L
 282  410 mt  742  410 L
 282  410 mt  282   99 L
 282  410 mt  282  405 L
 282   99 mt  282  103 L
 306  410 mt  306  405 L
 306   99 mt  306  103 L
 330  410 mt  330  405 L
 330   99 mt  330  103 L
 354  410 mt  354  405 L
 354   99 mt  354  103 L
 378  410 mt  378  405 L
 378   99 mt  378  103 L
 403  410 mt  403  405 L
 403   99 mt  403  103 L
 427  410 mt  427  405 L
 427   99 mt  427  103 L
 451  410 mt  451  405 L
 451   99 mt  451  103 L
 475  410 mt  475  405 L
 475   99 mt  475  103 L
 499  410 mt  499  405 L
 499   99 mt  499  103 L
 524  410 mt  524  405 L
 524   99 mt  524  103 L
 548  410 mt  548  405 L
 548   99 mt  548  103 L
 572  410 mt  572  405 L
 572   99 mt  572  103 L
 596  410 mt  596  405 L
 596   99 mt  596  103 L
 620  410 mt  620  405 L
 620   99 mt  620  103 L
 645  410 mt  645  405 L
 645   99 mt  645  103 L
 669  410 mt  669  405 L
 669   99 mt  669  103 L
 693  410 mt  693  405 L
 693   99 mt  693  103 L
 717  410 mt  717  405 L
 717   99 mt  717  103 L
 742  410 mt  742  405 L
 742   99 mt  742  103 L
 282  410 mt  286  410 L
 742  410 mt  737  410 L
%%IncludeResource: font Helvetica
/Helvetica /ISOLatin1Encoding 19.4444 FMSR

 264  417 mt 
(0) s
 282  332 mt  286  332 L
 742  332 mt  737  332 L
 264  339 mt 
(3) s
 282  254 mt  286  254 L
 742  254 mt  737  254 L
 264  261 mt 
(6) s
 282  176 mt  286  176 L
 742  176 mt  737  176 L
 264  183 mt 
(9) s
 282   99 mt  286   99 L
 742   99 mt  737   99 L
 253  106 mt 
(12) s
 282  410 mt  742  410 L
 282   99 mt  742   99 L
 282  410 mt  282   99 L
 742  410 mt  742   99 L
gs 282 99 461 312 rc
3.88889 w
25 -1 24 8 24 15 24 29 25 -13 24 -12 24 -30 24 -7 
24 -3 25 -1 24 0 24 -3 24 -1 24 0 25 4 24 7 
24 28 24 41 24 -6 282 331 20 MP stroke
gr

3.88889 w
gs 262 305 500 121 rc
 278  327 mt  286  335 L
 286  327 mt  278  335 L
 302  321 mt  310  329 L
 310  321 mt  302  329 L
 326  362 mt  334  370 L
 334  362 mt  326  370 L
 350  390 mt  358  398 L
 358  390 mt  350  398 L
 374  397 mt  382  405 L
 382  397 mt  374  405 L
 399  401 mt  407  409 L
 407  401 mt  399  409 L
 423  401 mt  431  409 L
 431  401 mt  423  409 L
 447  400 mt  455  408 L
 455  400 mt  447  408 L
 471  397 mt  479  405 L
 479  397 mt  471  405 L
 495  397 mt  503  405 L
 503  397 mt  495  405 L
 520  396 mt  528  404 L
 528  396 mt  520  404 L
 544  393 mt  552  401 L
 552  393 mt  544  401 L
 568  386 mt  576  394 L
 576  386 mt  568  394 L
 592  356 mt  600  364 L
 600  356 mt  592  364 L
 616  344 mt  624  352 L
 624  344 mt  616  352 L
 641  331 mt  649  339 L
 649  331 mt  641  339 L
 665  360 mt  673  368 L
 673  360 mt  665  368 L
 689  375 mt  697  383 L
 697  375 mt  689  383 L
 713  383 mt  721  391 L
 721  383 mt  713  391 L
 738  382 mt  746  390 L
 746  382 mt  738  390 L
gr

gs 282 99 461 312 rc
DD
25 1 24 -2 24 14 24 21 25 -4 24 -35 24 -30 24 -7 
24 -3 25 -1 24 0 24 -3 24 -1 24 1 25 7 24 14 
24 36 24 38 24 -8 282 317 20 MP stroke
gr

DD
gs 262 290 500 136 rc
SO
 278  313 mt  286  321 L
 286  313 mt  278  321 L
 302  305 mt  310  313 L
 310  305 mt  302  313 L
 326  343 mt  334  351 L
 334  343 mt  326  351 L
 350  379 mt  358  387 L
 358  379 mt  350  387 L
 374  393 mt  382  401 L
 382  393 mt  374  401 L
 399  400 mt  407  408 L
 407  400 mt  399  408 L
 423  401 mt  431  409 L
 431  401 mt  423  409 L
 447  400 mt  455  408 L
 455  400 mt  447  408 L
 471  397 mt  479  405 L
 479  397 mt  471  405 L
 495  397 mt  503  405 L
 503  397 mt  495  405 L
 520  396 mt  528  404 L
 528  396 mt  520  404 L
 544  393 mt  552  401 L
 552  393 mt  544  401 L
 568  386 mt  576  394 L
 576  386 mt  568  394 L
 592  356 mt  600  364 L
 600  356 mt  592  364 L
 616  321 mt  624  329 L
 624  321 mt  616  329 L
 641  317 mt  649  325 L
 649  317 mt  641  325 L
 665  338 mt  673  346 L
 673  338 mt  665  346 L
 689  352 mt  697  360 L
 697  352 mt  689  360 L
 713  350 mt  721  358 L
 721  350 mt  713  358 L
 738  351 mt  746  359 L
 746  351 mt  738  359 L
DD
gr

gs 282 99 461 312 rc
SO
1.38889 w
1 sg
25 0 24 0 24 0 24 0 24 0 25 0 24 0 24 0 
24 0 24 -1 282 410 11 MP stroke
3.88889 w
0.5 sg
25 6 24 5 24 -2 24 12 25 -2 24 8 24 -28 24 -7 
24 -2 25 -1 24 -1 24 -2 24 -2 24 0 25 3 24 4 
24 10 24 -7 24 4 282 391 20 MP stroke
gr

0.5 sg
SO
gs 262 342 500 84 rc
 278  387 mt  286  395 L
 286  387 mt  278  395 L
 302  391 mt  310  399 L
 310  391 mt  302  399 L
 326  384 mt  334  392 L
 334  384 mt  326  392 L
 350  394 mt  358  402 L
 358  394 mt  350  402 L
 374  398 mt  382  406 L
 382  398 mt  374  406 L
 399  401 mt  407  409 L
 407  401 mt  399  409 L
 423  401 mt  431  409 L
 431  401 mt  423  409 L
 447  399 mt  455  407 L
 455  399 mt  447  407 L
 471  397 mt  479  405 L
 479  397 mt  471  405 L
 495  396 mt  503  404 L
 503  396 mt  495  404 L
 520  395 mt  528  403 L
 528  395 mt  520  403 L
 544  393 mt  552  401 L
 552  393 mt  544  401 L
 568  386 mt  576  394 L
 576  386 mt  568  394 L
 592  358 mt  600  366 L
 600  358 mt  592  366 L
 616  366 mt  624  374 L
 624  366 mt  616  374 L
 641  364 mt  649  372 L
 649  364 mt  641  372 L
 665  376 mt  673  384 L
 673  376 mt  665  384 L
 689  374 mt  697  382 L
 697  374 mt  689  382 L
 713  379 mt  721  387 L
 721  379 mt  713  387 L
 738  385 mt  746  393 L
 746  385 mt  738  393 L
gr

gs 282 99 461 312 rc
DD
25 2 24 -3 24 -7 24 24 25 -7 24 -18 24 -28 24 -7 
24 -2 25 -1 24 -1 24 -2 24 -2 24 0 25 6 24 13 
24 33 24 34 24 -10 282 329 20 MP stroke
gr

DD
gs 262 299 500 127 rc
SO
 278  325 mt  286  333 L
 286  325 mt  278  333 L
 302  315 mt  310  323 L
 310  315 mt  302  323 L
 326  349 mt  334  357 L
 334  349 mt  326  357 L
 350  382 mt  358  390 L
 358  382 mt  350  390 L
 374  395 mt  382  403 L
 382  395 mt  374  403 L
 399  401 mt  407  409 L
 407  401 mt  399  409 L
 423  401 mt  431  409 L
 431  401 mt  423  409 L
 447  399 mt  455  407 L
 455  399 mt  447  407 L
 471  397 mt  479  405 L
 479  397 mt  471  405 L
 495  396 mt  503  404 L
 503  396 mt  495  404 L
 520  395 mt  528  403 L
 528  395 mt  520  403 L
 544  393 mt  552  401 L
 552  393 mt  544  401 L
 568  386 mt  576  394 L
 576  386 mt  568  394 L
 592  358 mt  600  366 L
 600  358 mt  592  366 L
 616  340 mt  624  348 L
 624  340 mt  616  348 L
 641  333 mt  649  341 L
 649  333 mt  641  341 L
 665  357 mt  673  365 L
 673  357 mt  665  365 L
 689  350 mt  697  358 L
 697  350 mt  689  358 L
 713  347 mt  721  355 L
 721  347 mt  713  355 L
 738  349 mt  746  357 L
 746  349 mt  738  357 L
DD
gr

gs 282 99 461 312 rc
SO
1.38889 w
1 sg
25 0 24 0 24 0 24 0 24 0 25 0 24 0 24 0 
24 0 24 -1 282 410 11 MP stroke
gr

1.38889 w
1 sg
SO
0 sg
 235  305 mt  -90 rotate
(RMS TB \(K\)) s
90 rotate
 432   85 mt 
(a\) METOP on Land) s
 207  505 mt  -45 rotate
(AMSUA 23.8) s
45 rotate
 283  453 mt  -45 rotate
(31.4) s
45 rotate
 308  453 mt  -45 rotate
(50.3) s
45 rotate
 331  453 mt  -45 rotate
(52.8) s
45 rotate
 356  453 mt  -45 rotate
(53.6) s
45 rotate
 380  453 mt  -45 rotate
(54.4) s
45 rotate
 396  461 mt  -45 rotate
(54.94) s
45 rotate
 429  453 mt  -45 rotate
(55.5) s
45 rotate
 445  461 mt  -45 rotate
(57.29) s
45 rotate
 453  477 mt  -45 rotate
(+-0.217) s
45 rotate
 422  532 mt  -45 rotate
(+-0.322 +-0.048) s
45 rotate
 446  532 mt  -45 rotate
(+-0.322 +-0.022) s
45 rotate
 470  532 mt  -45 rotate
(+-0.322 +-0.010) s
45 rotate
 488  539 mt  -45 rotate
(+-0.322 +-0.0045) s
45 rotate
 598  453 mt  -45 rotate
(89.0) s
45 rotate
 587  488 mt  -45 rotate
(MHS 89.0) s
45 rotate
 650  450 mt  -45 rotate
(157) s
45 rotate
 627  496 mt  -45 rotate
(183.31 +-1) s
45 rotate
 652  496 mt  -45 rotate
(183.31 +-3) s
45 rotate
 712  461 mt  -45 rotate
(190.3) s
45 rotate
%%IncludeResource: font Helvetica
/Helvetica /ISOLatin1Encoding 27.7778 FMSR

 278  421 mt 
( ) s
 739  109 mt 
( ) s
1 sg
0 311 460 0 0 -311 282 979 4 MP
PP
-460 0 0 311 460 0 0 -311 282 979 5 MP stroke
0.925926 w
DO
SO
1.38889 w
0 sg
 282  979 mt  742  979 L
 282  668 mt  742  668 L
 282  979 mt  282  668 L
 742  979 mt  742  668 L
 282  979 mt  742  979 L
 282  979 mt  282  668 L
 282  979 mt  282  974 L
 282  668 mt  282  672 L
 306  979 mt  306  974 L
 306  668 mt  306  672 L
 330  979 mt  330  974 L
 330  668 mt  330  672 L
 354  979 mt  354  974 L
 354  668 mt  354  672 L
 378  979 mt  378  974 L
 378  668 mt  378  672 L
 403  979 mt  403  974 L
 403  668 mt  403  672 L
 427  979 mt  427  974 L
 427  668 mt  427  672 L
 451  979 mt  451  974 L
 451  668 mt  451  672 L
 475  979 mt  475  974 L
 475  668 mt  475  672 L
 499  979 mt  499  974 L
 499  668 mt  499  672 L
 524  979 mt  524  974 L
 524  668 mt  524  672 L
 548  979 mt  548  974 L
 548  668 mt  548  672 L
 572  979 mt  572  974 L
 572  668 mt  572  672 L
 596  979 mt  596  974 L
 596  668 mt  596  672 L
 620  979 mt  620  974 L
 620  668 mt  620  672 L
 645  979 mt  645  974 L
 645  668 mt  645  672 L
 669  979 mt  669  974 L
 669  668 mt  669  672 L
 693  979 mt  693  974 L
 693  668 mt  693  672 L
 717  979 mt  717  974 L
 717  668 mt  717  672 L
 742  979 mt  742  974 L
 742  668 mt  742  672 L
 282  979 mt  286  979 L
 742  979 mt  737  979 L
%%IncludeResource: font Helvetica
/Helvetica /ISOLatin1Encoding 19.4444 FMSR

 264  986 mt 
(0) s
 282  901 mt  286  901 L
 742  901 mt  737  901 L
 264  908 mt 
(3) s
 282  823 mt  286  823 L
 742  823 mt  737  823 L
 264  830 mt 
(6) s
 282  745 mt  286  745 L
 742  745 mt  737  745 L
 264  752 mt 
(9) s
 282  668 mt  286  668 L
 742  668 mt  737  668 L
 253  675 mt 
(12) s
 282  979 mt  742  979 L
 282  668 mt  742  668 L
 282  979 mt  282  668 L
 742  979 mt  742  668 L
gs 282 668 461 312 rc
3.88889 w
25 5 24 12 24 10 24 9 25 5 24 -14 24 -28 24 -6 
24 -3 25 -1 24 0 24 -3 24 -1 24 0 25 2 24 5 
24 14 24 2 24 25 282 926 20 MP stroke
gr

3.88889 w
gs 262 898 500 97 rc
 278  922 mt  286  930 L
 286  922 mt  278  930 L
 302  947 mt  310  955 L
 310  947 mt  302  955 L
 326  949 mt  334  957 L
 334  949 mt  326  957 L
 350  963 mt  358  971 L
 358  963 mt  350  971 L
 374  968 mt  382  976 L
 382  968 mt  374  976 L
 399  970 mt  407  978 L
 407  970 mt  399  978 L
 423  970 mt  431  978 L
 431  970 mt  423  978 L
 447  969 mt  455  977 L
 455  969 mt  447  977 L
 471  966 mt  479  974 L
 479  966 mt  471  974 L
 495  966 mt  503  974 L
 503  966 mt  495  974 L
 520  965 mt  528  973 L
 528  965 mt  520  973 L
 544  962 mt  552  970 L
 552  962 mt  544  970 L
 568  956 mt  576  964 L
 576  956 mt  568  964 L
 592  928 mt  600  936 L
 600  928 mt  592  936 L
 616  914 mt  624  922 L
 624  914 mt  616  922 L
 641  919 mt  649  927 L
 649  919 mt  641  927 L
 665  928 mt  673  936 L
 673  928 mt  665  936 L
 689  938 mt  697  946 L
 697  938 mt  689  946 L
 713  950 mt  721  958 L
 721  950 mt  713  958 L
 738  955 mt  746  963 L
 746  955 mt  738  963 L
gr

gs 282 668 461 312 rc
DD
25 7 24 1 24 38 24 20 25 -13 24 -49 24 -28 24 -6 
24 -3 25 -1 24 0 24 -3 24 -1 24 0 25 2 24 4 
24 23 24 15 24 44 282 886 20 MP stroke
gr

DD
gs 262 850 500 145 rc
SO
 278  882 mt  286  890 L
 286  882 mt  278  890 L
 302  926 mt  310  934 L
 310  926 mt  302  934 L
 326  941 mt  334  949 L
 334  941 mt  326  949 L
 350  964 mt  358  972 L
 358  964 mt  350  972 L
 374  968 mt  382  976 L
 382  968 mt  374  976 L
 399  970 mt  407  978 L
 407  970 mt  399  978 L
 423  970 mt  431  978 L
 431  970 mt  423  978 L
 447  969 mt  455  977 L
 455  969 mt  447  977 L
 471  966 mt  479  974 L
 479  966 mt  471  974 L
 495  966 mt  503  974 L
 503  966 mt  495  974 L
 520  965 mt  528  973 L
 528  965 mt  520  973 L
 544  962 mt  552  970 L
 552  962 mt  544  970 L
 568  956 mt  576  964 L
 576  956 mt  568  964 L
 592  928 mt  600  936 L
 600  928 mt  592  936 L
 616  879 mt  624  887 L
 624  879 mt  616  887 L
 641  866 mt  649  874 L
 649  866 mt  641  874 L
 665  886 mt  673  894 L
 673  886 mt  665  894 L
 689  924 mt  697  932 L
 697  924 mt  689  932 L
 713  925 mt  721  933 L
 721  925 mt  713  933 L
 738  932 mt  746  940 L
 746  932 mt  738  940 L
DD
gr

gs 282 668 461 312 rc
SO
1.38889 w
1 sg
25 0 24 0 24 0 24 0 24 0 25 0 24 0 24 0 
24 0 24 -1 282 979 11 MP stroke
3.88889 w
0.5 sg
25 10 24 6 24 -5 24 22 25 30 24 -32 24 -30 24 -7 
24 -2 25 -2 24 0 24 -3 24 -1 24 0 25 2 24 3 
24 20 24 2 24 10 282 937 20 MP stroke
gr

0.5 sg
SO
gs 262 877 500 118 rc
 278  933 mt  286  941 L
 286  933 mt  278  941 L
 302  943 mt  310  951 L
 310  943 mt  302  951 L
 326  945 mt  334  953 L
 334  945 mt  326  953 L
 350  965 mt  358  973 L
 358  965 mt  350  973 L
 374  968 mt  382  976 L
 382  968 mt  374  976 L
 399  970 mt  407  978 L
 407  970 mt  399  978 L
 423  970 mt  431  978 L
 431  970 mt  423  978 L
 447  969 mt  455  977 L
 455  969 mt  447  977 L
 471  966 mt  479  974 L
 479  966 mt  471  974 L
 495  966 mt  503  974 L
 503  966 mt  495  974 L
 520  964 mt  528  972 L
 528  964 mt  520  972 L
 544  962 mt  552  970 L
 552  962 mt  544  970 L
 568  955 mt  576  963 L
 576  955 mt  568  963 L
 592  925 mt  600  933 L
 600  925 mt  592  933 L
 616  893 mt  624  901 L
 624  893 mt  616  901 L
 641  923 mt  649  931 L
 649  923 mt  641  931 L
 665  945 mt  673  953 L
 673  945 mt  665  953 L
 689  940 mt  697  948 L
 697  940 mt  689  948 L
 713  946 mt  721  954 L
 721  946 mt  713  954 L
 738  956 mt  746  964 L
 746  956 mt  738  964 L
gr

gs 282 668 461 312 rc
DD
25 9 24 5 24 17 24 76 25 -17 24 -79 24 -30 24 -7 
24 -2 25 -2 24 0 24 -3 24 -1 24 0 25 2 24 5 
24 37 24 15 24 39 282 876 20 MP stroke
gr

DD
gs 262 813 500 182 rc
SO
 278  872 mt  286  880 L
 286  872 mt  278  880 L
 302  911 mt  310  919 L
 310  911 mt  302  919 L
 326  926 mt  334  934 L
 334  926 mt  326  934 L
 350  963 mt  358  971 L
 358  963 mt  350  971 L
 374  968 mt  382  976 L
 382  968 mt  374  976 L
 399  970 mt  407  978 L
 407  970 mt  399  978 L
 423  970 mt  431  978 L
 431  970 mt  423  978 L
 447  969 mt  455  977 L
 455  969 mt  447  977 L
 471  966 mt  479  974 L
 479  966 mt  471  974 L
 495  966 mt  503  974 L
 503  966 mt  495  974 L
 520  964 mt  528  972 L
 528  964 mt  520  972 L
 544  962 mt  552  970 L
 552  962 mt  544  970 L
 568  955 mt  576  963 L
 576  955 mt  568  963 L
 592  925 mt  600  933 L
 600  925 mt  592  933 L
 616  846 mt  624  854 L
 624  846 mt  616  854 L
 641  829 mt  649  837 L
 649  829 mt  641  837 L
 665  905 mt  673  913 L
 673  905 mt  665  913 L
 689  922 mt  697  930 L
 697  922 mt  689  930 L
 713  927 mt  721  935 L
 721  927 mt  713  935 L
 738  936 mt  746  944 L
 746  936 mt  738  944 L
DD
gr

gs 282 668 461 312 rc
SO
1.38889 w
1 sg
25 0 24 0 24 0 24 0 24 0 25 0 24 0 24 0 
24 0 24 -1 282 979 11 MP stroke
gr

1.38889 w
1 sg
SO
0 sg
 235  874 mt  -90 rotate
(RMS TB \(K\)) s
90 rotate
 426  654 mt 
(c\) METOP on Ocean) s
 207 1074 mt  -45 rotate
(AMSUA 23.8) s
45 rotate
 283 1022 mt  -45 rotate
(31.4) s
45 rotate
 308 1022 mt  -45 rotate
(50.3) s
45 rotate
 331 1022 mt  -45 rotate
(52.8) s
45 rotate
 356 1022 mt  -45 rotate
(53.6) s
45 rotate
 380 1022 mt  -45 rotate
(54.4) s
45 rotate
 396 1030 mt  -45 rotate
(54.94) s
45 rotate
 429 1022 mt  -45 rotate
(55.5) s
45 rotate
 445 1030 mt  -45 rotate
(57.29) s
45 rotate
 453 1046 mt  -45 rotate
(+-0.217) s
45 rotate
 422 1101 mt  -45 rotate
(+-0.322 +-0.048) s
45 rotate
 446 1101 mt  -45 rotate
(+-0.322 +-0.022) s
45 rotate
 470 1101 mt  -45 rotate
(+-0.322 +-0.010) s
45 rotate
 488 1108 mt  -45 rotate
(+-0.322 +-0.0045) s
45 rotate
 598 1022 mt  -45 rotate
(89.0) s
45 rotate
 587 1057 mt  -45 rotate
(MHS 89.0) s
45 rotate
 650 1019 mt  -45 rotate
(157) s
45 rotate
 627 1065 mt  -45 rotate
(183.31 +-1) s
45 rotate
 652 1065 mt  -45 rotate
(183.31 +-3) s
45 rotate
 712 1030 mt  -45 rotate
(190.3) s
45 rotate
%%IncludeResource: font Helvetica
/Helvetica /ISOLatin1Encoding 27.7778 FMSR

 278  990 mt 
( ) s
 739  678 mt 
( ) s
1 sg
0 314 448 0 0 -314 998 413 4 MP
PP
-448 0 0 314 448 0 0 -314 998 413 5 MP stroke
0.925926 w
DO
SO
1.38889 w
0 sg
 998  413 mt 1446  413 L
 998   99 mt 1446   99 L
 998  413 mt  998   99 L
1446  413 mt 1446   99 L
 998  413 mt 1446  413 L
 998  413 mt  998   99 L
 998  413 mt  998  408 L
 998   99 mt  998  103 L
1027  413 mt 1027  408 L
1027   99 mt 1027  103 L
1057  413 mt 1057  408 L
1057   99 mt 1057  103 L
1087  413 mt 1087  408 L
1087   99 mt 1087  103 L
1117  413 mt 1117  408 L
1117   99 mt 1117  103 L
1147  413 mt 1147  408 L
1147   99 mt 1147  103 L
1177  413 mt 1177  408 L
1177   99 mt 1177  103 L
1207  413 mt 1207  408 L
1207   99 mt 1207  103 L
1236  413 mt 1236  408 L
1236   99 mt 1236  103 L
1266  413 mt 1266  408 L
1266   99 mt 1266  103 L
1296  413 mt 1296  408 L
1296   99 mt 1296  103 L
1326  413 mt 1326  408 L
1326   99 mt 1326  103 L
1356  413 mt 1356  408 L
1356   99 mt 1356  103 L
1386  413 mt 1386  408 L
1386   99 mt 1386  103 L
1416  413 mt 1416  408 L
1416   99 mt 1416  103 L
1446  413 mt 1446  408 L
1446   99 mt 1446  103 L
 998  413 mt 1002  413 L
1446  413 mt 1441  413 L
%%IncludeResource: font Helvetica
/Helvetica /ISOLatin1Encoding 19.4444 FMSR

 980  420 mt 
(0) s
 998  334 mt 1002  334 L
1446  334 mt 1441  334 L
 980  341 mt 
(3) s
 998  256 mt 1002  256 L
1446  256 mt 1441  256 L
 980  263 mt 
(6) s
 998  177 mt 1002  177 L
1446  177 mt 1441  177 L
 980  184 mt 
(9) s
 998   99 mt 1002   99 L
1446   99 mt 1441   99 L
 969  106 mt 
(12) s
 998  413 mt 1446  413 L
 998   99 mt 1446   99 L
 998  413 mt  998   99 L
1446  413 mt 1446   99 L
gs 998 99 449 315 rc
DD
3.88889 w
30 2 30 -8 30 18 30 2 30 -10 30 14 30 -4 29 7 
30 -9 30 17 30 -2 30 8 30 -13 30 14 29 -9 998 330 16 MP stroke
gr

3.88889 w
DD
gs 978 302 488 82 rc
SO
 994  326 mt 1002  334 L
1002  326 mt  994  334 L
1023  317 mt 1031  325 L
1031  317 mt 1023  325 L
1053  331 mt 1061  339 L
1061  331 mt 1053  339 L
1083  318 mt 1091  326 L
1091  318 mt 1083  326 L
1113  326 mt 1121  334 L
1121  326 mt 1113  334 L
1143  324 mt 1151  332 L
1151  324 mt 1143  332 L
1173  341 mt 1181  349 L
1181  341 mt 1173  349 L
1203  332 mt 1211  340 L
1211  332 mt 1203  340 L
1232  339 mt 1240  347 L
1240  339 mt 1232  347 L
1262  335 mt 1270  343 L
1270  335 mt 1262  343 L
1292  349 mt 1300  357 L
1300  349 mt 1292  357 L
1322  339 mt 1330  347 L
1330  339 mt 1322  347 L
1352  341 mt 1360  349 L
1360  341 mt 1352  349 L
1382  359 mt 1390  367 L
1390  359 mt 1382  367 L
1412  351 mt 1420  359 L
1420  351 mt 1412  359 L
1442  353 mt 1450  361 L
1450  353 mt 1442  361 L
DD
gr

gs 998 99 449 315 rc
SO
1.38889 w
1 sg
30 0 30 0 29 0 30 0 30 0 30 0 30 0 30 0 
30 0 29 -1 998 413 11 MP stroke
30 0 30 0 29 0 30 0 30 0 30 0 30 0 30 0 
30 0 29 -1 998 413 11 MP stroke
gr

1.38889 w
1 sg
SO
0 sg
 951  307 mt  -90 rotate
(RMS TB \(K\)) s
90 rotate
1149   85 mt 
(b\) AQUA on Land) s
 898  534 mt  -45 rotate
(AMSR-E 6.925V) s
45 rotate
 987  474 mt  -45 rotate
(6.925H) s
45 rotate
1018  473 mt  -45 rotate
(10.65V) s
45 rotate
1047  474 mt  -45 rotate
(10.65H) s
45 rotate
1085  465 mt  -45 rotate
(18.7V) s
45 rotate
1115  466 mt  -45 rotate
(18.7H) s
45 rotate
1146  465 mt  -45 rotate
(23.8V) s
45 rotate
1174  466 mt  -45 rotate
(23.8H) s
45 rotate
1205  465 mt  -45 rotate
(36.5V) s
45 rotate
1233  466 mt  -45 rotate
(36.5H) s
45 rotate
1265  465 mt  -45 rotate
(89.0V) s
45 rotate
1294  466 mt  -45 rotate
(89.0H) s
45 rotate
1305  484 mt  -45 rotate
(HSB 150) s
45 rotate
1316  503 mt  -45 rotate
(183.31 +/-1) s
45 rotate
1346  503 mt  -45 rotate
(183.31 +/-3) s
45 rotate
1377  503 mt  -45 rotate
(183.31 +/-7) s
45 rotate
%%IncludeResource: font Helvetica
/Helvetica /ISOLatin1Encoding 27.7778 FMSR

 994  424 mt 
( ) s
1443  109 mt 
( ) s
1 sg
0 314 448 0 0 -314 998 982 4 MP
PP
-448 0 0 314 448 0 0 -314 998 982 5 MP stroke
0.925926 w
DO
SO
1.38889 w
0 sg
 998  982 mt 1446  982 L
 998  668 mt 1446  668 L
 998  982 mt  998  668 L
1446  982 mt 1446  668 L
 998  982 mt 1446  982 L
 998  982 mt  998  668 L
 998  982 mt  998  977 L
 998  668 mt  998  672 L
1027  982 mt 1027  977 L
1027  668 mt 1027  672 L
1057  982 mt 1057  977 L
1057  668 mt 1057  672 L
1087  982 mt 1087  977 L
1087  668 mt 1087  672 L
1117  982 mt 1117  977 L
1117  668 mt 1117  672 L
1147  982 mt 1147  977 L
1147  668 mt 1147  672 L
1177  982 mt 1177  977 L
1177  668 mt 1177  672 L
1207  982 mt 1207  977 L
1207  668 mt 1207  672 L
1236  982 mt 1236  977 L
1236  668 mt 1236  672 L
1266  982 mt 1266  977 L
1266  668 mt 1266  672 L
1296  982 mt 1296  977 L
1296  668 mt 1296  672 L
1326  982 mt 1326  977 L
1326  668 mt 1326  672 L
1356  982 mt 1356  977 L
1356  668 mt 1356  672 L
1386  982 mt 1386  977 L
1386  668 mt 1386  672 L
1416  982 mt 1416  977 L
1416  668 mt 1416  672 L
1446  982 mt 1446  977 L
1446  668 mt 1446  672 L
 998  982 mt 1002  982 L
1446  982 mt 1441  982 L
%%IncludeResource: font Helvetica
/Helvetica /ISOLatin1Encoding 19.4444 FMSR

 980  989 mt 
(0) s
 998  903 mt 1002  903 L
1446  903 mt 1441  903 L
 980  910 mt 
(3) s
 998  825 mt 1002  825 L
1446  825 mt 1441  825 L
 980  832 mt 
(6) s
 998  746 mt 1002  746 L
1446  746 mt 1441  746 L
 980  753 mt 
(9) s
 998  668 mt 1002  668 L
1446  668 mt 1441  668 L
 969  675 mt 
(12) s
 998  982 mt 1446  982 L
 998  668 mt 1446  668 L
 998  982 mt  998  668 L
1446  982 mt 1446  668 L
gs 998 668 449 315 rc
3.88889 w
30 3 30 16 30 13 30 8 30 -32 30 -3 30 -13 29 40 
30 -22 30 -6 30 -10 30 -9 30 4 30 -6 29 6 998 968 16 MP stroke
gr

3.88889 w
gs 978 897 488 98 rc
 994  964 mt 1002  972 L
1002  964 mt  994  972 L
1023  970 mt 1031  978 L
1031  970 mt 1023  978 L
1053  964 mt 1061  972 L
1061  964 mt 1053  972 L
1083  968 mt 1091  976 L
1091  968 mt 1083  976 L
1113  959 mt 1121  967 L
1121  959 mt 1113  967 L
1143  949 mt 1151  957 L
1151  949 mt 1143  957 L
1173  943 mt 1181  951 L
1181  943 mt 1173  951 L
1203  921 mt 1211  929 L
1211  921 mt 1203  929 L
1232  961 mt 1240  969 L
1240  961 mt 1232  969 L
1262  948 mt 1270  956 L
1270  948 mt 1262  956 L
1292  945 mt 1300  953 L
1300  945 mt 1292  953 L
1322  913 mt 1330  921 L
1330  913 mt 1322  921 L
1352  921 mt 1360  929 L
1360  921 mt 1352  929 L
1382  934 mt 1390  942 L
1390  934 mt 1382  942 L
1412  950 mt 1420  958 L
1420  950 mt 1412  958 L
1442  953 mt 1450  961 L
1450  953 mt 1442  961 L
gr

gs 998 668 449 315 rc
DD
30 9 30 -3 30 48 30 58 30 -94 30 13 30 -41 29 121 
30 -74 30 -5 30 -38 30 -18 30 -7 30 4 29 -4 998 967 16 MP stroke
gr

DD
gs 978 804 488 184 rc
SO
 994  963 mt 1002  971 L
1002  963 mt  994  971 L
1023  959 mt 1031  967 L
1031  959 mt 1023  967 L
1053  963 mt 1061  971 L
1061  963 mt 1053  971 L
1083  956 mt 1091  964 L
1091  956 mt 1083  964 L
1113  938 mt 1121  946 L
1121  938 mt 1113  946 L
1143  900 mt 1151  908 L
1151  900 mt 1143  908 L
1173  895 mt 1181  903 L
1181  895 mt 1173  903 L
1203  821 mt 1211  829 L
1211  821 mt 1203  829 L
1232  942 mt 1240  950 L
1240  942 mt 1232  950 L
1262  901 mt 1270  909 L
1270  901 mt 1262  909 L
1292  914 mt 1300  922 L
1300  914 mt 1292  922 L
1322  820 mt 1330  828 L
1330  820 mt 1322  828 L
1352  878 mt 1360  886 L
1360  878 mt 1352  886 L
1382  926 mt 1390  934 L
1390  926 mt 1382  934 L
1412  923 mt 1420  931 L
1420  923 mt 1412  931 L
1442  932 mt 1450  940 L
1450  932 mt 1442  940 L
DD
gr

gs 998 668 449 315 rc
SO
1.38889 w
1 sg
30 0 30 0 29 0 30 0 30 0 30 0 30 0 30 0 
30 0 29 -1 998 982 11 MP stroke
3.88889 w
0.5 sg
30 5 30 8 30 14 30 48 30 -55 30 9 30 -24 29 29 
30 -20 30 -2 30 -14 30 -8 30 1 30 -5 29 6 998 967 16 MP stroke
gr

0.5 sg
SO
gs 978 864 488 130 rc
 994  963 mt 1002  971 L
1002  963 mt  994  971 L
1023  969 mt 1031  977 L
1031  969 mt 1023  977 L
1053  964 mt 1061  972 L
1061  964 mt 1053  972 L
1083  965 mt 1091  973 L
1091  965 mt 1083  973 L
1113  957 mt 1121  965 L
1121  957 mt 1113  965 L
1143  943 mt 1151  951 L
1151  943 mt 1143  951 L
1173  941 mt 1181  949 L
1181  941 mt 1173  949 L
1203  921 mt 1211  929 L
1211  921 mt 1203  929 L
1232  950 mt 1240  958 L
1240  950 mt 1232  958 L
1262  926 mt 1270  934 L
1270  926 mt 1262  934 L
1292  935 mt 1300  943 L
1300  935 mt 1292  943 L
1322  880 mt 1330  888 L
1330  880 mt 1322  888 L
1352  928 mt 1360  936 L
1360  928 mt 1352  936 L
1382  942 mt 1390  950 L
1390  942 mt 1382  950 L
1412  950 mt 1420  958 L
1420  950 mt 1412  958 L
1442  955 mt 1450  963 L
1450  955 mt 1442  963 L
gr

gs 998 668 449 315 rc
DD
30 13 30 -1 30 29 30 125 30 -128 30 49 30 -68 29 103 
30 -77 30 8 30 -46 30 -23 30 -11 30 3 29 -4 998 966 16 MP stroke
gr

DD
gs 978 752 488 235 rc
SO
 994  962 mt 1002  970 L
1002  962 mt  994  970 L
1023  958 mt 1031  966 L
1031  958 mt 1023  966 L
1053  961 mt 1061  969 L
1061  961 mt 1053  969 L
1083  950 mt 1091  958 L
1091  950 mt 1083  958 L
1113  927 mt 1121  935 L
1121  927 mt 1113  935 L
1143  881 mt 1151  889 L
1151  881 mt 1143  889 L
1173  889 mt 1181  897 L
1181  889 mt 1173  897 L
1203  812 mt 1211  820 L
1211  812 mt 1203  820 L
1232  915 mt 1240  923 L
1240  915 mt 1232  923 L
1262  847 mt 1270  855 L
1270  847 mt 1262  855 L
1292  896 mt 1300  904 L
1300  896 mt 1292  904 L
1322  768 mt 1330  776 L
1330  768 mt 1322  776 L
1352  893 mt 1360  901 L
1360  893 mt 1352  901 L
1382  922 mt 1390  930 L
1390  922 mt 1382  930 L
1412  921 mt 1420  929 L
1420  921 mt 1412  929 L
1442  934 mt 1450  942 L
1450  934 mt 1442  942 L
DD
gr

gs 998 668 449 315 rc
SO
1.38889 w
1 sg
30 0 30 0 29 0 30 0 30 0 30 0 30 0 30 0 
30 0 29 -1 998 982 11 MP stroke
gr

1.38889 w
1 sg
SO
0 sg
 951  876 mt  -90 rotate
(RMS TB \(K\)) s
90 rotate
1142  654 mt 
(d\) AQUA on Ocean) s
 898 1103 mt  -45 rotate
(AMSR-E 6.925V) s
45 rotate
 987 1043 mt  -45 rotate
(6.925H) s
45 rotate
1018 1042 mt  -45 rotate
(10.65V) s
45 rotate
1047 1043 mt  -45 rotate
(10.65H) s
45 rotate
1085 1034 mt  -45 rotate
(18.7V) s
45 rotate
1115 1035 mt  -45 rotate
(18.7H) s
45 rotate
1146 1034 mt  -45 rotate
(23.8V) s
45 rotate
1174 1035 mt  -45 rotate
(23.8H) s
45 rotate
1205 1034 mt  -45 rotate
(36.5V) s
45 rotate
1233 1035 mt  -45 rotate
(36.5H) s
45 rotate
1265 1034 mt  -45 rotate
(89.0V) s
45 rotate
1294 1035 mt  -45 rotate
(89.0H) s
45 rotate
1305 1053 mt  -45 rotate
(HSB 150) s
45 rotate
1316 1072 mt  -45 rotate
(183.31 +/-1) s
45 rotate
1346 1072 mt  -45 rotate
(183.31 +/-3) s
45 rotate
1377 1072 mt  -45 rotate
(183.31 +/-7) s
45 rotate
%%IncludeResource: font Helvetica
/Helvetica /ISOLatin1Encoding 27.7778 FMSR

 994  993 mt 
( ) s
1443  678 mt 
( ) s
1 sg
0 116 432 0 0 -116 1005 791 4 MP
PP
-432 0 0 116 432 0 0 -116 1005 791 5 MP stroke
0.925926 w
DO
SO
1.38889 w
0 sg
1005  791 mt 1437  791 L
1005  675 mt 1437  675 L
1005  791 mt 1005  675 L
1437  791 mt 1437  675 L
1005  791 mt 1437  791 L
1005  791 mt 1005  675 L
1005  791 mt 1437  791 L
1005  675 mt 1437  675 L
1005  791 mt 1005  675 L
1437  791 mt 1437  675 L
%%IncludeResource: font Helvetica
/Helvetica /ISOLatin1Encoding 16.6667 FMSR

1100  696 mt 
(RT\(RET\) - CAL\(OBS\) clear) s
gs 1005 675 433 117 rc
3.88889 w
73 0 1019 689 2 MP stroke
gr

3.88889 w
gs 1036 669 40 41 rc
1052  685 mt 1060  693 L
1060  685 mt 1052  693 L
gr

gs 1005 675 433 117 rc
gr

1100  718 mt 
(RT\(ANA\) - CAL\(OBS\) clear \(6449 points\)) s
gs 1005 675 433 117 rc
DD
73 0 1019 711 2 MP stroke
SO
gs 1036 691 40 40 rc
1052  707 mt 1060  715 L
1060  707 mt 1052  715 L
gr

1.38889 w
1 sg
73 0 1019 733 2 MP stroke
gr

1.38889 w
1 sg
0 sg
1100  761 mt 
(RT\(RET\) - CAL\(OBS\) cloudy) s
gs 1005 675 433 117 rc
3.88889 w
0.5 sg
73 0 1019 754 2 MP stroke
gs 1036 735 40 40 rc
1052  750 mt 1060  758 L
1060  750 mt 1052  758 L
gr

gr

3.88889 w
0.5 sg
0 sg
1100  783 mt 
(RT\(ANA\) - CAL\(OBS\) cloudy \(30000 points\)) s
gs 1005 675 433 117 rc
DD
0.5 sg
73 0 1019 776 2 MP stroke
SO
gr

0.5 sg
gs 1036 756 40 41 rc
1052  772 mt 1060  780 L
1060  772 mt 1052  780 L
gr

gs 1005 675 433 117 rc
1.38889 w
gr

1.38889 w
1 sg
0 117 432 0 0 -117 1005 223 4 MP
PP
-432 0 0 117 432 0 0 -117 1005 223 5 MP stroke
0.925926 w
DO
SO
1.38889 w
0 sg
1005  223 mt 1437  223 L
1005  106 mt 1437  106 L
1005  223 mt 1005  106 L
1437  223 mt 1437  106 L
1005  223 mt 1437  223 L
1005  223 mt 1005  106 L
1005  223 mt 1437  223 L
1005  106 mt 1437  106 L
1005  223 mt 1005  106 L
1437  223 mt 1437  106 L
1100  127 mt 
(RT\(RET\) - CAL\(OBS\) clear) s
gs 1005 106 433 118 rc
3.88889 w
73 0 1019 120 2 MP stroke
gr

3.88889 w
gs 1036 100 40 41 rc
1052  116 mt 1060  124 L
1060  116 mt 1052  124 L
gr

gs 1005 106 433 118 rc
gr

1100  149 mt 
(RT\(ANA\) - CAL\(OBS\) clear \(6689 points\)) s
gs 1005 106 433 118 rc
DD
73 0 1019 142 2 MP stroke
SO
gs 1036 122 40 41 rc
1052  138 mt 1060  146 L
1060  138 mt 1052  146 L
gr

1.38889 w
1 sg
73 0 1019 164 2 MP stroke
gr

1.38889 w
1 sg
0 sg
1100  193 mt 
(RT\(RET\) - CAL\(OBS\) cloudy) s
gs 1005 106 433 118 rc
3.88889 w
0.5 sg
73 0 1019 186 2 MP stroke
gs 1036 166 40 41 rc
1052  182 mt 1060  190 L
1060  182 mt 1052  190 L
gr

gr

3.88889 w
0.5 sg
0 sg
1100  215 mt 
(RT\(ANA\) - CAL\(OBS\) cloudy \(11610 points\)) s
gs 1005 106 433 118 rc
DD
0.5 sg
73 0 1019 208 2 MP stroke
SO
gr

0.5 sg
gs 1036 188 40 41 rc
1052  204 mt 1060  212 L
1060  204 mt 1052  212 L
gr

gs 1005 106 433 118 rc
1.38889 w
gr

1.38889 w
1 sg
0 116 433 0 0 -116 300 791 4 MP
PP
-433 0 0 116 433 0 0 -116 300 791 5 MP stroke
0.925926 w
DO
SO
1.38889 w
0 sg
 300  791 mt  733  791 L
 300  675 mt  733  675 L
 300  791 mt  300  675 L
 733  791 mt  733  675 L
 300  791 mt  733  791 L
 300  791 mt  300  675 L
 300  791 mt  733  791 L
 300  675 mt  733  675 L
 300  791 mt  300  675 L
 733  791 mt  733  675 L
 396  696 mt 
(RT\(RET\) - CAL\(OBS\) clear) s
gs 300 675 434 117 rc
3.88889 w
73 0 314 689 2 MP stroke
gr

3.88889 w
gs 331 669 41 41 rc
 347  685 mt  355  693 L
 355  685 mt  347  693 L
gr

gs 300 675 434 117 rc
gr

 396  718 mt 
(RT\(ANA\) - CAL\(OBS\) clear \(10656 points\)) s
gs 300 675 434 117 rc
DD
73 0 314 711 2 MP stroke
SO
gs 331 691 41 40 rc
 347  707 mt  355  715 L
 355  707 mt  347  715 L
gr

1.38889 w
1 sg
73 0 314 733 2 MP stroke
gr

1.38889 w
1 sg
0 sg
 396  761 mt 
(RT\(RET\) - CAL\(OBS\) cloudy) s
gs 300 675 434 117 rc
3.88889 w
0.5 sg
73 0 314 754 2 MP stroke
gs 331 735 41 40 rc
 347  750 mt  355  758 L
 355  750 mt  347  758 L
gr

gr

3.88889 w
0.5 sg
0 sg
 396  783 mt 
(RT\(ANA\) - CAL\(OBS\) cloudy \(18703 points\)) s
gs 300 675 434 117 rc
DD
0.5 sg
73 0 314 776 2 MP stroke
SO
gr

0.5 sg
gs 331 756 41 41 rc
 347  772 mt  355  780 L
 355  772 mt  347  780 L
gr

gs 300 675 434 117 rc
1.38889 w
gr

1.38889 w
1 sg
0 117 424 0 0 -117 309 223 4 MP
PP
-424 0 0 117 424 0 0 -117 309 223 5 MP stroke
0.925926 w
DO
SO
1.38889 w
0 sg
 309  223 mt  733  223 L
 309  106 mt  733  106 L
 309  223 mt  309  106 L
 733  223 mt  733  106 L
 309  223 mt  733  223 L
 309  223 mt  309  106 L
 309  223 mt  733  223 L
 309  106 mt  733  106 L
 309  223 mt  309  106 L
 733  223 mt  733  106 L
 405  127 mt 
(RT\(RET\) - CAL\(OBS\) clear) s
gs 309 106 425 118 rc
3.88889 w
74 0 323 120 2 MP stroke
gr

3.88889 w
gs 340 100 41 41 rc
 356  116 mt  364  124 L
 364  116 mt  356  124 L
gr

gs 309 106 425 118 rc
gr

 405  149 mt 
(RT\(ANA\) - CAL\(OBS\) clear \(5658 points\)) s
gs 309 106 425 118 rc
DD
74 0 323 142 2 MP stroke
SO
gs 340 122 41 41 rc
 356  138 mt  364  146 L
 364  138 mt  356  146 L
gr

1.38889 w
1 sg
74 0 323 164 2 MP stroke
gr

1.38889 w
1 sg
0 sg
 405  193 mt 
(RT\(RET\) - CAL\(OBS\) cloudy) s
gs 309 106 425 118 rc
3.88889 w
0.5 sg
74 0 323 186 2 MP stroke
gs 340 166 41 41 rc
 356  182 mt  364  190 L
 364  182 mt  356  190 L
gr

gr

3.88889 w
0.5 sg
0 sg
 405  215 mt 
(RT\(ANA\) - CAL\(OBS\) cloudy \(4420 points\)) s
gs 309 106 425 118 rc
DD
0.5 sg
74 0 323 208 2 MP stroke
SO
gr

0.5 sg
gs 340 188 41 41 rc
 356  204 mt  364  212 L
 364  204 mt  356  212 L
gr

gs 309 106 425 118 rc
1.38889 w
gr

1.38889 w

end %%Color Dict

eplot
%%EndObject

epage
end

showpage

%%Trailer
%%EOF
