%!PS-Adobe-3.0 EPSF-3.0
%%Creator: MATLAB, The Mathworks, Inc.
%%Title: ./mt_7a.eps
%%CreationDate: 05/25/2013  06:37:29
%%DocumentNeededFonts: Helvetica
%%DocumentProcessColors: Cyan Magenta Yellow Black
%%LanguageLevel: 2
%%Pages: 1
%%BoundingBox:    85   208   548   594
%%EndComments

%%BeginProlog
% MathWorks dictionary
/MathWorks 160 dict begin
% definition operators
/bdef {bind def} bind def
/ldef {load def} bind def
/xdef {exch def} bdef
/xstore {exch store} bdef
% operator abbreviations
/c  /clip ldef
/cc /concat ldef
/cp /closepath ldef
/gr /grestore ldef
/gs /gsave ldef
/mt /moveto ldef
/np /newpath ldef
/cm /currentmatrix ldef
/sm /setmatrix ldef
/rm /rmoveto ldef
/rl /rlineto ldef
/s {show newpath} bdef
/sc {setcmykcolor} bdef
/sr /setrgbcolor ldef
/sg /setgray ldef
/w /setlinewidth ldef
/j /setlinejoin ldef
/cap /setlinecap ldef
/rc {rectclip} bdef
/rf {rectfill} bdef
% page state control
/pgsv () def
/bpage {/pgsv save def} bdef
/epage {pgsv restore} bdef
/bplot /gsave ldef
/eplot {stroke grestore} bdef
% orientation switch
/portraitMode 0 def /landscapeMode 1 def /rotateMode 2 def
% coordinate system mappings
/dpi2point 0 def
% font control
/FontSize 0 def
/FMS {/FontSize xstore findfont [FontSize 0 0 FontSize neg 0 0]
  makefont setfont} bdef
/reencode {exch dup where {pop load} {pop StandardEncoding} ifelse
  exch dup 3 1 roll findfont dup length dict begin
  { 1 index /FID ne {def}{pop pop} ifelse } forall
  /Encoding exch def currentdict end definefont pop} bdef
/isroman {findfont /CharStrings get /Agrave known} bdef
/FMSR {3 1 roll 1 index dup isroman {reencode} {pop pop} ifelse
  exch FMS} bdef
/csm {1 dpi2point div -1 dpi2point div scale neg translate
 dup landscapeMode eq {pop -90 rotate}
  {rotateMode eq {90 rotate} if} ifelse} bdef
% line types: solid, dotted, dashed, dotdash
/SO { [] 0 setdash } bdef
/DO { [.5 dpi2point mul 4 dpi2point mul] 0 setdash } bdef
/DA { [6 dpi2point mul] 0 setdash } bdef
/DD { [.5 dpi2point mul 4 dpi2point mul 6 dpi2point mul 4
  dpi2point mul] 0 setdash } bdef
% macros for lines and objects
/L {lineto stroke} bdef
/MP {3 1 roll moveto 1 sub {rlineto} repeat} bdef
/AP {{rlineto} repeat} bdef
/PDlw -1 def
/W {/PDlw currentlinewidth def setlinewidth} def
/PP {closepath eofill} bdef
/DP {closepath stroke} bdef
/MR {4 -2 roll moveto dup  0 exch rlineto exch 0 rlineto
  neg 0 exch rlineto closepath} bdef
/FR {MR stroke} bdef
/PR {MR fill} bdef
/L1i {{currentfile picstr readhexstring pop} image} bdef
/tMatrix matrix def
/MakeOval {newpath tMatrix currentmatrix pop translate scale
0 0 1 0 360 arc tMatrix setmatrix} bdef
/FO {MakeOval stroke} bdef
/PO {MakeOval fill} bdef
/PD {currentlinewidth 2 div 0 360 arc fill
   PDlw -1 eq not {PDlw w /PDlw -1 def} if} def
/FA {newpath tMatrix currentmatrix pop translate scale
  0 0 1 5 -2 roll arc tMatrix setmatrix stroke} bdef
/PA {newpath tMatrix currentmatrix pop	translate 0 0 moveto scale
  0 0 1 5 -2 roll arc closepath tMatrix setmatrix fill} bdef
/FAn {newpath tMatrix currentmatrix pop translate scale
  0 0 1 5 -2 roll arcn tMatrix setmatrix stroke} bdef
/PAn {newpath tMatrix currentmatrix pop translate 0 0 moveto scale
  0 0 1 5 -2 roll arcn closepath tMatrix setmatrix fill} bdef
/vradius 0 def /hradius 0 def /lry 0 def
/lrx 0 def /uly 0 def /ulx 0 def /rad 0 def
/MRR {/vradius xdef /hradius xdef /lry xdef /lrx xdef /uly xdef
  /ulx xdef newpath tMatrix currentmatrix pop ulx hradius add uly
  vradius add translate hradius vradius scale 0 0 1 180 270 arc 
  tMatrix setmatrix lrx hradius sub uly vradius add translate
  hradius vradius scale 0 0 1 270 360 arc tMatrix setmatrix
  lrx hradius sub lry vradius sub translate hradius vradius scale
  0 0 1 0 90 arc tMatrix setmatrix ulx hradius add lry vradius sub
  translate hradius vradius scale 0 0 1 90 180 arc tMatrix setmatrix
  closepath} bdef
/FRR {MRR stroke } bdef
/PRR {MRR fill } bdef
/MlrRR {/lry xdef /lrx xdef /uly xdef /ulx xdef /rad lry uly sub 2 div def
  newpath tMatrix currentmatrix pop ulx rad add uly rad add translate
  rad rad scale 0 0 1 90 270 arc tMatrix setmatrix lrx rad sub lry rad
  sub translate rad rad scale 0 0 1 270 90 arc tMatrix setmatrix
  closepath} bdef
/FlrRR {MlrRR stroke } bdef
/PlrRR {MlrRR fill } bdef
/MtbRR {/lry xdef /lrx xdef /uly xdef /ulx xdef /rad lrx ulx sub 2 div def
  newpath tMatrix currentmatrix pop ulx rad add uly rad add translate
  rad rad scale 0 0 1 180 360 arc tMatrix setmatrix lrx rad sub lry rad
  sub translate rad rad scale 0 0 1 0 180 arc tMatrix setmatrix
  closepath} bdef
/FtbRR {MtbRR stroke } bdef
/PtbRR {MtbRR fill } bdef
/stri 6 array def /dtri 6 array def
/smat 6 array def /dmat 6 array def
/tmat1 6 array def /tmat2 6 array def /dif 3 array def
/asub {/ind2 exch def /ind1 exch def dup dup
  ind1 get exch ind2 get sub exch } bdef
/tri_to_matrix {
  2 0 asub 3 1 asub 4 0 asub 5 1 asub
  dup 0 get exch 1 get 7 -1 roll astore } bdef
/compute_transform {
  dmat dtri tri_to_matrix tmat1 invertmatrix 
  smat stri tri_to_matrix tmat2 concatmatrix } bdef
/ds {stri astore pop} bdef
/dt {dtri astore pop} bdef
/db {2 copy /cols xdef /rows xdef mul dup 3 mul string
  currentfile 
  3 index 0 eq {/ASCIIHexDecode filter}
  {/ASCII85Decode filter 3 index 2 eq {/RunLengthDecode filter} if }
  ifelse exch readstring pop
  dup 0 3 index getinterval /rbmap xdef
  dup 2 index dup getinterval /gbmap xdef
  1 index dup 2 mul exch getinterval /bbmap xdef pop pop}bdef
/it {gs np dtri aload pop moveto lineto lineto cp c
  cols rows 8 compute_transform 
  rbmap gbmap bbmap true 3 colorimage gr}bdef
/il {newpath moveto lineto stroke}bdef
currentdict end def
%%EndProlog

%%BeginSetup
MathWorks begin

0 cap

end
%%EndSetup

%%Page: 1 1
%%BeginPageSetup
%%PageBoundingBox:    85   208   548   594
MathWorks begin
bpage
%%EndPageSetup

%%BeginObject: obj1
bplot

/dpi2point 2.77778 def
portraitMode 0050 1700 csm

  187    50  1286  1071 rc
126 dict begin %Colortable dictionary
/c0 { 0.000000 0.000000 0.000000 sr} bdef
/c1 { 1.000000 1.000000 1.000000 sr} bdef
/c2 { 0.900000 0.000000 0.000000 sr} bdef
/c3 { 0.000000 0.820000 0.000000 sr} bdef
/c4 { 0.000000 0.000000 0.800000 sr} bdef
/c5 { 0.910000 0.820000 0.320000 sr} bdef
/c6 { 1.000000 0.260000 0.820000 sr} bdef
/c7 { 0.000000 0.820000 0.820000 sr} bdef
c0
1 j
1 sg
   0    0 1601 1202 rf
1.38889 w
0 313 460 0 0 -313 282 412 4 MP
PP
-460 0 0 313 460 0 0 -313 282 412 5 MP stroke
0.925926 w
DO
SO
1.38889 w
0 sg
 282  412 mt  742  412 L
 282   99 mt  742   99 L
 282  412 mt  282   99 L
 742  412 mt  742   99 L
 282  412 mt  742  412 L
 282  412 mt  282   99 L
 282  412 mt  282  407 L
 282   99 mt  282  103 L
 306  412 mt  306  407 L
 306   99 mt  306  103 L
 330  412 mt  330  407 L
 330   99 mt  330  103 L
 354  412 mt  354  407 L
 354   99 mt  354  103 L
 378  412 mt  378  407 L
 378   99 mt  378  103 L
 403  412 mt  403  407 L
 403   99 mt  403  103 L
 427  412 mt  427  407 L
 427   99 mt  427  103 L
 451  412 mt  451  407 L
 451   99 mt  451  103 L
 475  412 mt  475  407 L
 475   99 mt  475  103 L
 499  412 mt  499  407 L
 499   99 mt  499  103 L
 524  412 mt  524  407 L
 524   99 mt  524  103 L
 548  412 mt  548  407 L
 548   99 mt  548  103 L
 572  412 mt  572  407 L
 572   99 mt  572  103 L
 596  412 mt  596  407 L
 596   99 mt  596  103 L
 620  412 mt  620  407 L
 620   99 mt  620  103 L
 645  412 mt  645  407 L
 645   99 mt  645  103 L
 669  412 mt  669  407 L
 669   99 mt  669  103 L
 693  412 mt  693  407 L
 693   99 mt  693  103 L
 717  412 mt  717  407 L
 717   99 mt  717  103 L
 742  412 mt  742  407 L
 742   99 mt  742  103 L
 282  412 mt  286  412 L
 742  412 mt  737  412 L
%%IncludeResource: font Helvetica
/Helvetica /ISOLatin1Encoding 19.4444 FMSR

 264  419 mt 
(0) s
 282  333 mt  286  333 L
 742  333 mt  737  333 L
 264  340 mt 
(3) s
 282  255 mt  286  255 L
 742  255 mt  737  255 L
 264  262 mt 
(6) s
 282  177 mt  286  177 L
 742  177 mt  737  177 L
 264  184 mt 
(9) s
 282   99 mt  286   99 L
 742   99 mt  737   99 L
 253  106 mt 
(12) s
 282  412 mt  742  412 L
 282   99 mt  742   99 L
 282  412 mt  282   99 L
 742  412 mt  742   99 L
gs 282 99 461 314 rc
3.88889 w
25 -1 24 9 24 14 24 29 25 -12 24 -13 24 -30 24 -7 
24 -3 25 -1 24 0 24 -3 24 -1 24 0 25 4 24 7 
24 29 24 40 24 -6 282 333 20 MP stroke
gr

3.88889 w
gs 262 307 500 121 rc
 278  329 mt  286  337 L
 286  329 mt  278  337 L
 302  323 mt  310  331 L
 310  323 mt  302  331 L
 326  363 mt  334  371 L
 334  363 mt  326  371 L
 350  392 mt  358  400 L
 358  392 mt  350  400 L
 374  399 mt  382  407 L
 382  399 mt  374  407 L
 399  403 mt  407  411 L
 407  403 mt  399  411 L
 423  403 mt  431  411 L
 431  403 mt  423  411 L
 447  402 mt  455  410 L
 455  402 mt  447  410 L
 471  399 mt  479  407 L
 479  399 mt  471  407 L
 495  399 mt  503  407 L
 503  399 mt  495  407 L
 520  398 mt  528  406 L
 528  398 mt  520  406 L
 544  395 mt  552  403 L
 552  395 mt  544  403 L
 568  388 mt  576  396 L
 576  388 mt  568  396 L
 592  358 mt  600  366 L
 600  358 mt  592  366 L
 616  345 mt  624  353 L
 624  345 mt  616  353 L
 641  333 mt  649  341 L
 649  333 mt  641  341 L
 665  362 mt  673  370 L
 673  362 mt  665  370 L
 689  376 mt  697  384 L
 697  376 mt  689  384 L
 713  385 mt  721  393 L
 721  385 mt  713  393 L
 738  384 mt  746  392 L
 746  384 mt  738  392 L
gr

gs 282 99 461 314 rc
DD
25 1 24 -2 24 13 24 22 25 -4 24 -36 24 -30 24 -7 
24 -3 25 -1 24 0 24 -3 24 -1 24 1 25 7 24 14 
24 36 24 38 24 -7 282 318 20 MP stroke
gr

DD
gs 262 291 500 137 rc
SO
 278  314 mt  286  322 L
 286  314 mt  278  322 L
 302  307 mt  310  315 L
 310  307 mt  302  315 L
 326  345 mt  334  353 L
 334  345 mt  326  353 L
 350  381 mt  358  389 L
 358  381 mt  350  389 L
 374  395 mt  382  403 L
 382  395 mt  374  403 L
 399  402 mt  407  410 L
 407  402 mt  399  410 L
 423  403 mt  431  411 L
 431  403 mt  423  411 L
 447  402 mt  455  410 L
 455  402 mt  447  410 L
 471  399 mt  479  407 L
 479  399 mt  471  407 L
 495  399 mt  503  407 L
 503  399 mt  495  407 L
 520  398 mt  528  406 L
 528  398 mt  520  406 L
 544  395 mt  552  403 L
 552  395 mt  544  403 L
 568  388 mt  576  396 L
 576  388 mt  568  396 L
 592  358 mt  600  366 L
 600  358 mt  592  366 L
 616  322 mt  624  330 L
 624  322 mt  616  330 L
 641  318 mt  649  326 L
 649  318 mt  641  326 L
 665  340 mt  673  348 L
 673  340 mt  665  348 L
 689  353 mt  697  361 L
 697  353 mt  689  361 L
 713  351 mt  721  359 L
 721  351 mt  713  359 L
 738  352 mt  746  360 L
 746  352 mt  738  360 L
DD
gr

gs 282 99 461 314 rc
SO
1.38889 w
1 sg
25 0 24 0 24 0 24 0 24 0 25 0 24 0 24 0 
24 0 24 -1 282 412 11 MP stroke
3.88889 w
0.5 sg
25 6 24 5 24 -2 24 12 25 -2 24 9 24 -29 24 -7 
24 -2 25 -1 24 -1 24 -2 24 -2 24 0 25 3 24 4 
24 10 24 -7 24 4 282 393 20 MP stroke
gr

0.5 sg
SO
gs 262 344 500 84 rc
 278  389 mt  286  397 L
 286  389 mt  278  397 L
 302  393 mt  310  401 L
 310  393 mt  302  401 L
 326  386 mt  334  394 L
 334  386 mt  326  394 L
 350  396 mt  358  404 L
 358  396 mt  350  404 L
 374  400 mt  382  408 L
 382  400 mt  374  408 L
 399  403 mt  407  411 L
 407  403 mt  399  411 L
 423  403 mt  431  411 L
 431  403 mt  423  411 L
 447  401 mt  455  409 L
 455  401 mt  447  409 L
 471  399 mt  479  407 L
 479  399 mt  471  407 L
 495  398 mt  503  406 L
 503  398 mt  495  406 L
 520  397 mt  528  405 L
 528  397 mt  520  405 L
 544  395 mt  552  403 L
 552  395 mt  544  403 L
 568  388 mt  576  396 L
 576  388 mt  568  396 L
 592  359 mt  600  367 L
 600  359 mt  592  367 L
 616  368 mt  624  376 L
 624  368 mt  616  376 L
 641  366 mt  649  374 L
 649  366 mt  641  374 L
 665  378 mt  673  386 L
 673  378 mt  665  386 L
 689  376 mt  697  384 L
 697  376 mt  689  384 L
 713  381 mt  721  389 L
 721  381 mt  713  389 L
 738  387 mt  746  395 L
 746  387 mt  738  395 L
gr

gs 282 99 461 314 rc
DD
25 2 24 -4 24 -6 24 24 25 -7 24 -18 24 -29 24 -7 
24 -2 25 -1 24 -1 24 -2 24 -2 24 0 25 7 24 12 
24 33 24 35 24 -11 282 331 20 MP stroke
gr

DD
gs 262 300 500 128 rc
SO
 278  327 mt  286  335 L
 286  327 mt  278  335 L
 302  316 mt  310  324 L
 310  316 mt  302  324 L
 326  351 mt  334  359 L
 334  351 mt  326  359 L
 350  384 mt  358  392 L
 358  384 mt  350  392 L
 374  396 mt  382  404 L
 382  396 mt  374  404 L
 399  403 mt  407  411 L
 407  403 mt  399  411 L
 423  403 mt  431  411 L
 431  403 mt  423  411 L
 447  401 mt  455  409 L
 455  401 mt  447  409 L
 471  399 mt  479  407 L
 479  399 mt  471  407 L
 495  398 mt  503  406 L
 503  398 mt  495  406 L
 520  397 mt  528  405 L
 528  397 mt  520  405 L
 544  395 mt  552  403 L
 552  395 mt  544  403 L
 568  388 mt  576  396 L
 576  388 mt  568  396 L
 592  359 mt  600  367 L
 600  359 mt  592  367 L
 616  341 mt  624  349 L
 624  341 mt  616  349 L
 641  334 mt  649  342 L
 649  334 mt  641  342 L
 665  358 mt  673  366 L
 673  358 mt  665  366 L
 689  352 mt  697  360 L
 697  352 mt  689  360 L
 713  348 mt  721  356 L
 721  348 mt  713  356 L
 738  350 mt  746  358 L
 746  350 mt  738  358 L
DD
gr

gs 282 99 461 314 rc
SO
1.38889 w
1 sg
25 0 24 0 24 0 24 0 24 0 25 0 24 0 24 0 
24 0 24 -1 282 412 11 MP stroke
gr

1.38889 w
1 sg
SO
0 sg
 235  306 mt  -90 rotate
(RMS TB \(K\)) s
90 rotate
 432   85 mt 
(a\) METOP on Land) s
 207  507 mt  -45 rotate
(AMSUA 23.8) s
45 rotate
 283  455 mt  -45 rotate
(31.4) s
45 rotate
 308  455 mt  -45 rotate
(50.3) s
45 rotate
 331  455 mt  -45 rotate
(52.8) s
45 rotate
 356  455 mt  -45 rotate
(53.6) s
45 rotate
 380  455 mt  -45 rotate
(54.4) s
45 rotate
 396  463 mt  -45 rotate
(54.94) s
45 rotate
 429  455 mt  -45 rotate
(55.5) s
45 rotate
 445  463 mt  -45 rotate
(57.29) s
45 rotate
 453  479 mt  -45 rotate
(+-0.217) s
45 rotate
 422  534 mt  -45 rotate
(+-0.322 +-0.048) s
45 rotate
 446  534 mt  -45 rotate
(+-0.322 +-0.022) s
45 rotate
 470  534 mt  -45 rotate
(+-0.322 +-0.010) s
45 rotate
 488  541 mt  -45 rotate
(+-0.322 +-0.0045) s
45 rotate
 598  455 mt  -45 rotate
(89.0) s
45 rotate
 587  490 mt  -45 rotate
(MHS 89.0) s
45 rotate
 650  452 mt  -45 rotate
(157) s
45 rotate
 627  498 mt  -45 rotate
(183.31 +-1) s
45 rotate
 652  498 mt  -45 rotate
(183.31 +-3) s
45 rotate
 712  463 mt  -45 rotate
(190.3) s
45 rotate
%%IncludeResource: font Helvetica
/Helvetica /ISOLatin1Encoding 27.7778 FMSR

 278  423 mt 
( ) s
 739  109 mt 
( ) s
1 sg
0 313 460 0 0 -313 282 981 4 MP
PP
-460 0 0 313 460 0 0 -313 282 981 5 MP stroke
0.925926 w
DO
SO
1.38889 w
0 sg
 282  981 mt  742  981 L
 282  668 mt  742  668 L
 282  981 mt  282  668 L
 742  981 mt  742  668 L
 282  981 mt  742  981 L
 282  981 mt  282  668 L
 282  981 mt  282  976 L
 282  668 mt  282  672 L
 306  981 mt  306  976 L
 306  668 mt  306  672 L
 330  981 mt  330  976 L
 330  668 mt  330  672 L
 354  981 mt  354  976 L
 354  668 mt  354  672 L
 378  981 mt  378  976 L
 378  668 mt  378  672 L
 403  981 mt  403  976 L
 403  668 mt  403  672 L
 427  981 mt  427  976 L
 427  668 mt  427  672 L
 451  981 mt  451  976 L
 451  668 mt  451  672 L
 475  981 mt  475  976 L
 475  668 mt  475  672 L
 499  981 mt  499  976 L
 499  668 mt  499  672 L
 524  981 mt  524  976 L
 524  668 mt  524  672 L
 548  981 mt  548  976 L
 548  668 mt  548  672 L
 572  981 mt  572  976 L
 572  668 mt  572  672 L
 596  981 mt  596  976 L
 596  668 mt  596  672 L
 620  981 mt  620  976 L
 620  668 mt  620  672 L
 645  981 mt  645  976 L
 645  668 mt  645  672 L
 669  981 mt  669  976 L
 669  668 mt  669  672 L
 693  981 mt  693  976 L
 693  668 mt  693  672 L
 717  981 mt  717  976 L
 717  668 mt  717  672 L
 742  981 mt  742  976 L
 742  668 mt  742  672 L
 282  981 mt  286  981 L
 742  981 mt  737  981 L
%%IncludeResource: font Helvetica
/Helvetica /ISOLatin1Encoding 19.4444 FMSR

 264  988 mt 
(0) s
 282  902 mt  286  902 L
 742  902 mt  737  902 L
 264  909 mt 
(3) s
 282  824 mt  286  824 L
 742  824 mt  737  824 L
 264  831 mt 
(6) s
 282  746 mt  286  746 L
 742  746 mt  737  746 L
 264  753 mt 
(9) s
 282  668 mt  286  668 L
 742  668 mt  737  668 L
 253  675 mt 
(12) s
 282  981 mt  742  981 L
 282  668 mt  742  668 L
 282  981 mt  282  668 L
 742  981 mt  742  668 L
gs 282 668 461 314 rc
3.88889 w
25 6 24 12 24 10 24 8 25 6 24 -14 24 -29 24 -6 
24 -3 25 -1 24 0 24 -3 24 -1 24 0 25 2 24 5 
24 14 24 2 24 26 282 927 20 MP stroke
gr

3.88889 w
gs 262 900 500 97 rc
 278  923 mt  286  931 L
 286  923 mt  278  931 L
 302  949 mt  310  957 L
 310  949 mt  302  957 L
 326  951 mt  334  959 L
 334  951 mt  326  959 L
 350  965 mt  358  973 L
 358  965 mt  350  973 L
 374  970 mt  382  978 L
 382  970 mt  374  978 L
 399  972 mt  407  980 L
 407  972 mt  399  980 L
 423  972 mt  431  980 L
 431  972 mt  423  980 L
 447  971 mt  455  979 L
 455  971 mt  447  979 L
 471  968 mt  479  976 L
 479  968 mt  471  976 L
 495  968 mt  503  976 L
 503  968 mt  495  976 L
 520  967 mt  528  975 L
 528  967 mt  520  975 L
 544  964 mt  552  972 L
 552  964 mt  544  972 L
 568  958 mt  576  966 L
 576  958 mt  568  966 L
 592  929 mt  600  937 L
 600  929 mt  592  937 L
 616  915 mt  624  923 L
 624  915 mt  616  923 L
 641  921 mt  649  929 L
 649  921 mt  641  929 L
 665  929 mt  673  937 L
 673  929 mt  665  937 L
 689  939 mt  697  947 L
 697  939 mt  689  947 L
 713  951 mt  721  959 L
 721  951 mt  713  959 L
 738  957 mt  746  965 L
 746  957 mt  738  965 L
gr

gs 282 668 461 314 rc
DD
25 7 24 2 24 37 24 21 25 -13 24 -49 24 -29 24 -6 
24 -3 25 -1 24 0 24 -3 24 -1 24 0 25 2 24 5 
24 23 24 14 24 44 282 888 20 MP stroke
gr

DD
gs 262 851 500 146 rc
SO
 278  884 mt  286  892 L
 286  884 mt  278  892 L
 302  928 mt  310  936 L
 310  928 mt  302  936 L
 326  942 mt  334  950 L
 334  942 mt  326  950 L
 350  965 mt  358  973 L
 358  965 mt  350  973 L
 374  970 mt  382  978 L
 382  970 mt  374  978 L
 399  972 mt  407  980 L
 407  972 mt  399  980 L
 423  972 mt  431  980 L
 431  972 mt  423  980 L
 447  971 mt  455  979 L
 455  971 mt  447  979 L
 471  968 mt  479  976 L
 479  968 mt  471  976 L
 495  968 mt  503  976 L
 503  968 mt  495  976 L
 520  967 mt  528  975 L
 528  967 mt  520  975 L
 544  964 mt  552  972 L
 552  964 mt  544  972 L
 568  958 mt  576  966 L
 576  958 mt  568  966 L
 592  929 mt  600  937 L
 600  929 mt  592  937 L
 616  880 mt  624  888 L
 624  880 mt  616  888 L
 641  867 mt  649  875 L
 649  867 mt  641  875 L
 665  888 mt  673  896 L
 673  888 mt  665  896 L
 689  925 mt  697  933 L
 697  925 mt  689  933 L
 713  927 mt  721  935 L
 721  927 mt  713  935 L
 738  934 mt  746  942 L
 746  934 mt  738  942 L
DD
gr

gs 282 668 461 314 rc
SO
1.38889 w
1 sg
25 0 24 0 24 0 24 0 24 0 25 0 24 0 24 0 
24 0 24 -1 282 981 11 MP stroke
3.88889 w
0.5 sg
25 9 24 7 24 -6 24 23 25 30 24 -32 24 -31 24 -7 
24 -2 25 -2 24 0 24 -3 24 -1 24 0 25 2 24 3 
24 20 24 3 24 9 282 939 20 MP stroke
gr

0.5 sg
SO
gs 262 878 500 119 rc
 278  935 mt  286  943 L
 286  935 mt  278  943 L
 302  944 mt  310  952 L
 310  944 mt  302  952 L
 326  947 mt  334  955 L
 334  947 mt  326  955 L
 350  967 mt  358  975 L
 358  967 mt  350  975 L
 374  970 mt  382  978 L
 382  970 mt  374  978 L
 399  972 mt  407  980 L
 407  972 mt  399  980 L
 423  972 mt  431  980 L
 431  972 mt  423  980 L
 447  971 mt  455  979 L
 455  971 mt  447  979 L
 471  968 mt  479  976 L
 479  968 mt  471  976 L
 495  968 mt  503  976 L
 503  968 mt  495  976 L
 520  966 mt  528  974 L
 528  966 mt  520  974 L
 544  964 mt  552  972 L
 552  964 mt  544  972 L
 568  957 mt  576  965 L
 576  957 mt  568  965 L
 592  926 mt  600  934 L
 600  926 mt  592  934 L
 616  894 mt  624  902 L
 624  894 mt  616  902 L
 641  924 mt  649  932 L
 649  924 mt  641  932 L
 665  947 mt  673  955 L
 673  947 mt  665  955 L
 689  941 mt  697  949 L
 697  941 mt  689  949 L
 713  948 mt  721  956 L
 721  948 mt  713  956 L
 738  957 mt  746  965 L
 746  957 mt  738  965 L
gr

gs 282 668 461 314 rc
DD
25 9 24 5 24 17 24 77 25 -18 24 -78 24 -31 24 -7 
24 -2 25 -2 24 0 24 -3 24 -1 24 0 25 2 24 5 
24 37 24 16 24 39 282 877 20 MP stroke
gr

DD
gs 262 814 500 183 rc
SO
 278  873 mt  286  881 L
 286  873 mt  278  881 L
 302  912 mt  310  920 L
 310  912 mt  302  920 L
 326  928 mt  334  936 L
 334  928 mt  326  936 L
 350  965 mt  358  973 L
 358  965 mt  350  973 L
 374  970 mt  382  978 L
 382  970 mt  374  978 L
 399  972 mt  407  980 L
 407  972 mt  399  980 L
 423  972 mt  431  980 L
 431  972 mt  423  980 L
 447  971 mt  455  979 L
 455  971 mt  447  979 L
 471  968 mt  479  976 L
 479  968 mt  471  976 L
 495  968 mt  503  976 L
 503  968 mt  495  976 L
 520  966 mt  528  974 L
 528  966 mt  520  974 L
 544  964 mt  552  972 L
 552  964 mt  544  972 L
 568  957 mt  576  965 L
 576  957 mt  568  965 L
 592  926 mt  600  934 L
 600  926 mt  592  934 L
 616  848 mt  624  856 L
 624  848 mt  616  856 L
 641  830 mt  649  838 L
 649  830 mt  641  838 L
 665  907 mt  673  915 L
 673  907 mt  665  915 L
 689  924 mt  697  932 L
 697  924 mt  689  932 L
 713  929 mt  721  937 L
 721  929 mt  713  937 L
 738  938 mt  746  946 L
 746  938 mt  738  946 L
DD
gr

gs 282 668 461 314 rc
SO
1.38889 w
1 sg
25 0 24 0 24 0 24 0 24 0 25 0 24 0 24 0 
24 0 24 -1 282 981 11 MP stroke
gr

1.38889 w
1 sg
SO
0 sg
 235  875 mt  -90 rotate
(RMS TB \(K\)) s
90 rotate
 426  654 mt 
(c\) METOP on Ocean) s
 207 1076 mt  -45 rotate
(AMSUA 23.8) s
45 rotate
 283 1024 mt  -45 rotate
(31.4) s
45 rotate
 308 1024 mt  -45 rotate
(50.3) s
45 rotate
 331 1024 mt  -45 rotate
(52.8) s
45 rotate
 356 1024 mt  -45 rotate
(53.6) s
45 rotate
 380 1024 mt  -45 rotate
(54.4) s
45 rotate
 396 1032 mt  -45 rotate
(54.94) s
45 rotate
 429 1024 mt  -45 rotate
(55.5) s
45 rotate
 445 1032 mt  -45 rotate
(57.29) s
45 rotate
 453 1048 mt  -45 rotate
(+-0.217) s
45 rotate
 422 1103 mt  -45 rotate
(+-0.322 +-0.048) s
45 rotate
 446 1103 mt  -45 rotate
(+-0.322 +-0.022) s
45 rotate
 470 1103 mt  -45 rotate
(+-0.322 +-0.010) s
45 rotate
 488 1110 mt  -45 rotate
(+-0.322 +-0.0045) s
45 rotate
 598 1024 mt  -45 rotate
(89.0) s
45 rotate
 587 1059 mt  -45 rotate
(MHS 89.0) s
45 rotate
 650 1021 mt  -45 rotate
(157) s
45 rotate
 627 1067 mt  -45 rotate
(183.31 +-1) s
45 rotate
 652 1067 mt  -45 rotate
(183.31 +-3) s
45 rotate
 712 1032 mt  -45 rotate
(190.3) s
45 rotate
%%IncludeResource: font Helvetica
/Helvetica /ISOLatin1Encoding 27.7778 FMSR

 278  992 mt 
( ) s
 739  678 mt 
( ) s
1 sg
0 316 449 0 0 -316 998 415 4 MP
PP
-449 0 0 316 449 0 0 -316 998 415 5 MP stroke
0.925926 w
DO
SO
1.38889 w
0 sg
 998  415 mt 1447  415 L
 998   99 mt 1447   99 L
 998  415 mt  998   99 L
1447  415 mt 1447   99 L
 998  415 mt 1447  415 L
 998  415 mt  998   99 L
 998  415 mt  998  410 L
 998   99 mt  998  103 L
1027  415 mt 1027  410 L
1027   99 mt 1027  103 L
1057  415 mt 1057  410 L
1057   99 mt 1057  103 L
1087  415 mt 1087  410 L
1087   99 mt 1087  103 L
1117  415 mt 1117  410 L
1117   99 mt 1117  103 L
1147  415 mt 1147  410 L
1147   99 mt 1147  103 L
1177  415 mt 1177  410 L
1177   99 mt 1177  103 L
1207  415 mt 1207  410 L
1207   99 mt 1207  103 L
1237  415 mt 1237  410 L
1237   99 mt 1237  103 L
1267  415 mt 1267  410 L
1267   99 mt 1267  103 L
1297  415 mt 1297  410 L
1297   99 mt 1297  103 L
1327  415 mt 1327  410 L
1327   99 mt 1327  103 L
1357  415 mt 1357  410 L
1357   99 mt 1357  103 L
1387  415 mt 1387  410 L
1387   99 mt 1387  103 L
1417  415 mt 1417  410 L
1417   99 mt 1417  103 L
1447  415 mt 1447  410 L
1447   99 mt 1447  103 L
 998  415 mt 1002  415 L
1447  415 mt 1442  415 L
%%IncludeResource: font Helvetica
/Helvetica /ISOLatin1Encoding 19.4444 FMSR

 980  422 mt 
(0) s
 998  336 mt 1002  336 L
1447  336 mt 1442  336 L
 980  343 mt 
(3) s
 998  257 mt 1002  257 L
1447  257 mt 1442  257 L
 980  264 mt 
(6) s
 998  178 mt 1002  178 L
1447  178 mt 1442  178 L
 980  185 mt 
(9) s
 998   99 mt 1002   99 L
1447   99 mt 1442   99 L
 969  106 mt 
(12) s
 998  415 mt 1447  415 L
 998   99 mt 1447   99 L
 998  415 mt  998   99 L
1447  415 mt 1447   99 L
gs 998 99 450 317 rc
3.88889 w
30 1 30 4 30 26 30 6 30 -13 30 6 30 -6 30 4 
30 -7 30 16 30 -3 30 8 30 -17 30 11 29 -13 998 365 16 MP stroke
gr

3.88889 w
gs 978 326 489 83 rc
 994  361 mt 1002  369 L
1002  361 mt  994  369 L
1023  348 mt 1031  356 L
1031  348 mt 1023  356 L
1053  359 mt 1061  367 L
1061  359 mt 1053  367 L
1083  342 mt 1091  350 L
1091  342 mt 1083  350 L
1113  350 mt 1121  358 L
1121  350 mt 1113  358 L
1143  347 mt 1151  355 L
1151  347 mt 1143  355 L
1173  363 mt 1181  371 L
1181  363 mt 1173  371 L
1203  356 mt 1211  364 L
1211  356 mt 1203  364 L
1233  360 mt 1241  368 L
1241  360 mt 1233  368 L
1263  354 mt 1271  362 L
1271  354 mt 1263  362 L
1293  360 mt 1301  368 L
1301  360 mt 1293  368 L
1323  347 mt 1331  355 L
1331  347 mt 1323  355 L
1353  353 mt 1361  361 L
1361  353 mt 1353  361 L
1383  379 mt 1391  387 L
1391  379 mt 1383  387 L
1413  383 mt 1421  391 L
1421  383 mt 1413  391 L
1443  384 mt 1451  392 L
1451  384 mt 1443  392 L
gr

gs 998 99 450 317 rc
DD
30 2 30 -8 30 18 30 2 30 -10 30 15 30 -5 30 8 
30 -10 30 17 30 -2 30 8 30 -12 30 13 29 -9 998 332 16 MP stroke
gr

DD
gs 978 303 489 83 rc
SO
 994  328 mt 1002  336 L
1002  328 mt  994  336 L
1023  319 mt 1031  327 L
1031  319 mt 1023  327 L
1053  332 mt 1061  340 L
1061  332 mt 1053  340 L
1083  320 mt 1091  328 L
1091  320 mt 1083  328 L
1113  328 mt 1121  336 L
1121  328 mt 1113  336 L
1143  326 mt 1151  334 L
1151  326 mt 1143  334 L
1173  343 mt 1181  351 L
1181  343 mt 1173  351 L
1203  333 mt 1211  341 L
1211  333 mt 1203  341 L
1233  341 mt 1241  349 L
1241  341 mt 1233  349 L
1263  336 mt 1271  344 L
1271  336 mt 1263  344 L
1293  351 mt 1301  359 L
1301  351 mt 1293  359 L
1323  341 mt 1331  349 L
1331  341 mt 1323  349 L
1353  343 mt 1361  351 L
1361  343 mt 1353  351 L
1383  361 mt 1391  369 L
1391  361 mt 1383  369 L
1413  353 mt 1421  361 L
1421  353 mt 1413  361 L
1443  355 mt 1451  363 L
1451  355 mt 1443  363 L
DD
gr

gs 998 99 450 317 rc
SO
1.38889 w
1 sg
30 0 30 0 30 0 30 0 30 0 30 0 30 0 30 0 
30 0 29 -1 998 415 11 MP stroke
3.88889 w
0.5 sg
30 5 30 10 30 0 30 -5 30 -4 30 -9 30 0 30 9 
30 -4 30 1 30 1 30 -2 30 -1 30 -8 29 0 998 400 16 MP stroke
gr

0.5 sg
SO
gs 978 358 489 63 rc
 994  396 mt 1002  404 L
1002  396 mt  994  404 L
1023  396 mt 1031  404 L
1031  396 mt 1023  404 L
1053  388 mt 1061  396 L
1061  388 mt 1053  396 L
1083  387 mt 1091  395 L
1091  387 mt 1083  395 L
1113  385 mt 1121  393 L
1121  385 mt 1113  393 L
1143  386 mt 1151  394 L
1151  386 mt 1143  394 L
1173  387 mt 1181  395 L
1181  387 mt 1173  395 L
1203  383 mt 1211  391 L
1211  383 mt 1203  391 L
1233  392 mt 1241  400 L
1241  392 mt 1233  400 L
1263  392 mt 1271  400 L
1271  392 mt 1263  400 L
1293  383 mt 1301  391 L
1301  383 mt 1293  391 L
1323  379 mt 1331  387 L
1331  379 mt 1323  387 L
1353  374 mt 1361  382 L
1361  374 mt 1353  382 L
1383  374 mt 1391  382 L
1391  374 mt 1383  382 L
1413  384 mt 1421  392 L
1421  384 mt 1413  392 L
1443  389 mt 1451  397 L
1451  389 mt 1443  397 L
gr

gs 998 99 450 317 rc
DD
30 0 30 -6 30 3 30 10 30 -11 30 19 30 -8 30 3 
30 -10 30 23 30 -14 30 22 30 -14 30 16 29 -16 998 341 16 MP stroke
gr

DD
gs 978 305 489 80 rc
SO
 994  337 mt 1002  345 L
1002  337 mt  994  345 L
1023  321 mt 1031  329 L
1031  321 mt 1023  329 L
1053  337 mt 1061  345 L
1061  337 mt 1053  345 L
1083  323 mt 1091  331 L
1091  323 mt 1083  331 L
1113  345 mt 1121  353 L
1121  345 mt 1113  353 L
1143  331 mt 1151  339 L
1151  331 mt 1143  339 L
1173  354 mt 1181  362 L
1181  354 mt 1173  362 L
1203  344 mt 1211  352 L
1211  344 mt 1203  352 L
1233  347 mt 1241  355 L
1241  347 mt 1233  355 L
1263  339 mt 1271  347 L
1271  339 mt 1263  347 L
1293  358 mt 1301  366 L
1301  358 mt 1293  366 L
1323  347 mt 1331  355 L
1331  347 mt 1323  355 L
1353  357 mt 1361  365 L
1361  357 mt 1353  365 L
1383  360 mt 1391  368 L
1391  360 mt 1383  368 L
1413  354 mt 1421  362 L
1421  354 mt 1413  362 L
1443  354 mt 1451  362 L
1451  354 mt 1443  362 L
DD
gr

gs 998 99 450 317 rc
SO
1.38889 w
1 sg
30 0 30 0 30 0 30 0 30 0 30 0 30 0 30 0 
30 0 29 -1 998 415 11 MP stroke
gr

1.38889 w
1 sg
SO
0 sg
 951  308 mt  -90 rotate
(RMS TB \(K\)) s
90 rotate
1150   85 mt 
(b\) AQUA on Land) s
 898  536 mt  -45 rotate
(AMSR-E 6.925V) s
45 rotate
 987  476 mt  -45 rotate
(6.925H) s
45 rotate
1018  475 mt  -45 rotate
(10.65V) s
45 rotate
1047  476 mt  -45 rotate
(10.65H) s
45 rotate
1085  467 mt  -45 rotate
(18.7V) s
45 rotate
1115  468 mt  -45 rotate
(18.7H) s
45 rotate
1146  467 mt  -45 rotate
(23.8V) s
45 rotate
1175  468 mt  -45 rotate
(23.8H) s
45 rotate
1205  467 mt  -45 rotate
(36.5V) s
45 rotate
1234  468 mt  -45 rotate
(36.5H) s
45 rotate
1266  467 mt  -45 rotate
(89.0V) s
45 rotate
1295  468 mt  -45 rotate
(89.0H) s
45 rotate
1306  486 mt  -45 rotate
(HSB 150) s
45 rotate
1317  505 mt  -45 rotate
(183.31 +/-1) s
45 rotate
1347  505 mt  -45 rotate
(183.31 +/-3) s
45 rotate
1378  505 mt  -45 rotate
(183.31 +/-7) s
45 rotate
%%IncludeResource: font Helvetica
/Helvetica /ISOLatin1Encoding 27.7778 FMSR

 994  426 mt 
( ) s
1444  109 mt 
( ) s
1 sg
0 316 449 0 0 -316 998 984 4 MP
PP
-449 0 0 316 449 0 0 -316 998 984 5 MP stroke
0.925926 w
DO
SO
1.38889 w
0 sg
 998  984 mt 1447  984 L
 998  668 mt 1447  668 L
 998  984 mt  998  668 L
1447  984 mt 1447  668 L
 998  984 mt 1447  984 L
 998  984 mt  998  668 L
 998  984 mt  998  979 L
 998  668 mt  998  672 L
1027  984 mt 1027  979 L
1027  668 mt 1027  672 L
1057  984 mt 1057  979 L
1057  668 mt 1057  672 L
1087  984 mt 1087  979 L
1087  668 mt 1087  672 L
1117  984 mt 1117  979 L
1117  668 mt 1117  672 L
1147  984 mt 1147  979 L
1147  668 mt 1147  672 L
1177  984 mt 1177  979 L
1177  668 mt 1177  672 L
1207  984 mt 1207  979 L
1207  668 mt 1207  672 L
1237  984 mt 1237  979 L
1237  668 mt 1237  672 L
1267  984 mt 1267  979 L
1267  668 mt 1267  672 L
1297  984 mt 1297  979 L
1297  668 mt 1297  672 L
1327  984 mt 1327  979 L
1327  668 mt 1327  672 L
1357  984 mt 1357  979 L
1357  668 mt 1357  672 L
1387  984 mt 1387  979 L
1387  668 mt 1387  672 L
1417  984 mt 1417  979 L
1417  668 mt 1417  672 L
1447  984 mt 1447  979 L
1447  668 mt 1447  672 L
 998  984 mt 1002  984 L
1447  984 mt 1442  984 L
%%IncludeResource: font Helvetica
/Helvetica /ISOLatin1Encoding 19.4444 FMSR

 980  991 mt 
(0) s
 998  905 mt 1002  905 L
1447  905 mt 1442  905 L
 980  912 mt 
(3) s
 998  826 mt 1002  826 L
1447  826 mt 1442  826 L
 980  833 mt 
(6) s
 998  747 mt 1002  747 L
1447  747 mt 1442  747 L
 980  754 mt 
(9) s
 998  668 mt 1002  668 L
1447  668 mt 1442  668 L
 969  675 mt 
(12) s
 998  984 mt 1447  984 L
 998  668 mt 1447  668 L
 998  984 mt  998  668 L
1447  984 mt 1447  668 L
gs 998 668 450 317 rc
3.88889 w
30 3 30 17 30 12 30 8 30 -31 30 -4 30 -13 30 41 
30 -23 30 -6 30 -10 30 -9 30 4 30 -6 29 7 998 969 16 MP stroke
gr

3.88889 w
gs 978 899 489 98 rc
 994  965 mt 1002  973 L
1002  965 mt  994  973 L
1023  972 mt 1031  980 L
1031  972 mt 1023  980 L
1053  966 mt 1061  974 L
1061  966 mt 1053  974 L
1083  970 mt 1091  978 L
1091  970 mt 1083  978 L
1113  961 mt 1121  969 L
1121  961 mt 1113  969 L
1143  951 mt 1151  959 L
1151  951 mt 1143  959 L
1173  945 mt 1181  953 L
1181  945 mt 1173  953 L
1203  922 mt 1211  930 L
1211  922 mt 1203  930 L
1233  963 mt 1241  971 L
1241  963 mt 1233  971 L
1263  950 mt 1271  958 L
1271  950 mt 1263  958 L
1293  946 mt 1301  954 L
1301  946 mt 1293  954 L
1323  915 mt 1331  923 L
1331  915 mt 1323  923 L
1353  923 mt 1361  931 L
1361  923 mt 1353  931 L
1383  935 mt 1391  943 L
1391  935 mt 1383  943 L
1413  952 mt 1421  960 L
1421  952 mt 1413  960 L
1443  955 mt 1451  963 L
1451  955 mt 1443  963 L
gr

gs 998 668 450 317 rc
DD
30 8 30 -2 30 48 30 58 30 -94 30 13 30 -42 30 122 
30 -75 30 -5 30 -38 30 -18 30 -7 30 4 29 -4 998 969 16 MP stroke
gr

DD
gs 978 805 489 185 rc
SO
 994  965 mt 1002  973 L
1002  965 mt  994  973 L
1023  961 mt 1031  969 L
1031  961 mt 1023  969 L
1053  965 mt 1061  973 L
1061  965 mt 1053  973 L
1083  958 mt 1091  966 L
1091  958 mt 1083  966 L
1113  940 mt 1121  948 L
1121  940 mt 1113  948 L
1143  902 mt 1151  910 L
1151  902 mt 1143  910 L
1173  897 mt 1181  905 L
1181  897 mt 1173  905 L
1203  822 mt 1211  830 L
1211  822 mt 1203  830 L
1233  944 mt 1241  952 L
1241  944 mt 1233  952 L
1263  902 mt 1271  910 L
1271  902 mt 1263  910 L
1293  915 mt 1301  923 L
1301  915 mt 1293  923 L
1323  821 mt 1331  829 L
1331  821 mt 1323  829 L
1353  879 mt 1361  887 L
1361  879 mt 1353  887 L
1383  927 mt 1391  935 L
1391  927 mt 1383  935 L
1413  925 mt 1421  933 L
1421  925 mt 1413  933 L
1443  933 mt 1451  941 L
1451  933 mt 1443  941 L
DD
gr

gs 998 668 450 317 rc
SO
1.38889 w
1 sg
30 0 30 0 30 0 30 0 30 0 30 0 30 0 30 0 
30 0 29 -1 998 984 11 MP stroke
3.88889 w
0.5 sg
30 5 30 9 30 13 30 48 30 -55 30 9 30 -24 30 29 
30 -20 30 -2 30 -13 30 -9 30 2 30 -6 29 6 998 969 16 MP stroke
gr

0.5 sg
SO
gs 978 866 489 130 rc
 994  965 mt 1002  973 L
1002  965 mt  994  973 L
1023  971 mt 1031  979 L
1031  971 mt 1023  979 L
1053  965 mt 1061  973 L
1061  965 mt 1053  973 L
1083  967 mt 1091  975 L
1091  967 mt 1083  975 L
1113  958 mt 1121  966 L
1121  958 mt 1113  966 L
1143  945 mt 1151  953 L
1151  945 mt 1143  953 L
1173  943 mt 1181  951 L
1181  943 mt 1173  951 L
1203  923 mt 1211  931 L
1211  923 mt 1203  931 L
1233  952 mt 1241  960 L
1241  952 mt 1233  960 L
1263  928 mt 1271  936 L
1271  928 mt 1263  936 L
1293  937 mt 1301  945 L
1301  937 mt 1293  945 L
1323  882 mt 1331  890 L
1331  882 mt 1323  890 L
1353  930 mt 1361  938 L
1361  930 mt 1353  938 L
1383  943 mt 1391  951 L
1391  943 mt 1383  951 L
1413  952 mt 1421  960 L
1421  952 mt 1413  960 L
1443  957 mt 1451  965 L
1451  957 mt 1443  965 L
gr

gs 998 668 450 317 rc
DD
30 13 30 0 30 29 30 125 30 -129 30 50 30 -69 30 104 
30 -77 30 8 30 -47 30 -23 30 -11 30 3 29 -4 998 968 16 MP stroke
gr

DD
gs 978 753 489 236 rc
SO
 994  964 mt 1002  972 L
1002  964 mt  994  972 L
1023  960 mt 1031  968 L
1031  960 mt 1023  968 L
1053  963 mt 1061  971 L
1061  963 mt 1053  971 L
1083  952 mt 1091  960 L
1091  952 mt 1083  960 L
1113  929 mt 1121  937 L
1121  929 mt 1113  937 L
1143  882 mt 1151  890 L
1151  882 mt 1143  890 L
1173  890 mt 1181  898 L
1181  890 mt 1173  898 L
1203  813 mt 1211  821 L
1211  813 mt 1203  821 L
1233  917 mt 1241  925 L
1241  917 mt 1233  925 L
1263  848 mt 1271  856 L
1271  848 mt 1263  856 L
1293  898 mt 1301  906 L
1301  898 mt 1293  906 L
1323  769 mt 1331  777 L
1331  769 mt 1323  777 L
1353  894 mt 1361  902 L
1361  894 mt 1353  902 L
1383  923 mt 1391  931 L
1391  923 mt 1383  931 L
1413  923 mt 1421  931 L
1421  923 mt 1413  931 L
1443  936 mt 1451  944 L
1451  936 mt 1443  944 L
DD
gr

gs 998 668 450 317 rc
SO
1.38889 w
1 sg
30 0 30 0 30 0 30 0 30 0 30 0 30 0 30 0 
30 0 29 -1 998 984 11 MP stroke
gr

1.38889 w
1 sg
SO
0 sg
 951  877 mt  -90 rotate
(RMS TB \(K\)) s
90 rotate
1143  654 mt 
(d\) AQUA on Ocean) s
 898 1105 mt  -45 rotate
(AMSR-E 6.925V) s
45 rotate
 987 1045 mt  -45 rotate
(6.925H) s
45 rotate
1018 1044 mt  -45 rotate
(10.65V) s
45 rotate
1047 1045 mt  -45 rotate
(10.65H) s
45 rotate
1085 1036 mt  -45 rotate
(18.7V) s
45 rotate
1115 1037 mt  -45 rotate
(18.7H) s
45 rotate
1146 1036 mt  -45 rotate
(23.8V) s
45 rotate
1175 1037 mt  -45 rotate
(23.8H) s
45 rotate
1205 1036 mt  -45 rotate
(36.5V) s
45 rotate
1234 1037 mt  -45 rotate
(36.5H) s
45 rotate
1266 1036 mt  -45 rotate
(89.0V) s
45 rotate
1295 1037 mt  -45 rotate
(89.0H) s
45 rotate
1306 1055 mt  -45 rotate
(HSB 150) s
45 rotate
1317 1074 mt  -45 rotate
(183.31 +/-1) s
45 rotate
1347 1074 mt  -45 rotate
(183.31 +/-3) s
45 rotate
1378 1074 mt  -45 rotate
(183.31 +/-7) s
45 rotate
%%IncludeResource: font Helvetica
/Helvetica /ISOLatin1Encoding 27.7778 FMSR

 994  995 mt 
( ) s
1444  678 mt 
( ) s
1 sg
0 117 432 0 0 -117 1006 792 4 MP
PP
-432 0 0 117 432 0 0 -117 1006 792 5 MP stroke
0.925926 w
DO
SO
1.38889 w
0 sg
1006  792 mt 1438  792 L
1006  675 mt 1438  675 L
1006  792 mt 1006  675 L
1438  792 mt 1438  675 L
1006  792 mt 1438  792 L
1006  792 mt 1006  675 L
1006  792 mt 1438  792 L
1006  675 mt 1438  675 L
1006  792 mt 1006  675 L
1438  792 mt 1438  675 L
%%IncludeResource: font Helvetica
/Helvetica /ISOLatin1Encoding 16.6667 FMSR

1101  696 mt 
(RT\(RET\) - CAL\(OBS\) clear) s
gs 1006 675 433 118 rc
3.88889 w
73 0 1020 689 2 MP stroke
gr

3.88889 w
gs 1037 669 40 41 rc
1053  685 mt 1061  693 L
1061  685 mt 1053  693 L
gr

gs 1006 675 433 118 rc
gr

1101  718 mt 
(RT\(ANA\) - CAL\(OBS\) clear \(6449 points\)) s
gs 1006 675 433 118 rc
DD
73 0 1020 711 2 MP stroke
SO
gs 1037 691 40 41 rc
1053  707 mt 1061  715 L
1061  707 mt 1053  715 L
gr

1.38889 w
1 sg
73 0 1020 733 2 MP stroke
gr

1.38889 w
1 sg
0 sg
1101  762 mt 
(RT\(RET\) - CAL\(OBS\) cloudy) s
gs 1006 675 433 118 rc
3.88889 w
0.5 sg
73 0 1020 755 2 MP stroke
gs 1037 735 40 41 rc
1053  751 mt 1061  759 L
1061  751 mt 1053  759 L
gr

gr

3.88889 w
0.5 sg
0 sg
1101  784 mt 
(RT\(ANA\) - CAL\(OBS\) cloudy \(30000 points\)) s
gs 1006 675 433 118 rc
DD
0.5 sg
73 0 1020 777 2 MP stroke
SO
gr

0.5 sg
gs 1037 757 40 41 rc
1053  773 mt 1061  781 L
1061  773 mt 1053  781 L
gr

gs 1006 675 433 118 rc
1.38889 w
gr

1.38889 w
1 sg
0 117 432 0 0 -117 1006 223 4 MP
PP
-432 0 0 117 432 0 0 -117 1006 223 5 MP stroke
0.925926 w
DO
SO
1.38889 w
0 sg
1006  223 mt 1438  223 L
1006  106 mt 1438  106 L
1006  223 mt 1006  106 L
1438  223 mt 1438  106 L
1006  223 mt 1438  223 L
1006  223 mt 1006  106 L
1006  223 mt 1438  223 L
1006  106 mt 1438  106 L
1006  223 mt 1006  106 L
1438  223 mt 1438  106 L
1101  127 mt 
(RT\(RET\) - CAL\(OBS\) clear) s
gs 1006 106 433 118 rc
3.88889 w
73 0 1020 120 2 MP stroke
gr

3.88889 w
gs 1037 100 40 41 rc
1053  116 mt 1061  124 L
1061  116 mt 1053  124 L
gr

gs 1006 106 433 118 rc
gr

1101  149 mt 
(RT\(ANA\) - CAL\(OBS\) clear \(6689 points\)) s
gs 1006 106 433 118 rc
DD
73 0 1020 142 2 MP stroke
SO
gs 1037 122 40 41 rc
1053  138 mt 1061  146 L
1061  138 mt 1053  146 L
gr

1.38889 w
1 sg
73 0 1020 164 2 MP stroke
gr

1.38889 w
1 sg
0 sg
1101  193 mt 
(RT\(RET\) - CAL\(OBS\) cloudy) s
gs 1006 106 433 118 rc
3.88889 w
0.5 sg
73 0 1020 186 2 MP stroke
gs 1037 166 40 41 rc
1053  182 mt 1061  190 L
1061  182 mt 1053  190 L
gr

gr

3.88889 w
0.5 sg
0 sg
1101  215 mt 
(RT\(ANA\) - CAL\(OBS\) cloudy \(11610 points\)) s
gs 1006 106 433 118 rc
DD
0.5 sg
73 0 1020 208 2 MP stroke
SO
gr

0.5 sg
gs 1037 188 40 41 rc
1053  204 mt 1061  212 L
1061  204 mt 1053  212 L
gr

gs 1006 106 433 118 rc
1.38889 w
gr

1.38889 w
1 sg
0 116 432 0 0 -116 301 791 4 MP
PP
-432 0 0 116 432 0 0 -116 301 791 5 MP stroke
0.925926 w
DO
SO
1.38889 w
0 sg
 301  791 mt  733  791 L
 301  675 mt  733  675 L
 301  791 mt  301  675 L
 733  791 mt  733  675 L
 301  791 mt  733  791 L
 301  791 mt  301  675 L
 301  791 mt  733  791 L
 301  675 mt  733  675 L
 301  791 mt  301  675 L
 733  791 mt  733  675 L
 396  696 mt 
(RT\(RET\) - CAL\(OBS\) clear) s
gs 301 675 433 117 rc
3.88889 w
73 0 315 689 2 MP stroke
gr

3.88889 w
gs 332 669 40 41 rc
 348  685 mt  356  693 L
 356  685 mt  348  693 L
gr

gs 301 675 433 117 rc
gr

 396  718 mt 
(RT\(ANA\) - CAL\(OBS\) clear \(10656 points\)) s
gs 301 675 433 117 rc
DD
73 0 315 711 2 MP stroke
SO
gs 332 691 40 40 rc
 348  707 mt  356  715 L
 356  707 mt  348  715 L
gr

1.38889 w
1 sg
73 0 315 733 2 MP stroke
gr

1.38889 w
1 sg
0 sg
 396  761 mt 
(RT\(RET\) - CAL\(OBS\) cloudy) s
gs 301 675 433 117 rc
3.88889 w
0.5 sg
73 0 315 754 2 MP stroke
gs 332 735 40 40 rc
 348  750 mt  356  758 L
 356  750 mt  348  758 L
gr

gr

3.88889 w
0.5 sg
0 sg
 396  783 mt 
(RT\(ANA\) - CAL\(OBS\) cloudy \(18703 points\)) s
gs 301 675 433 117 rc
DD
0.5 sg
73 0 315 776 2 MP stroke
SO
gr

0.5 sg
gs 332 756 40 41 rc
 348  772 mt  356  780 L
 356  772 mt  348  780 L
gr

gs 301 675 433 117 rc
1.38889 w
gr

1.38889 w
1 sg
0 117 423 0 0 -117 310 223 4 MP
PP
-423 0 0 117 423 0 0 -117 310 223 5 MP stroke
0.925926 w
DO
SO
1.38889 w
0 sg
 310  223 mt  733  223 L
 310  106 mt  733  106 L
 310  223 mt  310  106 L
 733  223 mt  733  106 L
 310  223 mt  733  223 L
 310  223 mt  310  106 L
 310  223 mt  733  223 L
 310  106 mt  733  106 L
 310  223 mt  310  106 L
 733  223 mt  733  106 L
 405  127 mt 
(RT\(RET\) - CAL\(OBS\) clear) s
gs 310 106 424 118 rc
3.88889 w
73 0 324 120 2 MP stroke
gr

3.88889 w
gs 341 100 41 41 rc
 357  116 mt  365  124 L
 365  116 mt  357  124 L
gr

gs 310 106 424 118 rc
gr

 405  149 mt 
(RT\(ANA\) - CAL\(OBS\) clear \(5658 points\)) s
gs 310 106 424 118 rc
DD
73 0 324 142 2 MP stroke
SO
gs 341 122 41 41 rc
 357  138 mt  365  146 L
 365  138 mt  357  146 L
gr

1.38889 w
1 sg
73 0 324 164 2 MP stroke
gr

1.38889 w
1 sg
0 sg
 405  193 mt 
(RT\(RET\) - CAL\(OBS\) cloudy) s
gs 310 106 424 118 rc
3.88889 w
0.5 sg
73 0 324 186 2 MP stroke
gs 341 166 41 41 rc
 357  182 mt  365  190 L
 365  182 mt  357  190 L
gr

gr

3.88889 w
0.5 sg
0 sg
 405  215 mt 
(RT\(ANA\) - CAL\(OBS\) cloudy \(4420 points\)) s
gs 310 106 424 118 rc
DD
0.5 sg
73 0 324 208 2 MP stroke
SO
gr

0.5 sg
gs 341 188 41 41 rc
 357  204 mt  365  212 L
 365  204 mt  357  212 L
gr

gs 310 106 424 118 rc
1.38889 w
gr

1.38889 w

end %%Color Dict

eplot
%%EndObject

epage
end

showpage

%%Trailer
%%EOF
