%!PS-Adobe-3.0 EPSF-3.0
%%Creator: MATLAB, The Mathworks, Inc.
%%Title: ./mt_7b.eps
%%CreationDate: 05/25/2013  06:37:46
%%DocumentNeededFonts: Helvetica
%%DocumentProcessColors: Cyan Magenta Yellow Black
%%LanguageLevel: 2
%%Pages: 1
%%BoundingBox:    85   208   548   594
%%EndComments

%%BeginProlog
% MathWorks dictionary
/MathWorks 160 dict begin
% definition operators
/bdef {bind def} bind def
/ldef {load def} bind def
/xdef {exch def} bdef
/xstore {exch store} bdef
% operator abbreviations
/c  /clip ldef
/cc /concat ldef
/cp /closepath ldef
/gr /grestore ldef
/gs /gsave ldef
/mt /moveto ldef
/np /newpath ldef
/cm /currentmatrix ldef
/sm /setmatrix ldef
/rm /rmoveto ldef
/rl /rlineto ldef
/s {show newpath} bdef
/sc {setcmykcolor} bdef
/sr /setrgbcolor ldef
/sg /setgray ldef
/w /setlinewidth ldef
/j /setlinejoin ldef
/cap /setlinecap ldef
/rc {rectclip} bdef
/rf {rectfill} bdef
% page state control
/pgsv () def
/bpage {/pgsv save def} bdef
/epage {pgsv restore} bdef
/bplot /gsave ldef
/eplot {stroke grestore} bdef
% orientation switch
/portraitMode 0 def /landscapeMode 1 def /rotateMode 2 def
% coordinate system mappings
/dpi2point 0 def
% font control
/FontSize 0 def
/FMS {/FontSize xstore findfont [FontSize 0 0 FontSize neg 0 0]
  makefont setfont} bdef
/reencode {exch dup where {pop load} {pop StandardEncoding} ifelse
  exch dup 3 1 roll findfont dup length dict begin
  { 1 index /FID ne {def}{pop pop} ifelse } forall
  /Encoding exch def currentdict end definefont pop} bdef
/isroman {findfont /CharStrings get /Agrave known} bdef
/FMSR {3 1 roll 1 index dup isroman {reencode} {pop pop} ifelse
  exch FMS} bdef
/csm {1 dpi2point div -1 dpi2point div scale neg translate
 dup landscapeMode eq {pop -90 rotate}
  {rotateMode eq {90 rotate} if} ifelse} bdef
% line types: solid, dotted, dashed, dotdash
/SO { [] 0 setdash } bdef
/DO { [.5 dpi2point mul 4 dpi2point mul] 0 setdash } bdef
/DA { [6 dpi2point mul] 0 setdash } bdef
/DD { [.5 dpi2point mul 4 dpi2point mul 6 dpi2point mul 4
  dpi2point mul] 0 setdash } bdef
% macros for lines and objects
/L {lineto stroke} bdef
/MP {3 1 roll moveto 1 sub {rlineto} repeat} bdef
/AP {{rlineto} repeat} bdef
/PDlw -1 def
/W {/PDlw currentlinewidth def setlinewidth} def
/PP {closepath eofill} bdef
/DP {closepath stroke} bdef
/MR {4 -2 roll moveto dup  0 exch rlineto exch 0 rlineto
  neg 0 exch rlineto closepath} bdef
/FR {MR stroke} bdef
/PR {MR fill} bdef
/L1i {{currentfile picstr readhexstring pop} image} bdef
/tMatrix matrix def
/MakeOval {newpath tMatrix currentmatrix pop translate scale
0 0 1 0 360 arc tMatrix setmatrix} bdef
/FO {MakeOval stroke} bdef
/PO {MakeOval fill} bdef
/PD {currentlinewidth 2 div 0 360 arc fill
   PDlw -1 eq not {PDlw w /PDlw -1 def} if} def
/FA {newpath tMatrix currentmatrix pop translate scale
  0 0 1 5 -2 roll arc tMatrix setmatrix stroke} bdef
/PA {newpath tMatrix currentmatrix pop	translate 0 0 moveto scale
  0 0 1 5 -2 roll arc closepath tMatrix setmatrix fill} bdef
/FAn {newpath tMatrix currentmatrix pop translate scale
  0 0 1 5 -2 roll arcn tMatrix setmatrix stroke} bdef
/PAn {newpath tMatrix currentmatrix pop translate 0 0 moveto scale
  0 0 1 5 -2 roll arcn closepath tMatrix setmatrix fill} bdef
/vradius 0 def /hradius 0 def /lry 0 def
/lrx 0 def /uly 0 def /ulx 0 def /rad 0 def
/MRR {/vradius xdef /hradius xdef /lry xdef /lrx xdef /uly xdef
  /ulx xdef newpath tMatrix currentmatrix pop ulx hradius add uly
  vradius add translate hradius vradius scale 0 0 1 180 270 arc 
  tMatrix setmatrix lrx hradius sub uly vradius add translate
  hradius vradius scale 0 0 1 270 360 arc tMatrix setmatrix
  lrx hradius sub lry vradius sub translate hradius vradius scale
  0 0 1 0 90 arc tMatrix setmatrix ulx hradius add lry vradius sub
  translate hradius vradius scale 0 0 1 90 180 arc tMatrix setmatrix
  closepath} bdef
/FRR {MRR stroke } bdef
/PRR {MRR fill } bdef
/MlrRR {/lry xdef /lrx xdef /uly xdef /ulx xdef /rad lry uly sub 2 div def
  newpath tMatrix currentmatrix pop ulx rad add uly rad add translate
  rad rad scale 0 0 1 90 270 arc tMatrix setmatrix lrx rad sub lry rad
  sub translate rad rad scale 0 0 1 270 90 arc tMatrix setmatrix
  closepath} bdef
/FlrRR {MlrRR stroke } bdef
/PlrRR {MlrRR fill } bdef
/MtbRR {/lry xdef /lrx xdef /uly xdef /ulx xdef /rad lrx ulx sub 2 div def
  newpath tMatrix currentmatrix pop ulx rad add uly rad add translate
  rad rad scale 0 0 1 180 360 arc tMatrix setmatrix lrx rad sub lry rad
  sub translate rad rad scale 0 0 1 0 180 arc tMatrix setmatrix
  closepath} bdef
/FtbRR {MtbRR stroke } bdef
/PtbRR {MtbRR fill } bdef
/stri 6 array def /dtri 6 array def
/smat 6 array def /dmat 6 array def
/tmat1 6 array def /tmat2 6 array def /dif 3 array def
/asub {/ind2 exch def /ind1 exch def dup dup
  ind1 get exch ind2 get sub exch } bdef
/tri_to_matrix {
  2 0 asub 3 1 asub 4 0 asub 5 1 asub
  dup 0 get exch 1 get 7 -1 roll astore } bdef
/compute_transform {
  dmat dtri tri_to_matrix tmat1 invertmatrix 
  smat stri tri_to_matrix tmat2 concatmatrix } bdef
/ds {stri astore pop} bdef
/dt {dtri astore pop} bdef
/db {2 copy /cols xdef /rows xdef mul dup 3 mul string
  currentfile 
  3 index 0 eq {/ASCIIHexDecode filter}
  {/ASCII85Decode filter 3 index 2 eq {/RunLengthDecode filter} if }
  ifelse exch readstring pop
  dup 0 3 index getinterval /rbmap xdef
  dup 2 index dup getinterval /gbmap xdef
  1 index dup 2 mul exch getinterval /bbmap xdef pop pop}bdef
/it {gs np dtri aload pop moveto lineto lineto cp c
  cols rows 8 compute_transform 
  rbmap gbmap bbmap true 3 colorimage gr}bdef
/il {newpath moveto lineto stroke}bdef
currentdict end def
%%EndProlog

%%BeginSetup
MathWorks begin

0 cap

end
%%EndSetup

%%Page: 1 1
%%BeginPageSetup
%%PageBoundingBox:    85   208   548   594
MathWorks begin
bpage
%%EndPageSetup

%%BeginObject: obj1
bplot

/dpi2point 2.77778 def
portraitMode 0050 1700 csm

  187    50  1286  1070 rc
126 dict begin %Colortable dictionary
/c0 { 0.000000 0.000000 0.000000 sr} bdef
/c1 { 1.000000 1.000000 1.000000 sr} bdef
/c2 { 0.900000 0.000000 0.000000 sr} bdef
/c3 { 0.000000 0.820000 0.000000 sr} bdef
/c4 { 0.000000 0.000000 0.800000 sr} bdef
/c5 { 0.910000 0.820000 0.320000 sr} bdef
/c6 { 1.000000 0.260000 0.820000 sr} bdef
/c7 { 0.000000 0.820000 0.820000 sr} bdef
c0
1 j
1 sg
   0    0 1601 1202 rf
1.38889 w
0 312 460 0 0 -312 282 411 4 MP
PP
-460 0 0 312 460 0 0 -312 282 411 5 MP stroke
0.925926 w
DO
SO
1.38889 w
0 sg
 282  411 mt  742  411 L
 282   99 mt  742   99 L
 282  411 mt  282   99 L
 742  411 mt  742   99 L
 282  411 mt  742  411 L
 282  411 mt  282   99 L
 282  411 mt  282  406 L
 282   99 mt  282  103 L
 306  411 mt  306  406 L
 306   99 mt  306  103 L
 330  411 mt  330  406 L
 330   99 mt  330  103 L
 354  411 mt  354  406 L
 354   99 mt  354  103 L
 378  411 mt  378  406 L
 378   99 mt  378  103 L
 403  411 mt  403  406 L
 403   99 mt  403  103 L
 427  411 mt  427  406 L
 427   99 mt  427  103 L
 451  411 mt  451  406 L
 451   99 mt  451  103 L
 475  411 mt  475  406 L
 475   99 mt  475  103 L
 499  411 mt  499  406 L
 499   99 mt  499  103 L
 524  411 mt  524  406 L
 524   99 mt  524  103 L
 548  411 mt  548  406 L
 548   99 mt  548  103 L
 572  411 mt  572  406 L
 572   99 mt  572  103 L
 596  411 mt  596  406 L
 596   99 mt  596  103 L
 620  411 mt  620  406 L
 620   99 mt  620  103 L
 645  411 mt  645  406 L
 645   99 mt  645  103 L
 669  411 mt  669  406 L
 669   99 mt  669  103 L
 693  411 mt  693  406 L
 693   99 mt  693  103 L
 717  411 mt  717  406 L
 717   99 mt  717  103 L
 742  411 mt  742  406 L
 742   99 mt  742  103 L
 282  411 mt  286  411 L
 742  411 mt  737  411 L
%%IncludeResource: font Helvetica
/Helvetica /ISOLatin1Encoding 19.4444 FMSR

 264  418 mt 
(0) s
 282  333 mt  286  333 L
 742  333 mt  737  333 L
 264  340 mt 
(3) s
 282  255 mt  286  255 L
 742  255 mt  737  255 L
 264  262 mt 
(6) s
 282  177 mt  286  177 L
 742  177 mt  737  177 L
 264  184 mt 
(9) s
 282   99 mt  286   99 L
 742   99 mt  737   99 L
 253  106 mt 
(12) s
 282  411 mt  742  411 L
 282   99 mt  742   99 L
 282  411 mt  282   99 L
 742  411 mt  742   99 L
gs 282 99 461 313 rc
3.88889 w
25 -1 24 8 24 15 24 29 25 -12 24 -13 24 -30 24 -7 
24 -3 25 -1 24 0 24 -3 24 -1 24 0 25 4 24 7 
24 29 24 40 24 -6 282 332 20 MP stroke
gr

3.88889 w
gs 262 306 500 121 rc
 278  328 mt  286  336 L
 286  328 mt  278  336 L
 302  322 mt  310  330 L
 310  322 mt  302  330 L
 326  362 mt  334  370 L
 334  362 mt  326  370 L
 350  391 mt  358  399 L
 358  391 mt  350  399 L
 374  398 mt  382  406 L
 382  398 mt  374  406 L
 399  402 mt  407  410 L
 407  402 mt  399  410 L
 423  402 mt  431  410 L
 431  402 mt  423  410 L
 447  401 mt  455  409 L
 455  401 mt  447  409 L
 471  398 mt  479  406 L
 479  398 mt  471  406 L
 495  398 mt  503  406 L
 503  398 mt  495  406 L
 520  397 mt  528  405 L
 528  397 mt  520  405 L
 544  394 mt  552  402 L
 552  394 mt  544  402 L
 568  387 mt  576  395 L
 576  387 mt  568  395 L
 592  357 mt  600  365 L
 600  357 mt  592  365 L
 616  344 mt  624  352 L
 624  344 mt  616  352 L
 641  332 mt  649  340 L
 649  332 mt  641  340 L
 665  361 mt  673  369 L
 673  361 mt  665  369 L
 689  376 mt  697  384 L
 697  376 mt  689  384 L
 713  384 mt  721  392 L
 721  384 mt  713  392 L
 738  383 mt  746  391 L
 746  383 mt  738  391 L
gr

gs 282 99 461 313 rc
DD
25 1 24 -2 24 13 24 22 25 -4 24 -36 24 -30 24 -7 
24 -3 25 -1 24 0 24 -3 24 -1 24 1 25 7 24 14 
24 36 24 38 24 -8 282 318 20 MP stroke
gr

DD
gs 262 290 500 137 rc
SO
 278  314 mt  286  322 L
 286  314 mt  278  322 L
 302  306 mt  310  314 L
 310  306 mt  302  314 L
 326  344 mt  334  352 L
 334  344 mt  326  352 L
 350  380 mt  358  388 L
 358  380 mt  350  388 L
 374  394 mt  382  402 L
 382  394 mt  374  402 L
 399  401 mt  407  409 L
 407  401 mt  399  409 L
 423  402 mt  431  410 L
 431  402 mt  423  410 L
 447  401 mt  455  409 L
 455  401 mt  447  409 L
 471  398 mt  479  406 L
 479  398 mt  471  406 L
 495  398 mt  503  406 L
 503  398 mt  495  406 L
 520  397 mt  528  405 L
 528  397 mt  520  405 L
 544  394 mt  552  402 L
 552  394 mt  544  402 L
 568  387 mt  576  395 L
 576  387 mt  568  395 L
 592  357 mt  600  365 L
 600  357 mt  592  365 L
 616  321 mt  624  329 L
 624  321 mt  616  329 L
 641  317 mt  649  325 L
 649  317 mt  641  325 L
 665  339 mt  673  347 L
 673  339 mt  665  347 L
 689  352 mt  697  360 L
 697  352 mt  689  360 L
 713  350 mt  721  358 L
 721  350 mt  713  358 L
 738  351 mt  746  359 L
 746  351 mt  738  359 L
DD
gr

gs 282 99 461 313 rc
SO
1.38889 w
1 sg
25 0 24 0 24 0 24 0 24 0 25 0 24 0 24 0 
24 0 24 -1 282 411 11 MP stroke
3.88889 w
0.5 sg
25 6 24 5 24 -2 24 12 25 -2 24 9 24 -29 24 -7 
24 -2 25 -1 24 -1 24 -2 24 -2 24 0 25 3 24 4 
24 10 24 -7 24 4 282 392 20 MP stroke
gr

0.5 sg
SO
gs 262 343 500 84 rc
 278  388 mt  286  396 L
 286  388 mt  278  396 L
 302  392 mt  310  400 L
 310  392 mt  302  400 L
 326  385 mt  334  393 L
 334  385 mt  326  393 L
 350  395 mt  358  403 L
 358  395 mt  350  403 L
 374  399 mt  382  407 L
 382  399 mt  374  407 L
 399  402 mt  407  410 L
 407  402 mt  399  410 L
 423  402 mt  431  410 L
 431  402 mt  423  410 L
 447  400 mt  455  408 L
 455  400 mt  447  408 L
 471  398 mt  479  406 L
 479  398 mt  471  406 L
 495  397 mt  503  405 L
 503  397 mt  495  405 L
 520  396 mt  528  404 L
 528  396 mt  520  404 L
 544  394 mt  552  402 L
 552  394 mt  544  402 L
 568  387 mt  576  395 L
 576  387 mt  568  395 L
 592  358 mt  600  366 L
 600  358 mt  592  366 L
 616  367 mt  624  375 L
 624  367 mt  616  375 L
 641  365 mt  649  373 L
 649  365 mt  641  373 L
 665  377 mt  673  385 L
 673  377 mt  665  385 L
 689  375 mt  697  383 L
 697  375 mt  689  383 L
 713  380 mt  721  388 L
 721  380 mt  713  388 L
 738  386 mt  746  394 L
 746  386 mt  738  394 L
gr

gs 282 99 461 313 rc
DD
25 2 24 -3 24 -6 24 23 25 -6 24 -18 24 -29 24 -7 
24 -2 25 -1 24 -1 24 -2 24 -2 24 0 25 7 24 12 
24 33 24 35 24 -11 282 330 20 MP stroke
gr

DD
gs 262 300 500 127 rc
SO
 278  326 mt  286  334 L
 286  326 mt  278  334 L
 302  315 mt  310  323 L
 310  315 mt  302  323 L
 326  350 mt  334  358 L
 334  350 mt  326  358 L
 350  383 mt  358  391 L
 358  383 mt  350  391 L
 374  395 mt  382  403 L
 382  395 mt  374  403 L
 399  402 mt  407  410 L
 407  402 mt  399  410 L
 423  402 mt  431  410 L
 431  402 mt  423  410 L
 447  400 mt  455  408 L
 455  400 mt  447  408 L
 471  398 mt  479  406 L
 479  398 mt  471  406 L
 495  397 mt  503  405 L
 503  397 mt  495  405 L
 520  396 mt  528  404 L
 528  396 mt  520  404 L
 544  394 mt  552  402 L
 552  394 mt  544  402 L
 568  387 mt  576  395 L
 576  387 mt  568  395 L
 592  358 mt  600  366 L
 600  358 mt  592  366 L
 616  340 mt  624  348 L
 624  340 mt  616  348 L
 641  334 mt  649  342 L
 649  334 mt  641  342 L
 665  357 mt  673  365 L
 673  357 mt  665  365 L
 689  351 mt  697  359 L
 697  351 mt  689  359 L
 713  348 mt  721  356 L
 721  348 mt  713  356 L
 738  350 mt  746  358 L
 746  350 mt  738  358 L
DD
gr

gs 282 99 461 313 rc
SO
1.38889 w
1 sg
25 0 24 0 24 0 24 0 24 0 25 0 24 0 24 0 
24 0 24 -1 282 411 11 MP stroke
gr

1.38889 w
1 sg
SO
0 sg
 235  306 mt  -90 rotate
(RMS TB \(K\)) s
90 rotate
 432   85 mt 
(a\) METOP on Land) s
 207  506 mt  -45 rotate
(AMSUA 23.8) s
45 rotate
 283  454 mt  -45 rotate
(31.4) s
45 rotate
 308  454 mt  -45 rotate
(50.3) s
45 rotate
 331  454 mt  -45 rotate
(52.8) s
45 rotate
 356  454 mt  -45 rotate
(53.6) s
45 rotate
 380  454 mt  -45 rotate
(54.4) s
45 rotate
 396  462 mt  -45 rotate
(54.94) s
45 rotate
 429  454 mt  -45 rotate
(55.5) s
45 rotate
 445  462 mt  -45 rotate
(57.29) s
45 rotate
 453  478 mt  -45 rotate
(+-0.217) s
45 rotate
 422  533 mt  -45 rotate
(+-0.322 +-0.048) s
45 rotate
 446  533 mt  -45 rotate
(+-0.322 +-0.022) s
45 rotate
 470  533 mt  -45 rotate
(+-0.322 +-0.010) s
45 rotate
 488  540 mt  -45 rotate
(+-0.322 +-0.0045) s
45 rotate
 598  454 mt  -45 rotate
(89.0) s
45 rotate
 587  489 mt  -45 rotate
(MHS 89.0) s
45 rotate
 650  451 mt  -45 rotate
(157) s
45 rotate
 627  497 mt  -45 rotate
(183.31 +-1) s
45 rotate
 652  497 mt  -45 rotate
(183.31 +-3) s
45 rotate
 712  462 mt  -45 rotate
(190.3) s
45 rotate
%%IncludeResource: font Helvetica
/Helvetica /ISOLatin1Encoding 27.7778 FMSR

 278  422 mt 
( ) s
 739  109 mt 
( ) s
1 sg
0 312 460 0 0 -312 282 980 4 MP
PP
-460 0 0 312 460 0 0 -312 282 980 5 MP stroke
0.925926 w
DO
SO
1.38889 w
0 sg
 282  980 mt  742  980 L
 282  668 mt  742  668 L
 282  980 mt  282  668 L
 742  980 mt  742  668 L
 282  980 mt  742  980 L
 282  980 mt  282  668 L
 282  980 mt  282  975 L
 282  668 mt  282  672 L
 306  980 mt  306  975 L
 306  668 mt  306  672 L
 330  980 mt  330  975 L
 330  668 mt  330  672 L
 354  980 mt  354  975 L
 354  668 mt  354  672 L
 378  980 mt  378  975 L
 378  668 mt  378  672 L
 403  980 mt  403  975 L
 403  668 mt  403  672 L
 427  980 mt  427  975 L
 427  668 mt  427  672 L
 451  980 mt  451  975 L
 451  668 mt  451  672 L
 475  980 mt  475  975 L
 475  668 mt  475  672 L
 499  980 mt  499  975 L
 499  668 mt  499  672 L
 524  980 mt  524  975 L
 524  668 mt  524  672 L
 548  980 mt  548  975 L
 548  668 mt  548  672 L
 572  980 mt  572  975 L
 572  668 mt  572  672 L
 596  980 mt  596  975 L
 596  668 mt  596  672 L
 620  980 mt  620  975 L
 620  668 mt  620  672 L
 645  980 mt  645  975 L
 645  668 mt  645  672 L
 669  980 mt  669  975 L
 669  668 mt  669  672 L
 693  980 mt  693  975 L
 693  668 mt  693  672 L
 717  980 mt  717  975 L
 717  668 mt  717  672 L
 742  980 mt  742  975 L
 742  668 mt  742  672 L
 282  980 mt  286  980 L
 742  980 mt  737  980 L
%%IncludeResource: font Helvetica
/Helvetica /ISOLatin1Encoding 19.4444 FMSR

 264  987 mt 
(0) s
 282  902 mt  286  902 L
 742  902 mt  737  902 L
 264  909 mt 
(3) s
 282  824 mt  286  824 L
 742  824 mt  737  824 L
 264  831 mt 
(6) s
 282  746 mt  286  746 L
 742  746 mt  737  746 L
 264  753 mt 
(9) s
 282  668 mt  286  668 L
 742  668 mt  737  668 L
 253  675 mt 
(12) s
 282  980 mt  742  980 L
 282  668 mt  742  668 L
 282  980 mt  282  668 L
 742  980 mt  742  668 L
gs 282 668 461 313 rc
3.88889 w
25 6 24 11 24 10 24 9 25 5 24 -14 24 -28 24 -6 
24 -3 25 -1 24 0 24 -3 24 -1 24 0 25 2 24 5 
24 14 24 2 24 26 282 926 20 MP stroke
gr

3.88889 w
gs 262 899 500 97 rc
 278  922 mt  286  930 L
 286  922 mt  278  930 L
 302  948 mt  310  956 L
 310  948 mt  302  956 L
 326  950 mt  334  958 L
 334  950 mt  326  958 L
 350  964 mt  358  972 L
 358  964 mt  350  972 L
 374  969 mt  382  977 L
 382  969 mt  374  977 L
 399  971 mt  407  979 L
 407  971 mt  399  979 L
 423  971 mt  431  979 L
 431  971 mt  423  979 L
 447  970 mt  455  978 L
 455  970 mt  447  978 L
 471  967 mt  479  975 L
 479  967 mt  471  975 L
 495  967 mt  503  975 L
 503  967 mt  495  975 L
 520  966 mt  528  974 L
 528  966 mt  520  974 L
 544  963 mt  552  971 L
 552  963 mt  544  971 L
 568  957 mt  576  965 L
 576  957 mt  568  965 L
 592  929 mt  600  937 L
 600  929 mt  592  937 L
 616  915 mt  624  923 L
 624  915 mt  616  923 L
 641  920 mt  649  928 L
 649  920 mt  641  928 L
 665  929 mt  673  937 L
 673  929 mt  665  937 L
 689  939 mt  697  947 L
 697  939 mt  689  947 L
 713  950 mt  721  958 L
 721  950 mt  713  958 L
 738  956 mt  746  964 L
 746  956 mt  738  964 L
gr

gs 282 668 461 313 rc
DD
25 7 24 1 24 38 24 20 25 -13 24 -49 24 -28 24 -6 
24 -3 25 -1 24 0 24 -3 24 -1 24 0 25 2 24 5 
24 22 24 15 24 44 282 887 20 MP stroke
gr

DD
gs 262 851 500 145 rc
SO
 278  883 mt  286  891 L
 286  883 mt  278  891 L
 302  927 mt  310  935 L
 310  927 mt  302  935 L
 326  942 mt  334  950 L
 334  942 mt  326  950 L
 350  964 mt  358  972 L
 358  964 mt  350  972 L
 374  969 mt  382  977 L
 382  969 mt  374  977 L
 399  971 mt  407  979 L
 407  971 mt  399  979 L
 423  971 mt  431  979 L
 431  971 mt  423  979 L
 447  970 mt  455  978 L
 455  970 mt  447  978 L
 471  967 mt  479  975 L
 479  967 mt  471  975 L
 495  967 mt  503  975 L
 503  967 mt  495  975 L
 520  966 mt  528  974 L
 528  966 mt  520  974 L
 544  963 mt  552  971 L
 552  963 mt  544  971 L
 568  957 mt  576  965 L
 576  957 mt  568  965 L
 592  929 mt  600  937 L
 600  929 mt  592  937 L
 616  880 mt  624  888 L
 624  880 mt  616  888 L
 641  867 mt  649  875 L
 649  867 mt  641  875 L
 665  887 mt  673  895 L
 673  887 mt  665  895 L
 689  925 mt  697  933 L
 697  925 mt  689  933 L
 713  926 mt  721  934 L
 721  926 mt  713  934 L
 738  933 mt  746  941 L
 746  933 mt  738  941 L
DD
gr

gs 282 668 461 313 rc
SO
1.38889 w
1 sg
25 0 24 0 24 0 24 0 24 0 25 0 24 0 24 0 
24 0 24 -1 282 980 11 MP stroke
3.88889 w
0.5 sg
25 10 24 6 24 -5 24 22 25 30 24 -31 24 -31 24 -7 
24 -2 25 -2 24 0 24 -3 24 -1 24 0 25 2 24 3 
24 20 24 3 24 9 282 938 20 MP stroke
gr

0.5 sg
SO
gs 262 878 500 118 rc
 278  934 mt  286  942 L
 286  934 mt  278  942 L
 302  943 mt  310  951 L
 310  943 mt  302  951 L
 326  946 mt  334  954 L
 334  946 mt  326  954 L
 350  966 mt  358  974 L
 358  966 mt  350  974 L
 374  969 mt  382  977 L
 382  969 mt  374  977 L
 399  971 mt  407  979 L
 407  971 mt  399  979 L
 423  971 mt  431  979 L
 431  971 mt  423  979 L
 447  970 mt  455  978 L
 455  970 mt  447  978 L
 471  967 mt  479  975 L
 479  967 mt  471  975 L
 495  967 mt  503  975 L
 503  967 mt  495  975 L
 520  965 mt  528  973 L
 528  965 mt  520  973 L
 544  963 mt  552  971 L
 552  963 mt  544  971 L
 568  956 mt  576  964 L
 576  956 mt  568  964 L
 592  925 mt  600  933 L
 600  925 mt  592  933 L
 616  894 mt  624  902 L
 624  894 mt  616  902 L
 641  924 mt  649  932 L
 649  924 mt  641  932 L
 665  946 mt  673  954 L
 673  946 mt  665  954 L
 689  941 mt  697  949 L
 697  941 mt  689  949 L
 713  947 mt  721  955 L
 721  947 mt  713  955 L
 738  957 mt  746  965 L
 746  957 mt  738  965 L
gr

gs 282 668 461 313 rc
DD
25 9 24 5 24 17 24 76 25 -17 24 -78 24 -31 24 -7 
24 -2 25 -2 24 0 24 -3 24 -1 24 0 25 2 24 5 
24 37 24 15 24 40 282 876 20 MP stroke
gr

DD
gs 262 814 500 182 rc
SO
 278  872 mt  286  880 L
 286  872 mt  278  880 L
 302  912 mt  310  920 L
 310  912 mt  302  920 L
 326  927 mt  334  935 L
 334  927 mt  326  935 L
 350  964 mt  358  972 L
 358  964 mt  350  972 L
 374  969 mt  382  977 L
 382  969 mt  374  977 L
 399  971 mt  407  979 L
 407  971 mt  399  979 L
 423  971 mt  431  979 L
 431  971 mt  423  979 L
 447  970 mt  455  978 L
 455  970 mt  447  978 L
 471  967 mt  479  975 L
 479  967 mt  471  975 L
 495  967 mt  503  975 L
 503  967 mt  495  975 L
 520  965 mt  528  973 L
 528  965 mt  520  973 L
 544  963 mt  552  971 L
 552  963 mt  544  971 L
 568  956 mt  576  964 L
 576  956 mt  568  964 L
 592  925 mt  600  933 L
 600  925 mt  592  933 L
 616  847 mt  624  855 L
 624  847 mt  616  855 L
 641  830 mt  649  838 L
 649  830 mt  641  838 L
 665  906 mt  673  914 L
 673  906 mt  665  914 L
 689  923 mt  697  931 L
 697  923 mt  689  931 L
 713  928 mt  721  936 L
 721  928 mt  713  936 L
 738  937 mt  746  945 L
 746  937 mt  738  945 L
DD
gr

gs 282 668 461 313 rc
SO
1.38889 w
1 sg
25 0 24 0 24 0 24 0 24 0 25 0 24 0 24 0 
24 0 24 -1 282 980 11 MP stroke
gr

1.38889 w
1 sg
SO
0 sg
 235  875 mt  -90 rotate
(RMS TB \(K\)) s
90 rotate
 426  654 mt 
(c\) METOP on Ocean) s
 207 1075 mt  -45 rotate
(AMSUA 23.8) s
45 rotate
 283 1023 mt  -45 rotate
(31.4) s
45 rotate
 308 1023 mt  -45 rotate
(50.3) s
45 rotate
 331 1023 mt  -45 rotate
(52.8) s
45 rotate
 356 1023 mt  -45 rotate
(53.6) s
45 rotate
 380 1023 mt  -45 rotate
(54.4) s
45 rotate
 396 1031 mt  -45 rotate
(54.94) s
45 rotate
 429 1023 mt  -45 rotate
(55.5) s
45 rotate
 445 1031 mt  -45 rotate
(57.29) s
45 rotate
 453 1047 mt  -45 rotate
(+-0.217) s
45 rotate
 422 1102 mt  -45 rotate
(+-0.322 +-0.048) s
45 rotate
 446 1102 mt  -45 rotate
(+-0.322 +-0.022) s
45 rotate
 470 1102 mt  -45 rotate
(+-0.322 +-0.010) s
45 rotate
 488 1109 mt  -45 rotate
(+-0.322 +-0.0045) s
45 rotate
 598 1023 mt  -45 rotate
(89.0) s
45 rotate
 587 1058 mt  -45 rotate
(MHS 89.0) s
45 rotate
 650 1020 mt  -45 rotate
(157) s
45 rotate
 627 1066 mt  -45 rotate
(183.31 +-1) s
45 rotate
 652 1066 mt  -45 rotate
(183.31 +-3) s
45 rotate
 712 1031 mt  -45 rotate
(190.3) s
45 rotate
%%IncludeResource: font Helvetica
/Helvetica /ISOLatin1Encoding 27.7778 FMSR

 278  991 mt 
( ) s
 739  678 mt 
( ) s
1 sg
0 315 449 0 0 -315 998 414 4 MP
PP
-449 0 0 315 449 0 0 -315 998 414 5 MP stroke
0.925926 w
DO
SO
1.38889 w
0 sg
 998  414 mt 1447  414 L
 998   99 mt 1447   99 L
 998  414 mt  998   99 L
1447  414 mt 1447   99 L
 998  414 mt 1447  414 L
 998  414 mt  998   99 L
 998  414 mt  998  409 L
 998   99 mt  998  103 L
1027  414 mt 1027  409 L
1027   99 mt 1027  103 L
1057  414 mt 1057  409 L
1057   99 mt 1057  103 L
1087  414 mt 1087  409 L
1087   99 mt 1087  103 L
1117  414 mt 1117  409 L
1117   99 mt 1117  103 L
1147  414 mt 1147  409 L
1147   99 mt 1147  103 L
1177  414 mt 1177  409 L
1177   99 mt 1177  103 L
1207  414 mt 1207  409 L
1207   99 mt 1207  103 L
1237  414 mt 1237  409 L
1237   99 mt 1237  103 L
1267  414 mt 1267  409 L
1267   99 mt 1267  103 L
1297  414 mt 1297  409 L
1297   99 mt 1297  103 L
1327  414 mt 1327  409 L
1327   99 mt 1327  103 L
1357  414 mt 1357  409 L
1357   99 mt 1357  103 L
1387  414 mt 1387  409 L
1387   99 mt 1387  103 L
1417  414 mt 1417  409 L
1417   99 mt 1417  103 L
1447  414 mt 1447  409 L
1447   99 mt 1447  103 L
 998  414 mt 1002  414 L
1447  414 mt 1442  414 L
%%IncludeResource: font Helvetica
/Helvetica /ISOLatin1Encoding 19.4444 FMSR

 980  421 mt 
(0) s
 998  335 mt 1002  335 L
1447  335 mt 1442  335 L
 980  342 mt 
(3) s
 998  256 mt 1002  256 L
1447  256 mt 1442  256 L
 980  263 mt 
(6) s
 998  177 mt 1002  177 L
1447  177 mt 1442  177 L
 980  184 mt 
(9) s
 998   99 mt 1002   99 L
1447   99 mt 1442   99 L
 969  106 mt 
(12) s
 998  414 mt 1447  414 L
 998   99 mt 1447   99 L
 998  414 mt  998   99 L
1447  414 mt 1447   99 L
gs 998 99 450 316 rc
3.88889 w
30 1 30 4 30 26 30 6 30 -14 30 7 30 -6 30 4 
30 -7 30 16 30 -3 30 8 30 -17 30 11 29 -13 998 364 16 MP stroke
gr

3.88889 w
gs 978 325 489 83 rc
 994  360 mt 1002  368 L
1002  360 mt  994  368 L
1023  347 mt 1031  355 L
1031  347 mt 1023  355 L
1053  358 mt 1061  366 L
1061  358 mt 1053  366 L
1083  341 mt 1091  349 L
1091  341 mt 1083  349 L
1113  349 mt 1121  357 L
1121  349 mt 1113  357 L
1143  346 mt 1151  354 L
1151  346 mt 1143  354 L
1173  362 mt 1181  370 L
1181  362 mt 1173  370 L
1203  355 mt 1211  363 L
1211  355 mt 1203  363 L
1233  359 mt 1241  367 L
1241  359 mt 1233  367 L
1263  353 mt 1271  361 L
1271  353 mt 1263  361 L
1293  360 mt 1301  368 L
1301  360 mt 1293  368 L
1323  346 mt 1331  354 L
1331  346 mt 1323  354 L
1353  352 mt 1361  360 L
1361  352 mt 1353  360 L
1383  378 mt 1391  386 L
1391  378 mt 1383  386 L
1413  382 mt 1421  390 L
1421  382 mt 1413  390 L
1443  383 mt 1451  391 L
1451  383 mt 1443  391 L
gr

gs 998 99 450 316 rc
DD
30 2 30 -8 30 18 30 2 30 -10 30 15 30 -5 30 7 
30 -9 30 17 30 -2 30 8 30 -12 30 13 29 -9 998 331 16 MP stroke
gr

DD
gs 978 302 489 83 rc
SO
 994  327 mt 1002  335 L
1002  327 mt  994  335 L
1023  318 mt 1031  326 L
1031  318 mt 1023  326 L
1053  331 mt 1061  339 L
1061  331 mt 1053  339 L
1083  319 mt 1091  327 L
1091  319 mt 1083  327 L
1113  327 mt 1121  335 L
1121  327 mt 1113  335 L
1143  325 mt 1151  333 L
1151  325 mt 1143  333 L
1173  342 mt 1181  350 L
1181  342 mt 1173  350 L
1203  333 mt 1211  341 L
1211  333 mt 1203  341 L
1233  340 mt 1241  348 L
1241  340 mt 1233  348 L
1263  335 mt 1271  343 L
1271  335 mt 1263  343 L
1293  350 mt 1301  358 L
1301  350 mt 1293  358 L
1323  340 mt 1331  348 L
1331  340 mt 1323  348 L
1353  342 mt 1361  350 L
1361  342 mt 1353  350 L
1383  360 mt 1391  368 L
1391  360 mt 1383  368 L
1413  352 mt 1421  360 L
1421  352 mt 1413  360 L
1443  354 mt 1451  362 L
1451  354 mt 1443  362 L
DD
gr

gs 998 99 450 316 rc
SO
1.38889 w
1 sg
30 0 30 0 30 0 30 0 30 0 30 0 30 0 30 0 
30 0 29 -1 998 414 11 MP stroke
30 0 30 0 30 0 30 0 30 0 30 0 30 0 30 0 
30 0 29 -1 998 414 11 MP stroke
gr

1.38889 w
1 sg
SO
0 sg
 951  307 mt  -90 rotate
(RMS TB \(K\)) s
90 rotate
1150   85 mt 
(b\) AQUA on Land) s
 898  535 mt  -45 rotate
(AMSR-E 6.925V) s
45 rotate
 987  475 mt  -45 rotate
(6.925H) s
45 rotate
1018  474 mt  -45 rotate
(10.65V) s
45 rotate
1047  475 mt  -45 rotate
(10.65H) s
45 rotate
1085  466 mt  -45 rotate
(18.7V) s
45 rotate
1115  467 mt  -45 rotate
(18.7H) s
45 rotate
1146  466 mt  -45 rotate
(23.8V) s
45 rotate
1175  467 mt  -45 rotate
(23.8H) s
45 rotate
1205  466 mt  -45 rotate
(36.5V) s
45 rotate
1234  467 mt  -45 rotate
(36.5H) s
45 rotate
1266  466 mt  -45 rotate
(89.0V) s
45 rotate
1295  467 mt  -45 rotate
(89.0H) s
45 rotate
1306  485 mt  -45 rotate
(HSB 150) s
45 rotate
1317  504 mt  -45 rotate
(183.31 +/-1) s
45 rotate
1347  504 mt  -45 rotate
(183.31 +/-3) s
45 rotate
1378  504 mt  -45 rotate
(183.31 +/-7) s
45 rotate
%%IncludeResource: font Helvetica
/Helvetica /ISOLatin1Encoding 27.7778 FMSR

 994  425 mt 
( ) s
1444  109 mt 
( ) s
1 sg
0 315 449 0 0 -315 998 983 4 MP
PP
-449 0 0 315 449 0 0 -315 998 983 5 MP stroke
0.925926 w
DO
SO
1.38889 w
0 sg
 998  983 mt 1447  983 L
 998  668 mt 1447  668 L
 998  983 mt  998  668 L
1447  983 mt 1447  668 L
 998  983 mt 1447  983 L
 998  983 mt  998  668 L
 998  983 mt  998  978 L
 998  668 mt  998  672 L
1027  983 mt 1027  978 L
1027  668 mt 1027  672 L
1057  983 mt 1057  978 L
1057  668 mt 1057  672 L
1087  983 mt 1087  978 L
1087  668 mt 1087  672 L
1117  983 mt 1117  978 L
1117  668 mt 1117  672 L
1147  983 mt 1147  978 L
1147  668 mt 1147  672 L
1177  983 mt 1177  978 L
1177  668 mt 1177  672 L
1207  983 mt 1207  978 L
1207  668 mt 1207  672 L
1237  983 mt 1237  978 L
1237  668 mt 1237  672 L
1267  983 mt 1267  978 L
1267  668 mt 1267  672 L
1297  983 mt 1297  978 L
1297  668 mt 1297  672 L
1327  983 mt 1327  978 L
1327  668 mt 1327  672 L
1357  983 mt 1357  978 L
1357  668 mt 1357  672 L
1387  983 mt 1387  978 L
1387  668 mt 1387  672 L
1417  983 mt 1417  978 L
1417  668 mt 1417  672 L
1447  983 mt 1447  978 L
1447  668 mt 1447  672 L
 998  983 mt 1002  983 L
1447  983 mt 1442  983 L
%%IncludeResource: font Helvetica
/Helvetica /ISOLatin1Encoding 19.4444 FMSR

 980  990 mt 
(0) s
 998  904 mt 1002  904 L
1447  904 mt 1442  904 L
 980  911 mt 
(3) s
 998  825 mt 1002  825 L
1447  825 mt 1442  825 L
 980  832 mt 
(6) s
 998  746 mt 1002  746 L
1447  746 mt 1442  746 L
 980  753 mt 
(9) s
 998  668 mt 1002  668 L
1447  668 mt 1442  668 L
 969  675 mt 
(12) s
 998  983 mt 1447  983 L
 998  668 mt 1447  668 L
 998  983 mt  998  668 L
1447  983 mt 1447  668 L
gs 998 668 450 316 rc
3.88889 w
30 3 30 17 30 12 30 8 30 -32 30 -3 30 -13 30 40 
30 -22 30 -6 30 -10 30 -9 30 4 30 -6 29 7 998 968 16 MP stroke
gr

3.88889 w
gs 978 898 489 98 rc
 994  964 mt 1002  972 L
1002  964 mt  994  972 L
1023  971 mt 1031  979 L
1031  971 mt 1023  979 L
1053  965 mt 1061  973 L
1061  965 mt 1053  973 L
1083  969 mt 1091  977 L
1091  969 mt 1083  977 L
1113  960 mt 1121  968 L
1121  960 mt 1113  968 L
1143  950 mt 1151  958 L
1151  950 mt 1143  958 L
1173  944 mt 1181  952 L
1181  944 mt 1173  952 L
1203  922 mt 1211  930 L
1211  922 mt 1203  930 L
1233  962 mt 1241  970 L
1241  962 mt 1233  970 L
1263  949 mt 1271  957 L
1271  949 mt 1263  957 L
1293  946 mt 1301  954 L
1301  946 mt 1293  954 L
1323  914 mt 1331  922 L
1331  914 mt 1323  922 L
1353  922 mt 1361  930 L
1361  922 mt 1353  930 L
1383  934 mt 1391  942 L
1391  934 mt 1383  942 L
1413  951 mt 1421  959 L
1421  951 mt 1413  959 L
1443  954 mt 1451  962 L
1451  954 mt 1443  962 L
gr

gs 998 668 450 316 rc
DD
30 9 30 -3 30 48 30 59 30 -95 30 13 30 -41 30 121 
30 -74 30 -5 30 -38 30 -18 30 -7 30 4 29 -4 998 968 16 MP stroke
gr

DD
gs 978 804 489 185 rc
SO
 994  964 mt 1002  972 L
1002  964 mt  994  972 L
1023  960 mt 1031  968 L
1031  960 mt 1023  968 L
1053  964 mt 1061  972 L
1061  964 mt 1053  972 L
1083  957 mt 1091  965 L
1091  957 mt 1083  965 L
1113  939 mt 1121  947 L
1121  939 mt 1113  947 L
1143  901 mt 1151  909 L
1151  901 mt 1143  909 L
1173  896 mt 1181  904 L
1181  896 mt 1173  904 L
1203  822 mt 1211  830 L
1211  822 mt 1203  830 L
1233  943 mt 1241  951 L
1241  943 mt 1233  951 L
1263  902 mt 1271  910 L
1271  902 mt 1263  910 L
1293  915 mt 1301  923 L
1301  915 mt 1293  923 L
1323  820 mt 1331  828 L
1331  820 mt 1323  828 L
1353  879 mt 1361  887 L
1361  879 mt 1353  887 L
1383  927 mt 1391  935 L
1391  927 mt 1383  935 L
1413  924 mt 1421  932 L
1421  924 mt 1413  932 L
1443  933 mt 1451  941 L
1451  933 mt 1443  941 L
DD
gr

gs 998 668 450 316 rc
SO
1.38889 w
1 sg
30 0 30 0 30 0 30 0 30 0 30 0 30 0 30 0 
30 0 29 -1 998 983 11 MP stroke
3.88889 w
0.5 sg
30 5 30 8 30 14 30 48 30 -55 30 9 30 -24 30 29 
30 -20 30 -2 30 -13 30 -9 30 1 30 -5 29 6 998 968 16 MP stroke
gr

0.5 sg
SO
gs 978 865 489 130 rc
 994  964 mt 1002  972 L
1002  964 mt  994  972 L
1023  970 mt 1031  978 L
1031  970 mt 1023  978 L
1053  965 mt 1061  973 L
1061  965 mt 1053  973 L
1083  966 mt 1091  974 L
1091  966 mt 1083  974 L
1113  957 mt 1121  965 L
1121  957 mt 1113  965 L
1143  944 mt 1151  952 L
1151  944 mt 1143  952 L
1173  942 mt 1181  950 L
1181  942 mt 1173  950 L
1203  922 mt 1211  930 L
1211  922 mt 1203  930 L
1233  951 mt 1241  959 L
1241  951 mt 1233  959 L
1263  927 mt 1271  935 L
1271  927 mt 1263  935 L
1293  936 mt 1301  944 L
1301  936 mt 1293  944 L
1323  881 mt 1331  889 L
1331  881 mt 1323  889 L
1353  929 mt 1361  937 L
1361  929 mt 1353  937 L
1383  943 mt 1391  951 L
1391  943 mt 1383  951 L
1413  951 mt 1421  959 L
1421  951 mt 1413  959 L
1443  956 mt 1451  964 L
1451  956 mt 1443  964 L
gr

gs 998 668 450 316 rc
DD
30 13 30 -1 30 30 30 125 30 -129 30 50 30 -69 30 103 
30 -77 30 9 30 -47 30 -23 30 -11 30 3 29 -4 998 967 16 MP stroke
gr

DD
gs 978 752 489 236 rc
SO
 994  963 mt 1002  971 L
1002  963 mt  994  971 L
1023  959 mt 1031  967 L
1031  959 mt 1023  967 L
1053  962 mt 1061  970 L
1061  962 mt 1053  970 L
1083  951 mt 1091  959 L
1091  951 mt 1083  959 L
1113  928 mt 1121  936 L
1121  928 mt 1113  936 L
1143  881 mt 1151  889 L
1151  881 mt 1143  889 L
1173  890 mt 1181  898 L
1181  890 mt 1173  898 L
1203  813 mt 1211  821 L
1211  813 mt 1203  821 L
1233  916 mt 1241  924 L
1241  916 mt 1233  924 L
1263  847 mt 1271  855 L
1271  847 mt 1263  855 L
1293  897 mt 1301  905 L
1301  897 mt 1293  905 L
1323  768 mt 1331  776 L
1331  768 mt 1323  776 L
1353  893 mt 1361  901 L
1361  893 mt 1353  901 L
1383  923 mt 1391  931 L
1391  923 mt 1383  931 L
1413  922 mt 1421  930 L
1421  922 mt 1413  930 L
1443  935 mt 1451  943 L
1451  935 mt 1443  943 L
DD
gr

gs 998 668 450 316 rc
SO
1.38889 w
1 sg
30 0 30 0 30 0 30 0 30 0 30 0 30 0 30 0 
30 0 29 -1 998 983 11 MP stroke
gr

1.38889 w
1 sg
SO
0 sg
 951  876 mt  -90 rotate
(RMS TB \(K\)) s
90 rotate
1143  654 mt 
(d\) AQUA on Ocean) s
 898 1104 mt  -45 rotate
(AMSR-E 6.925V) s
45 rotate
 987 1044 mt  -45 rotate
(6.925H) s
45 rotate
1018 1043 mt  -45 rotate
(10.65V) s
45 rotate
1047 1044 mt  -45 rotate
(10.65H) s
45 rotate
1085 1035 mt  -45 rotate
(18.7V) s
45 rotate
1115 1036 mt  -45 rotate
(18.7H) s
45 rotate
1146 1035 mt  -45 rotate
(23.8V) s
45 rotate
1175 1036 mt  -45 rotate
(23.8H) s
45 rotate
1205 1035 mt  -45 rotate
(36.5V) s
45 rotate
1234 1036 mt  -45 rotate
(36.5H) s
45 rotate
1266 1035 mt  -45 rotate
(89.0V) s
45 rotate
1295 1036 mt  -45 rotate
(89.0H) s
45 rotate
1306 1054 mt  -45 rotate
(HSB 150) s
45 rotate
1317 1073 mt  -45 rotate
(183.31 +/-1) s
45 rotate
1347 1073 mt  -45 rotate
(183.31 +/-3) s
45 rotate
1378 1073 mt  -45 rotate
(183.31 +/-7) s
45 rotate
%%IncludeResource: font Helvetica
/Helvetica /ISOLatin1Encoding 27.7778 FMSR

 994  994 mt 
( ) s
1444  678 mt 
( ) s
1 sg
0 116 433 0 0 -116 1005 791 4 MP
PP
-433 0 0 116 433 0 0 -116 1005 791 5 MP stroke
0.925926 w
DO
SO
1.38889 w
0 sg
1005  791 mt 1438  791 L
1005  675 mt 1438  675 L
1005  791 mt 1005  675 L
1438  791 mt 1438  675 L
1005  791 mt 1438  791 L
1005  791 mt 1005  675 L
1005  791 mt 1438  791 L
1005  675 mt 1438  675 L
1005  791 mt 1005  675 L
1438  791 mt 1438  675 L
%%IncludeResource: font Helvetica
/Helvetica /ISOLatin1Encoding 16.6667 FMSR

1101  696 mt 
(RT\(RET\) - CAL\(OBS\) clear) s
gs 1005 675 434 117 rc
3.88889 w
73 0 1019 689 2 MP stroke
gr

3.88889 w
gs 1036 669 41 41 rc
1052  685 mt 1060  693 L
1060  685 mt 1052  693 L
gr

gs 1005 675 434 117 rc
gr

1101  718 mt 
(RT\(ANA\) - CAL\(OBS\) clear \(6449 points\)) s
gs 1005 675 434 117 rc
DD
73 0 1019 711 2 MP stroke
SO
gs 1036 691 41 40 rc
1052  707 mt 1060  715 L
1060  707 mt 1052  715 L
gr

1.38889 w
1 sg
73 0 1019 733 2 MP stroke
gr

1.38889 w
1 sg
0 sg
1101  761 mt 
(RT\(RET\) - CAL\(OBS\) cloudy) s
gs 1005 675 434 117 rc
3.88889 w
0.5 sg
73 0 1019 754 2 MP stroke
gs 1036 735 41 40 rc
1052  750 mt 1060  758 L
1060  750 mt 1052  758 L
gr

gr

3.88889 w
0.5 sg
0 sg
1101  783 mt 
(RT\(ANA\) - CAL\(OBS\) cloudy \(30000 points\)) s
gs 1005 675 434 117 rc
DD
0.5 sg
73 0 1019 776 2 MP stroke
SO
gr

0.5 sg
gs 1036 756 41 41 rc
1052  772 mt 1060  780 L
1060  772 mt 1052  780 L
gr

gs 1005 675 434 117 rc
1.38889 w
gr

1.38889 w
1 sg
0 117 433 0 0 -117 1005 223 4 MP
PP
-433 0 0 117 433 0 0 -117 1005 223 5 MP stroke
0.925926 w
DO
SO
1.38889 w
0 sg
1005  223 mt 1438  223 L
1005  106 mt 1438  106 L
1005  223 mt 1005  106 L
1438  223 mt 1438  106 L
1005  223 mt 1438  223 L
1005  223 mt 1005  106 L
1005  223 mt 1438  223 L
1005  106 mt 1438  106 L
1005  223 mt 1005  106 L
1438  223 mt 1438  106 L
1101  127 mt 
(RT\(RET\) - CAL\(OBS\) clear) s
gs 1005 106 434 118 rc
3.88889 w
73 0 1019 120 2 MP stroke
gr

3.88889 w
gs 1036 100 41 41 rc
1052  116 mt 1060  124 L
1060  116 mt 1052  124 L
gr

gs 1005 106 434 118 rc
gr

1101  149 mt 
(RT\(ANA\) - CAL\(OBS\) clear \(6689 points\)) s
gs 1005 106 434 118 rc
DD
73 0 1019 142 2 MP stroke
SO
gs 1036 122 41 41 rc
1052  138 mt 1060  146 L
1060  138 mt 1052  146 L
gr

1.38889 w
1 sg
73 0 1019 164 2 MP stroke
gr

1.38889 w
1 sg
0 sg
1101  193 mt 
(RT\(RET\) - CAL\(OBS\) cloudy) s
gs 1005 106 434 118 rc
3.88889 w
0.5 sg
73 0 1019 186 2 MP stroke
gs 1036 166 41 41 rc
1052  182 mt 1060  190 L
1060  182 mt 1052  190 L
gr

gr

3.88889 w
0.5 sg
0 sg
1101  215 mt 
(RT\(ANA\) - CAL\(OBS\) cloudy \(11610 points\)) s
gs 1005 106 434 118 rc
DD
0.5 sg
73 0 1019 208 2 MP stroke
SO
gr

0.5 sg
gs 1036 188 41 41 rc
1052  204 mt 1060  212 L
1060  204 mt 1052  212 L
gr

gs 1005 106 434 118 rc
1.38889 w
gr

1.38889 w
1 sg
0 116 433 0 0 -116 300 791 4 MP
PP
-433 0 0 116 433 0 0 -116 300 791 5 MP stroke
0.925926 w
DO
SO
1.38889 w
0 sg
 300  791 mt  733  791 L
 300  675 mt  733  675 L
 300  791 mt  300  675 L
 733  791 mt  733  675 L
 300  791 mt  733  791 L
 300  791 mt  300  675 L
 300  791 mt  733  791 L
 300  675 mt  733  675 L
 300  791 mt  300  675 L
 733  791 mt  733  675 L
 396  696 mt 
(RT\(RET\) - CAL\(OBS\) clear) s
gs 300 675 434 117 rc
3.88889 w
73 0 314 689 2 MP stroke
gr

3.88889 w
gs 331 669 41 41 rc
 347  685 mt  355  693 L
 355  685 mt  347  693 L
gr

gs 300 675 434 117 rc
gr

 396  718 mt 
(RT\(ANA\) - CAL\(OBS\) clear \(10656 points\)) s
gs 300 675 434 117 rc
DD
73 0 314 711 2 MP stroke
SO
gs 331 691 41 40 rc
 347  707 mt  355  715 L
 355  707 mt  347  715 L
gr

1.38889 w
1 sg
73 0 314 733 2 MP stroke
gr

1.38889 w
1 sg
0 sg
 396  761 mt 
(RT\(RET\) - CAL\(OBS\) cloudy) s
gs 300 675 434 117 rc
3.88889 w
0.5 sg
73 0 314 754 2 MP stroke
gs 331 735 41 40 rc
 347  750 mt  355  758 L
 355  750 mt  347  758 L
gr

gr

3.88889 w
0.5 sg
0 sg
 396  783 mt 
(RT\(ANA\) - CAL\(OBS\) cloudy \(18703 points\)) s
gs 300 675 434 117 rc
DD
0.5 sg
73 0 314 776 2 MP stroke
SO
gr

0.5 sg
gs 331 756 41 41 rc
 347  772 mt  355  780 L
 355  772 mt  347  780 L
gr

gs 300 675 434 117 rc
1.38889 w
gr

1.38889 w
1 sg
0 117 424 0 0 -117 309 223 4 MP
PP
-424 0 0 117 424 0 0 -117 309 223 5 MP stroke
0.925926 w
DO
SO
1.38889 w
0 sg
 309  223 mt  733  223 L
 309  106 mt  733  106 L
 309  223 mt  309  106 L
 733  223 mt  733  106 L
 309  223 mt  733  223 L
 309  223 mt  309  106 L
 309  223 mt  733  223 L
 309  106 mt  733  106 L
 309  223 mt  309  106 L
 733  223 mt  733  106 L
 405  127 mt 
(RT\(RET\) - CAL\(OBS\) clear) s
gs 309 106 425 118 rc
3.88889 w
74 0 323 120 2 MP stroke
gr

3.88889 w
gs 340 100 41 41 rc
 356  116 mt  364  124 L
 364  116 mt  356  124 L
gr

gs 309 106 425 118 rc
gr

 405  149 mt 
(RT\(ANA\) - CAL\(OBS\) clear \(5658 points\)) s
gs 309 106 425 118 rc
DD
74 0 323 142 2 MP stroke
SO
gs 340 122 41 41 rc
 356  138 mt  364  146 L
 364  138 mt  356  146 L
gr

1.38889 w
1 sg
74 0 323 164 2 MP stroke
gr

1.38889 w
1 sg
0 sg
 405  193 mt 
(RT\(RET\) - CAL\(OBS\) cloudy) s
gs 309 106 425 118 rc
3.88889 w
0.5 sg
74 0 323 186 2 MP stroke
gs 340 166 41 41 rc
 356  182 mt  364  190 L
 364  182 mt  356  190 L
gr

gr

3.88889 w
0.5 sg
0 sg
 405  215 mt 
(RT\(ANA\) - CAL\(OBS\) cloudy \(4420 points\)) s
gs 309 106 425 118 rc
DD
0.5 sg
74 0 323 208 2 MP stroke
SO
gr

0.5 sg
gs 340 188 41 41 rc
 356  204 mt  364  212 L
 364  204 mt  356  212 L
gr

gs 309 106 425 118 rc
1.38889 w
gr

1.38889 w

end %%Color Dict

eplot
%%EndObject

epage
end

showpage

%%Trailer
%%EOF
