%!PS-Adobe-3.0 EPSF-3.0
%%Creator: MATLAB, The MathWorks, Inc. Version 7.11.0.584 (R2010b). Operating System: Linux 2.6.18-194.el5 #1 SMP Fri Apr 2 14:58:14 EDT 2010 x86_64.
%%Title: /gaia5/data2/estellus/datas/SMFW_test/AQUA.full2/results/../../mt_9.eps
%%CreationDate: 03/30/2011  14:55:03
%%DocumentNeededFonts: Helvetica
%%DocumentProcessColors: Cyan Magenta Yellow Black
%%LanguageLevel: 2
%%Pages: 1
%%BoundingBox:    60   409   546   591
%%EndComments

%%BeginProlog
% MathWorks dictionary
/MathWorks 160 dict begin
% definition operators
/bdef {bind def} bind def
/ldef {load def} bind def
/xdef {exch def} bdef
/xstore {exch store} bdef
% operator abbreviations
/c  /clip ldef
/cc /concat ldef
/cp /closepath ldef
/gr /grestore ldef
/gs /gsave ldef
/mt /moveto ldef
/np /newpath ldef
/cm /currentmatrix ldef
/sm /setmatrix ldef
/rm /rmoveto ldef
/rl /rlineto ldef
/s {show newpath} bdef
/sc {setcmykcolor} bdef
/sr /setrgbcolor ldef
/sg /setgray ldef
/w /setlinewidth ldef
/j /setlinejoin ldef
/cap /setlinecap ldef
/rc {rectclip} bdef
/rf {rectfill} bdef
% page state control
/pgsv () def
/bpage {/pgsv save def} bdef
/epage {pgsv restore} bdef
/bplot /gsave ldef
/eplot {stroke grestore} bdef
% orientation switch
/portraitMode 0 def /landscapeMode 1 def /rotateMode 2 def
% coordinate system mappings
/dpi2point 0 def
% font control
/FontSize 0 def
/FMS {/FontSize xstore findfont [FontSize 0 0 FontSize neg 0 0]
  makefont setfont} bdef
/reencode {exch dup where {pop load} {pop StandardEncoding} ifelse
  exch dup 3 1 roll findfont dup length dict begin
  { 1 index /FID ne {def}{pop pop} ifelse } forall
  /Encoding exch def currentdict end definefont pop} bdef
/isroman {findfont /CharStrings get /Agrave known} bdef
/FMSR {3 1 roll 1 index dup isroman {reencode} {pop pop} ifelse
  exch FMS} bdef
/csm {1 dpi2point div -1 dpi2point div scale neg translate
 dup landscapeMode eq {pop -90 rotate}
  {rotateMode eq {90 rotate} if} ifelse} bdef
% line types: solid, dotted, dashed, dotdash
/SO { [] 0 setdash } bdef
/DO { [.5 dpi2point mul 4 dpi2point mul] 0 setdash } bdef
/DA { [6 dpi2point mul] 0 setdash } bdef
/DD { [.5 dpi2point mul 4 dpi2point mul 6 dpi2point mul 4
  dpi2point mul] 0 setdash } bdef
% macros for lines and objects
/L {lineto stroke} bdef
/MP {3 1 roll moveto 1 sub {rlineto} repeat} bdef
/AP {{rlineto} repeat} bdef
/PDlw -1 def
/W {/PDlw currentlinewidth def setlinewidth} def
/PP {closepath eofill} bdef
/DP {closepath stroke} bdef
/MR {4 -2 roll moveto dup  0 exch rlineto exch 0 rlineto
  neg 0 exch rlineto closepath} bdef
/FR {MR stroke} bdef
/PR {MR fill} bdef
/L1i {{currentfile picstr readhexstring pop} image} bdef
/tMatrix matrix def
/MakeOval {newpath tMatrix currentmatrix pop translate scale
0 0 1 0 360 arc tMatrix setmatrix} bdef
/FO {MakeOval stroke} bdef
/PO {MakeOval fill} bdef
/PD {currentlinewidth 2 div 0 360 arc fill
   PDlw -1 eq not {PDlw w /PDlw -1 def} if} def
/FA {newpath tMatrix currentmatrix pop translate scale
  0 0 1 5 -2 roll arc tMatrix setmatrix stroke} bdef
/PA {newpath tMatrix currentmatrix pop	translate 0 0 moveto scale
  0 0 1 5 -2 roll arc closepath tMatrix setmatrix fill} bdef
/FAn {newpath tMatrix currentmatrix pop translate scale
  0 0 1 5 -2 roll arcn tMatrix setmatrix stroke} bdef
/PAn {newpath tMatrix currentmatrix pop translate 0 0 moveto scale
  0 0 1 5 -2 roll arcn closepath tMatrix setmatrix fill} bdef
/vradius 0 def /hradius 0 def /lry 0 def
/lrx 0 def /uly 0 def /ulx 0 def /rad 0 def
/MRR {/vradius xdef /hradius xdef /lry xdef /lrx xdef /uly xdef
  /ulx xdef newpath tMatrix currentmatrix pop ulx hradius add uly
  vradius add translate hradius vradius scale 0 0 1 180 270 arc 
  tMatrix setmatrix lrx hradius sub uly vradius add translate
  hradius vradius scale 0 0 1 270 360 arc tMatrix setmatrix
  lrx hradius sub lry vradius sub translate hradius vradius scale
  0 0 1 0 90 arc tMatrix setmatrix ulx hradius add lry vradius sub
  translate hradius vradius scale 0 0 1 90 180 arc tMatrix setmatrix
  closepath} bdef
/FRR {MRR stroke } bdef
/PRR {MRR fill } bdef
/MlrRR {/lry xdef /lrx xdef /uly xdef /ulx xdef /rad lry uly sub 2 div def
  newpath tMatrix currentmatrix pop ulx rad add uly rad add translate
  rad rad scale 0 0 1 90 270 arc tMatrix setmatrix lrx rad sub lry rad
  sub translate rad rad scale 0 0 1 270 90 arc tMatrix setmatrix
  closepath} bdef
/FlrRR {MlrRR stroke } bdef
/PlrRR {MlrRR fill } bdef
/MtbRR {/lry xdef /lrx xdef /uly xdef /ulx xdef /rad lrx ulx sub 2 div def
  newpath tMatrix currentmatrix pop ulx rad add uly rad add translate
  rad rad scale 0 0 1 180 360 arc tMatrix setmatrix lrx rad sub lry rad
  sub translate rad rad scale 0 0 1 0 180 arc tMatrix setmatrix
  closepath} bdef
/FtbRR {MtbRR stroke } bdef
/PtbRR {MtbRR fill } bdef
/stri 6 array def /dtri 6 array def
/smat 6 array def /dmat 6 array def
/tmat1 6 array def /tmat2 6 array def /dif 3 array def
/asub {/ind2 exch def /ind1 exch def dup dup
  ind1 get exch ind2 get sub exch } bdef
/tri_to_matrix {
  2 0 asub 3 1 asub 4 0 asub 5 1 asub
  dup 0 get exch 1 get 7 -1 roll astore } bdef
/compute_transform {
  dmat dtri tri_to_matrix tmat1 invertmatrix 
  smat stri tri_to_matrix tmat2 concatmatrix } bdef
/ds {stri astore pop} bdef
/dt {dtri astore pop} bdef
/db {2 copy /cols xdef /rows xdef mul dup 3 mul string
  currentfile 
  3 index 0 eq {/ASCIIHexDecode filter}
  {/ASCII85Decode filter 3 index 2 eq {/RunLengthDecode filter} if }
  ifelse exch readstring pop
  dup 0 3 index getinterval /rbmap xdef
  dup 2 index dup getinterval /gbmap xdef
  1 index dup 2 mul exch getinterval /bbmap xdef pop pop}bdef
/it {gs np dtri aload pop moveto lineto lineto cp c
  cols rows 8 compute_transform 
  rbmap gbmap bbmap true 3 colorimage gr}bdef
/il {newpath moveto lineto stroke}bdef
currentdict end def
%%EndProlog

%%BeginSetup
MathWorks begin

0 cap

end
%%EndSetup

%%Page: 1 1
%%BeginPageSetup
%%PageBoundingBox:    60   409   546   591
MathWorks begin
bpage
%%EndPageSetup

%%BeginObject: obj1
bplot

/dpi2point 3.33333 def
portraitMode 0060 2040 csm

  140    68  1623   607 rc
86 dict begin %Colortable dictionary
/c0 { 0.000000 0.000000 0.000000 sr} bdef
/c1 { 1.000000 1.000000 1.000000 sr} bdef
/c2 { 0.900000 0.000000 0.000000 sr} bdef
/c3 { 0.000000 0.820000 0.000000 sr} bdef
/c4 { 0.000000 0.000000 0.800000 sr} bdef
/c5 { 0.910000 0.820000 0.320000 sr} bdef
/c6 { 1.000000 0.260000 0.820000 sr} bdef
/c7 { 0.000000 0.820000 0.820000 sr} bdef
c0
1 j
1 sg
   0    0 1921 1442 rf
1.66667 w
0 -492 642 0 0 492 250 107 4 MP
PP
-642 0 0 -492 642 0 0 492 250 107 5 MP stroke
1.11111 w
DO
SO
1.66667 w
0 sg
 250  107 mt  892  107 L
 250  599 mt  892  599 L
 250  107 mt  250  599 L
 892  107 mt  892  599 L
 250  599 mt  892  599 L
 250  107 mt  250  599 L
 250  599 mt  250  593 L
 250  107 mt  250  114 L
%%IncludeResource: font Helvetica
/Helvetica /ISOLatin1Encoding 23.3333 FMSR

 244  630 mt 
(0) s
 395  599 mt  395  593 L
 395  107 mt  395  114 L
 389  630 mt 
(5) s
 541  599 mt  541  593 L
 541  107 mt  541  114 L
 529  630 mt 
(10) s
 687  599 mt  687  593 L
 687  107 mt  687  114 L
 675  630 mt 
(15) s
 833  599 mt  833  593 L
 833  107 mt  833  114 L
 821  630 mt 
(20) s
 250  107 mt  256  107 L
 892  107 mt  885  107 L
 202  115 mt 
(140) s
 250  252 mt  256  252 L
 892  252 mt  885  252 L
 202  260 mt 
(250) s
 250  366 mt  256  366 L
 892  366 mt  885  366 L
 202  374 mt 
(396) s
 250  452 mt  256  452 L
 892  452 mt  885  452 L
 202  460 mt 
(560) s
 250  525 mt  256  525 L
 892  525 mt  885  525 L
 202  533 mt 
(750) s
 250  576 mt  256  576 L
 892  576 mt  885  576 L
 202  584 mt 
(920) s
 250  599 mt  256  599 L
 892  599 mt  885  599 L
 189  607 mt 
(1013) s
 250  107 mt  892  107 L
 250  599 mt  892  599 L
 250  107 mt  250  599 L
 892  107 mt  892  599 L
gs 250 107 643 493 rc
5 w
0 1 0 5 0 8 155 9 0 11 0 12 0 14 108 14 
0 17 0 17 0 18 4 21 0 18 0 21 0 23 -116 24 
0 25 0 28 0 24 0 37 24 29 0 34 0 36 0 46 
571 107 25 MP stroke
gr

5 w
8 W
571 107 PD
8 W
571 153 PD
8 W
571 189 PD
8 W
571 223 PD
8 W
595 252 PD
8 W
595 289 PD
8 W
595 313 PD
8 W
595 341 PD
8 W
595 366 PD
8 W
479 390 PD
8 W
479 413 PD
8 W
479 434 PD
8 W
479 452 PD
8 W
483 473 PD
8 W
483 491 PD
8 W
483 508 PD
8 W
483 525 PD
8 W
591 539 PD
8 W
591 553 PD
8 W
591 565 PD
8 W
591 576 PD
8 W
746 585 PD
8 W
746 593 PD
8 W
746 598 PD
8 W
746 599 PD
gs 250 107 643 493 rc
0.5 sg
0 1 0 5 0 8 62 9 0 11 0 12 0 14 122 14 
0 17 0 17 0 18 17 21 0 18 0 21 0 23 -301 24 
0 25 0 28 0 24 0 37 173 29 0 34 0 36 0 46 
684 107 25 MP stroke
gr

0.5 sg
8 W
684 107 PD
8 W
684 153 PD
8 W
684 189 PD
8 W
684 223 PD
8 W
857 252 PD
8 W
857 289 PD
8 W
857 313 PD
8 W
857 341 PD
8 W
857 366 PD
8 W
556 390 PD
8 W
556 413 PD
8 W
556 434 PD
8 W
556 452 PD
8 W
573 473 PD
8 W
573 491 PD
8 W
573 508 PD
8 W
573 525 PD
8 W
695 539 PD
8 W
695 553 PD
8 W
695 565 PD
8 W
695 576 PD
8 W
757 585 PD
8 W
757 593 PD
8 W
757 598 PD
8 W
757 599 PD
gs 250 107 643 493 rc
DA
0 sg
0 1 0 5 0 8 228 9 0 11 0 12 0 14 -16 14 
0 17 0 17 0 18 -38 21 0 18 0 21 0 23 -144 24 
0 25 0 28 0 24 0 37 49 29 0 34 0 36 0 46 
591 107 25 MP stroke
gr

0 sg
DA
SO
8 W
591 107 PD
8 W
591 153 PD
8 W
591 189 PD
8 W
591 223 PD
8 W
640 252 PD
8 W
640 289 PD
8 W
640 313 PD
8 W
640 341 PD
8 W
640 366 PD
8 W
496 390 PD
8 W
496 413 PD
8 W
496 434 PD
8 W
496 452 PD
8 W
458 473 PD
8 W
458 491 PD
8 W
458 508 PD
8 W
458 525 PD
8 W
442 539 PD
8 W
442 553 PD
8 W
442 565 PD
8 W
442 576 PD
8 W
670 585 PD
8 W
670 593 PD
8 W
670 598 PD
8 W
670 599 PD
DA
gs 250 107 643 493 rc
0.5 sg
0 1 0 5 0 8 165 9 0 11 0 12 0 14 11 14 
0 17 0 17 0 18 -52 21 0 18 0 21 0 23 -285 24 
0 25 0 28 0 24 0 37 121 29 0 34 0 36 0 46 
718 107 25 MP stroke
gr

0.5 sg
SO
8 W
718 107 PD
8 W
718 153 PD
8 W
718 189 PD
8 W
718 223 PD
8 W
839 252 PD
8 W
839 289 PD
8 W
839 313 PD
8 W
839 341 PD
8 W
839 366 PD
8 W
554 390 PD
8 W
554 413 PD
8 W
554 434 PD
8 W
554 452 PD
8 W
502 473 PD
8 W
502 491 PD
8 W
502 508 PD
8 W
502 525 PD
8 W
513 539 PD
8 W
513 553 PD
8 W
513 565 PD
8 W
513 576 PD
8 W
678 585 PD
8 W
678 593 PD
8 W
678 598 PD
8 W
678 599 PD
DA
gs 250 107 643 493 rc
gr

0 sg
 168  432 mt  -90 rotate
(Pressure \(hPa\)) s
90 rotate
 278  663 mt 
(Relative humidity RMS departure from radiosonde \(in %\)) s
%%IncludeResource: font Helvetica
/Helvetica /ISOLatin1Encoding 33.3333 FMSR

 245  612 mt 
( ) s
 888  119 mt 
( ) s
SO
1.66667 w
1 sg
0 130 312 0 0 -130 266 254 4 MP
PP
-312 0 0 130 312 0 0 -130 266 254 5 MP stroke
1.11111 w
DO
SO
1.66667 w
0 sg
 266  254 mt  578  254 L
 266  124 mt  578  124 L
 266  254 mt  266  124 L
 578  254 mt  578  124 L
 266  254 mt  578  254 L
 266  254 mt  266  124 L
 266  254 mt  578  254 L
 266  124 mt  578  124 L
 266  254 mt  266  124 L
 578  254 mt  578  124 L
%%IncludeResource: font Helvetica
/Helvetica /ISOLatin1Encoding 23.3333 FMSR

 398  151 mt 
(Retrieval Clear) s
gs 266 124 313 131 rc
5 w
101 0 286 143 2 MP stroke
gr

5 w
gs 303 109 68 68 rc
8 W
336 143 PD
gr

gs 266 124 313 131 rc
gr

 398  182 mt 
(Retrieval Cloudy) s
gs 266 124 313 131 rc
0.5 sg
101 0 286 173 2 MP stroke
gs 303 140 68 68 rc
8 W
336 173 PD
gr

gr

0.5 sg
0 sg
 398  213 mt 
(Analysis Clear) s
gs 266 124 313 131 rc
DA
101 0 286 204 2 MP stroke
SO
gs 303 170 68 68 rc
8 W
336 204 PD
gr

gr

 398  244 mt 
(Analysis Cloudy) s
gs 266 124 313 131 rc
DA
0.5 sg
101 0 286 234 2 MP stroke
SO
gr

0.5 sg
gs 303 201 68 68 rc
8 W
336 234 PD
gr

gs 266 124 313 131 rc
1.66667 w
gr

1.66667 w
1 sg
0 -492 643 0 0 492 1095 107 4 MP
PP
-643 0 0 -492 643 0 0 492 1095 107 5 MP stroke
1.11111 w
DO
SO
1.66667 w
0 sg
1095  107 mt 1738  107 L
1095  599 mt 1738  599 L
1095  107 mt 1095  599 L
1738  107 mt 1738  599 L
1095  599 mt 1738  599 L
1095  107 mt 1095  599 L
1095  599 mt 1095  593 L
1095  107 mt 1095  114 L
1089  630 mt 
(0) s
1241  599 mt 1241  593 L
1241  107 mt 1241  114 L
1235  630 mt 
(5) s
1387  599 mt 1387  593 L
1387  107 mt 1387  114 L
1375  630 mt 
(10) s
1533  599 mt 1533  593 L
1533  107 mt 1533  114 L
1521  630 mt 
(15) s
1679  599 mt 1679  593 L
1679  107 mt 1679  114 L
1667  630 mt 
(20) s
1095  107 mt 1101  107 L
1738  107 mt 1731  107 L
1047  115 mt 
(140) s
1095  252 mt 1101  252 L
1738  252 mt 1731  252 L
1047  260 mt 
(250) s
1095  366 mt 1101  366 L
1738  366 mt 1731  366 L
1047  374 mt 
(396) s
1095  452 mt 1101  452 L
1738  452 mt 1731  452 L
1047  460 mt 
(560) s
1095  525 mt 1101  525 L
1738  525 mt 1731  525 L
1047  533 mt 
(750) s
1095  576 mt 1101  576 L
1738  576 mt 1731  576 L
1047  584 mt 
(920) s
1095  599 mt 1101  599 L
1738  599 mt 1731  599 L
1034  607 mt 
(1013) s
1095  107 mt 1738  107 L
1095  599 mt 1738  599 L
1095  107 mt 1095  599 L
1738  107 mt 1738  599 L
gs 1095 107 644 493 rc
5 w
0 1 0 5 0 8 156 9 0 11 0 12 0 14 107 14 
0 17 0 17 0 18 5 21 0 18 0 21 0 23 -116 24 
0 25 0 28 0 24 0 37 23 29 0 34 0 36 0 46 
1417 107 25 MP stroke
gr

5 w
8 W
1417 107 PD
8 W
1417 153 PD
8 W
1417 189 PD
8 W
1417 223 PD
8 W
1440 252 PD
8 W
1440 289 PD
8 W
1440 313 PD
8 W
1440 341 PD
8 W
1440 366 PD
8 W
1324 390 PD
8 W
1324 413 PD
8 W
1324 434 PD
8 W
1324 452 PD
8 W
1329 473 PD
8 W
1329 491 PD
8 W
1329 508 PD
8 W
1329 525 PD
8 W
1436 539 PD
8 W
1436 553 PD
8 W
1436 565 PD
8 W
1436 576 PD
8 W
1592 585 PD
8 W
1592 593 PD
8 W
1592 598 PD
8 W
1592 599 PD
gs 1095 107 644 493 rc
0.5 sg
0 1 0 5 0 8 61 9 0 11 0 12 0 14 123 14 
0 17 0 17 0 18 17 21 0 18 0 21 0 23 -302 24 
0 25 0 28 0 24 0 37 173 29 0 34 0 36 0 46 
1530 107 25 MP stroke
gr

0.5 sg
8 W
1530 107 PD
8 W
1530 153 PD
8 W
1530 189 PD
8 W
1530 223 PD
8 W
1703 252 PD
8 W
1703 289 PD
8 W
1703 313 PD
8 W
1703 341 PD
8 W
1703 366 PD
8 W
1401 390 PD
8 W
1401 413 PD
8 W
1401 434 PD
8 W
1401 452 PD
8 W
1418 473 PD
8 W
1418 491 PD
8 W
1418 508 PD
8 W
1418 525 PD
8 W
1541 539 PD
8 W
1541 553 PD
8 W
1541 565 PD
8 W
1541 576 PD
8 W
1602 585 PD
8 W
1602 593 PD
8 W
1602 598 PD
8 W
1602 599 PD
gs 1095 107 644 493 rc
DA
0 sg
0 1 0 5 0 8 228 9 0 11 0 12 0 14 -15 14 
0 17 0 17 0 18 -38 21 0 18 0 21 0 23 -145 24 
0 25 0 28 0 24 0 37 50 29 0 34 0 36 0 46 
1436 107 25 MP stroke
gr

0 sg
DA
SO
8 W
1436 107 PD
8 W
1436 153 PD
8 W
1436 189 PD
8 W
1436 223 PD
8 W
1486 252 PD
8 W
1486 289 PD
8 W
1486 313 PD
8 W
1486 341 PD
8 W
1486 366 PD
8 W
1341 390 PD
8 W
1341 413 PD
8 W
1341 434 PD
8 W
1341 452 PD
8 W
1303 473 PD
8 W
1303 491 PD
8 W
1303 508 PD
8 W
1303 525 PD
8 W
1288 539 PD
8 W
1288 553 PD
8 W
1288 565 PD
8 W
1288 576 PD
8 W
1516 585 PD
8 W
1516 593 PD
8 W
1516 598 PD
8 W
1516 599 PD
DA
gs 1095 107 644 493 rc
0.5 sg
0 1 0 5 0 8 165 9 0 11 0 12 0 14 11 14 
0 17 0 17 0 18 -52 21 0 18 0 21 0 23 -285 24 
0 25 0 28 0 24 0 37 121 29 0 34 0 36 0 46 
1564 107 25 MP stroke
gr

0.5 sg
SO
8 W
1564 107 PD
8 W
1564 153 PD
8 W
1564 189 PD
8 W
1564 223 PD
8 W
1685 252 PD
8 W
1685 289 PD
8 W
1685 313 PD
8 W
1685 341 PD
8 W
1685 366 PD
8 W
1400 390 PD
8 W
1400 413 PD
8 W
1400 434 PD
8 W
1400 452 PD
8 W
1348 473 PD
8 W
1348 491 PD
8 W
1348 508 PD
8 W
1348 525 PD
8 W
1359 539 PD
8 W
1359 553 PD
8 W
1359 565 PD
8 W
1359 576 PD
8 W
1524 585 PD
8 W
1524 593 PD
8 W
1524 598 PD
8 W
1524 599 PD
DA
gs 1095 107 644 493 rc
gr

0 sg
1013  432 mt  -90 rotate
(Pressure \(hPa\)) s
90 rotate
1123  663 mt 
(Relative humidity RMS departure from radiosonde \(in %\)) s
%%IncludeResource: font Helvetica
/Helvetica /ISOLatin1Encoding 33.3333 FMSR

1090  612 mt 
( ) s
1734  119 mt 
( ) s
SO
1.66667 w
1 sg
0 130 312 0 0 -130 1111 254 4 MP
PP
-312 0 0 130 312 0 0 -130 1111 254 5 MP stroke
1.11111 w
DO
SO
1.66667 w
0 sg
1111  254 mt 1423  254 L
1111  124 mt 1423  124 L
1111  254 mt 1111  124 L
1423  254 mt 1423  124 L
1111  254 mt 1423  254 L
1111  254 mt 1111  124 L
1111  254 mt 1423  254 L
1111  124 mt 1423  124 L
1111  254 mt 1111  124 L
1423  254 mt 1423  124 L
%%IncludeResource: font Helvetica
/Helvetica /ISOLatin1Encoding 23.3333 FMSR

1243  151 mt 
(Retrieval Clear) s
gs 1111 124 313 131 rc
5 w
101 0 1131 143 2 MP stroke
gr

5 w
gs 1148 109 68 68 rc
8 W
1181 143 PD
gr

gs 1111 124 313 131 rc
gr

1243  182 mt 
(Retrieval Cloudy) s
gs 1111 124 313 131 rc
0.5 sg
101 0 1131 173 2 MP stroke
gs 1148 140 68 68 rc
8 W
1181 173 PD
gr

gr

0.5 sg
0 sg
1243  213 mt 
(Analysis Clear) s
gs 1111 124 313 131 rc
DA
101 0 1131 204 2 MP stroke
SO
gs 1148 170 68 68 rc
8 W
1181 204 PD
gr

gr

1243  244 mt 
(Analysis Cloudy) s
gs 1111 124 313 131 rc
DA
0.5 sg
101 0 1131 234 2 MP stroke
SO
gr

0.5 sg
gs 1148 201 68 68 rc
8 W
1181 234 PD
gr

gs 1111 124 313 131 rc
1.66667 w
gr

1.66667 w

end %%Color Dict

eplot
%%EndObject

epage
end

showpage

%%Trailer
%%EOF
