%!PS-Adobe-3.0 EPSF-3.0
%%Creator: MATLAB, The Mathworks, Inc.
%%Title: ./RMS2a.eps
%%CreationDate: 05/25/2013  06:13:39
%%DocumentNeededFonts: Helvetica
%%DocumentProcessColors: Cyan Magenta Yellow Black
%%LanguageLevel: 2
%%Pages: 1
%%BoundingBox:   100   228   546   602
%%EndComments

%%BeginProlog
% MathWorks dictionary
/MathWorks 160 dict begin
% definition operators
/bdef {bind def} bind def
/ldef {load def} bind def
/xdef {exch def} bdef
/xstore {exch store} bdef
% operator abbreviations
/c  /clip ldef
/cc /concat ldef
/cp /closepath ldef
/gr /grestore ldef
/gs /gsave ldef
/mt /moveto ldef
/np /newpath ldef
/cm /currentmatrix ldef
/sm /setmatrix ldef
/rm /rmoveto ldef
/rl /rlineto ldef
/s {show newpath} bdef
/sc {setcmykcolor} bdef
/sr /setrgbcolor ldef
/sg /setgray ldef
/w /setlinewidth ldef
/j /setlinejoin ldef
/cap /setlinecap ldef
/rc {rectclip} bdef
/rf {rectfill} bdef
% page state control
/pgsv () def
/bpage {/pgsv save def} bdef
/epage {pgsv restore} bdef
/bplot /gsave ldef
/eplot {stroke grestore} bdef
% orientation switch
/portraitMode 0 def /landscapeMode 1 def /rotateMode 2 def
% coordinate system mappings
/dpi2point 0 def
% font control
/FontSize 0 def
/FMS {/FontSize xstore findfont [FontSize 0 0 FontSize neg 0 0]
  makefont setfont} bdef
/reencode {exch dup where {pop load} {pop StandardEncoding} ifelse
  exch dup 3 1 roll findfont dup length dict begin
  { 1 index /FID ne {def}{pop pop} ifelse } forall
  /Encoding exch def currentdict end definefont pop} bdef
/isroman {findfont /CharStrings get /Agrave known} bdef
/FMSR {3 1 roll 1 index dup isroman {reencode} {pop pop} ifelse
  exch FMS} bdef
/csm {1 dpi2point div -1 dpi2point div scale neg translate
 dup landscapeMode eq {pop -90 rotate}
  {rotateMode eq {90 rotate} if} ifelse} bdef
% line types: solid, dotted, dashed, dotdash
/SO { [] 0 setdash } bdef
/DO { [.5 dpi2point mul 4 dpi2point mul] 0 setdash } bdef
/DA { [6 dpi2point mul] 0 setdash } bdef
/DD { [.5 dpi2point mul 4 dpi2point mul 6 dpi2point mul 4
  dpi2point mul] 0 setdash } bdef
% macros for lines and objects
/L {lineto stroke} bdef
/MP {3 1 roll moveto 1 sub {rlineto} repeat} bdef
/AP {{rlineto} repeat} bdef
/PDlw -1 def
/W {/PDlw currentlinewidth def setlinewidth} def
/PP {closepath eofill} bdef
/DP {closepath stroke} bdef
/MR {4 -2 roll moveto dup  0 exch rlineto exch 0 rlineto
  neg 0 exch rlineto closepath} bdef
/FR {MR stroke} bdef
/PR {MR fill} bdef
/L1i {{currentfile picstr readhexstring pop} image} bdef
/tMatrix matrix def
/MakeOval {newpath tMatrix currentmatrix pop translate scale
0 0 1 0 360 arc tMatrix setmatrix} bdef
/FO {MakeOval stroke} bdef
/PO {MakeOval fill} bdef
/PD {currentlinewidth 2 div 0 360 arc fill
   PDlw -1 eq not {PDlw w /PDlw -1 def} if} def
/FA {newpath tMatrix currentmatrix pop translate scale
  0 0 1 5 -2 roll arc tMatrix setmatrix stroke} bdef
/PA {newpath tMatrix currentmatrix pop	translate 0 0 moveto scale
  0 0 1 5 -2 roll arc closepath tMatrix setmatrix fill} bdef
/FAn {newpath tMatrix currentmatrix pop translate scale
  0 0 1 5 -2 roll arcn tMatrix setmatrix stroke} bdef
/PAn {newpath tMatrix currentmatrix pop translate 0 0 moveto scale
  0 0 1 5 -2 roll arcn closepath tMatrix setmatrix fill} bdef
/vradius 0 def /hradius 0 def /lry 0 def
/lrx 0 def /uly 0 def /ulx 0 def /rad 0 def
/MRR {/vradius xdef /hradius xdef /lry xdef /lrx xdef /uly xdef
  /ulx xdef newpath tMatrix currentmatrix pop ulx hradius add uly
  vradius add translate hradius vradius scale 0 0 1 180 270 arc 
  tMatrix setmatrix lrx hradius sub uly vradius add translate
  hradius vradius scale 0 0 1 270 360 arc tMatrix setmatrix
  lrx hradius sub lry vradius sub translate hradius vradius scale
  0 0 1 0 90 arc tMatrix setmatrix ulx hradius add lry vradius sub
  translate hradius vradius scale 0 0 1 90 180 arc tMatrix setmatrix
  closepath} bdef
/FRR {MRR stroke } bdef
/PRR {MRR fill } bdef
/MlrRR {/lry xdef /lrx xdef /uly xdef /ulx xdef /rad lry uly sub 2 div def
  newpath tMatrix currentmatrix pop ulx rad add uly rad add translate
  rad rad scale 0 0 1 90 270 arc tMatrix setmatrix lrx rad sub lry rad
  sub translate rad rad scale 0 0 1 270 90 arc tMatrix setmatrix
  closepath} bdef
/FlrRR {MlrRR stroke } bdef
/PlrRR {MlrRR fill } bdef
/MtbRR {/lry xdef /lrx xdef /uly xdef /ulx xdef /rad lrx ulx sub 2 div def
  newpath tMatrix currentmatrix pop ulx rad add uly rad add translate
  rad rad scale 0 0 1 180 360 arc tMatrix setmatrix lrx rad sub lry rad
  sub translate rad rad scale 0 0 1 0 180 arc tMatrix setmatrix
  closepath} bdef
/FtbRR {MtbRR stroke } bdef
/PtbRR {MtbRR fill } bdef
/stri 6 array def /dtri 6 array def
/smat 6 array def /dmat 6 array def
/tmat1 6 array def /tmat2 6 array def /dif 3 array def
/asub {/ind2 exch def /ind1 exch def dup dup
  ind1 get exch ind2 get sub exch } bdef
/tri_to_matrix {
  2 0 asub 3 1 asub 4 0 asub 5 1 asub
  dup 0 get exch 1 get 7 -1 roll astore } bdef
/compute_transform {
  dmat dtri tri_to_matrix tmat1 invertmatrix 
  smat stri tri_to_matrix tmat2 concatmatrix } bdef
/ds {stri astore pop} bdef
/dt {dtri astore pop} bdef
/db {2 copy /cols xdef /rows xdef mul dup 3 mul string
  currentfile 
  3 index 0 eq {/ASCIIHexDecode filter}
  {/ASCII85Decode filter 3 index 2 eq {/RunLengthDecode filter} if }
  ifelse exch readstring pop
  dup 0 3 index getinterval /rbmap xdef
  dup 2 index dup getinterval /gbmap xdef
  1 index dup 2 mul exch getinterval /bbmap xdef pop pop}bdef
/it {gs np dtri aload pop moveto lineto lineto cp c
  cols rows 8 compute_transform 
  rbmap gbmap bbmap true 3 colorimage gr}bdef
/il {newpath moveto lineto stroke}bdef
currentdict end def
%%EndProlog

%%BeginSetup
MathWorks begin

0 cap

end
%%EndSetup

%%Page: 1 1
%%BeginPageSetup
%%PageBoundingBox:   100   228   546   602
MathWorks begin
bpage
%%EndPageSetup

%%BeginObject: obj1
bplot

/dpi2point 4.16667 def
portraitMode 0075 2550 csm

  342    41  1861  1555 rc
129 dict begin %Colortable dictionary
/c0 { 0.000000 0.000000 0.000000 sr} bdef
/c1 { 1.000000 1.000000 1.000000 sr} bdef
/c2 { 0.900000 0.000000 0.000000 sr} bdef
/c3 { 0.000000 0.820000 0.000000 sr} bdef
/c4 { 0.000000 0.000000 0.800000 sr} bdef
/c5 { 0.910000 0.820000 0.320000 sr} bdef
/c6 { 1.000000 0.260000 0.820000 sr} bdef
/c7 { 0.000000 0.820000 0.820000 sr} bdef
c0
1 j
1 sg
   0    0 2401 1802 rf
2.08333 w
0 430 623 0 0 -430 492 565 4 MP
PP
-623 0 0 430 623 0 0 -430 492 565 5 MP stroke
1.38889 w
DO
0 sg
 492  565 mt 1115  565 L
1115  565 mt 1115  565 L
 492  479 mt 1115  479 L
1115  479 mt 1115  479 L
 492  393 mt 1115  393 L
1115  393 mt 1115  393 L
 492  307 mt 1115  307 L
1115  307 mt 1115  307 L
 492  221 mt 1115  221 L
1115  221 mt 1115  221 L
 492  135 mt 1115  135 L
1115  135 mt 1115  135 L
SO
2.08333 w
 492  565 mt 1115  565 L
 492  135 mt 1115  135 L
 492  565 mt  492  135 L
1115  565 mt 1115  135 L
 492  565 mt 1115  565 L
 492  565 mt  492  135 L
 492  565 mt  492  558 L
 492  135 mt  492  141 L
 533  565 mt  533  558 L
 533  135 mt  533  141 L
 575  565 mt  575  558 L
 575  135 mt  575  141 L
 616  565 mt  616  558 L
 616  135 mt  616  141 L
 658  565 mt  658  558 L
 658  135 mt  658  141 L
 699  565 mt  699  558 L
 699  135 mt  699  141 L
 741  565 mt  741  558 L
 741  135 mt  741  141 L
 782  565 mt  782  558 L
 782  135 mt  782  141 L
 824  565 mt  824  558 L
 824  135 mt  824  141 L
 865  565 mt  865  558 L
 865  135 mt  865  141 L
 907  565 mt  907  558 L
 907  135 mt  907  141 L
 948  565 mt  948  558 L
 948  135 mt  948  141 L
 990  565 mt  990  558 L
 990  135 mt  990  141 L
1031  565 mt 1031  558 L
1031  135 mt 1031  141 L
1073  565 mt 1073  558 L
1073  135 mt 1073  141 L
1115  565 mt 1115  558 L
1115  135 mt 1115  141 L
 492  565 mt  498  565 L
1115  565 mt 1108  565 L
%%IncludeResource: font Helvetica
/Helvetica /ISOLatin1Encoding 41.6667 FMSR

 457  580 mt 
(0) s
 492  479 mt  498  479 L
1115  479 mt 1108  479 L
 457  494 mt 
(3) s
 492  393 mt  498  393 L
1115  393 mt 1108  393 L
 457  408 mt 
(6) s
 492  307 mt  498  307 L
1115  307 mt 1108  307 L
 457  322 mt 
(9) s
 492  221 mt  498  221 L
1115  221 mt 1108  221 L
 434  236 mt 
(12) s
 492  135 mt  498  135 L
1115  135 mt 1108  135 L
 434  150 mt 
(15) s
 492  565 mt 1115  565 L
 492  135 mt 1115  135 L
 492  565 mt  492  135 L
1115  565 mt 1115  135 L
gs 492 135 624 431 rc
4.16667 w
42 9 42 -14 41 96 42 95 41 -165 42 30 41 -65 42 175 
41 -115 42 10 41 -62 42 -24 41 -11 42 8 41 -7 492 542 16 MP stroke
gr

4.16667 w
gs 470 294 667 272 rc
 485  535 mt  499  549 L
 499  535 mt  485  549 L
 526  528 mt  540  542 L
 540  528 mt  526  542 L
 568  536 mt  582  550 L
 582  536 mt  568  550 L
 609  525 mt  623  539 L
 623  525 mt  609  539 L
 651  501 mt  665  515 L
 665  501 mt  651  515 L
 692  439 mt  706  453 L
 706  439 mt  692  453 L
 734  449 mt  748  463 L
 748  449 mt  734  463 L
 775  334 mt  789  348 L
 789  334 mt  775  348 L
 817  509 mt  831  523 L
 831  509 mt  817  523 L
 858  444 mt  872  458 L
 872  444 mt  858  458 L
 900  474 mt  914  488 L
 914  474 mt  900  488 L
 941  309 mt  955  323 L
 955  309 mt  941  323 L
 983  404 mt  997  418 L
 997  404 mt  983  418 L
1024  500 mt 1038  514 L
1038  500 mt 1024  514 L
1066  486 mt 1080  500 L
1080  486 mt 1066  500 L
1108  495 mt 1122  509 L
1122  495 mt 1108  509 L
gr

gs 492 135 624 431 rc
/c8 { 1.000000 0.022727 0.022727 sr} bdef
c8
42 18 42 5 41 77 42 145 41 -182 42 5 41 -66 42 139 
41 -96 42 4 41 -47 42 37 41 -27 42 105 41 -50 492 438 16 MP stroke
gr

c8
gs 470 238 667 290 rc
 485  431 mt  499  445 L
 499  431 mt  485  445 L
 526  381 mt  540  395 L
 540  381 mt  526  395 L
 568  486 mt  582  500 L
 582  486 mt  568  500 L
 609  459 mt  623  473 L
 623  459 mt  609  473 L
 651  496 mt  665  510 L
 665  496 mt  651  510 L
 692  449 mt  706  463 L
 706  449 mt  692  463 L
 734  453 mt  748  467 L
 748  453 mt  734  467 L
 775  357 mt  789  371 L
 789  357 mt  775  371 L
 817  496 mt  831  510 L
 831  496 mt  817  510 L
 858  430 mt  872  444 L
 872  430 mt  858  444 L
 900  435 mt  914  449 L
 914  435 mt  900  449 L
 941  253 mt  955  267 L
 955  253 mt  941  267 L
 983  398 mt  997  412 L
 997  398 mt  983  412 L
1024  475 mt 1038  489 L
1038  475 mt 1024  489 L
1066  480 mt 1080  494 L
1080  480 mt 1066  494 L
1108  498 mt 1122  512 L
1122  498 mt 1108  512 L
gr

gs 492 135 624 431 rc
gr

0 sg
 405  460 mt  -90 rotate
(RMS TB \(K\)) s
90 rotate
 575  104 mt 
(Clear Ocean \(721 points\)) s
%%IncludeResource: font Helvetica
/Helvetica /ISOLatin1Encoding 25 FMSR

 371  726 mt  -45 rotate
(AMSRE 6.925V) s
45 rotate
 476  659 mt  -45 rotate
(6.925H) s
45 rotate
 520  658 mt  -45 rotate
(10.65V) s
45 rotate
 562  659 mt  -45 rotate
(10.65H) s
45 rotate
 610  648 mt  -45 rotate
(18.7V) s
45 rotate
 653  649 mt  -45 rotate
(18.7H) s
45 rotate
 696  648 mt  -45 rotate
(23.8V) s
45 rotate
 734  649 mt  -45 rotate
(23.8H) s
45 rotate
 777  648 mt  -45 rotate
(36.5V) s
45 rotate
 820  649 mt  -45 rotate
(36.5H) s
45 rotate
 858  648 mt  -45 rotate
(89.0V) s
45 rotate
 901  649 mt  -45 rotate
(89.0H) s
45 rotate
 920  673 mt  -45 rotate
(HSB 150) s
45 rotate
 934  696 mt  -45 rotate
(183.31 +/-1) s
45 rotate
 977  696 mt  -45 rotate
(183.31 +/-3) s
45 rotate
1019  696 mt  -45 rotate
(183.31 +/-7) s
45 rotate
2.08333 w
1 sg
0 426 612 0 0 -426 1549 561 4 MP
PP
-612 0 0 426 612 0 0 -426 1549 561 5 MP stroke
1.38889 w
DO
0 sg
1549  561 mt 2161  561 L
2161  561 mt 2161  561 L
1549  475 mt 2161  475 L
2161  475 mt 2161  475 L
1549  390 mt 2161  390 L
2161  390 mt 2161  390 L
1549  305 mt 2161  305 L
2161  305 mt 2161  305 L
1549  220 mt 2161  220 L
2161  220 mt 2161  220 L
1549  135 mt 2161  135 L
2161  135 mt 2161  135 L
SO
2.08333 w
1549  561 mt 2161  561 L
1549  135 mt 2161  135 L
1549  561 mt 1549  135 L
2161  561 mt 2161  135 L
1549  561 mt 2161  561 L
1549  561 mt 1549  135 L
1549  561 mt 1549  554 L
1549  135 mt 1549  141 L
1589  561 mt 1589  554 L
1589  135 mt 1589  141 L
1630  561 mt 1630  554 L
1630  135 mt 1630  141 L
1671  561 mt 1671  554 L
1671  135 mt 1671  141 L
1712  561 mt 1712  554 L
1712  135 mt 1712  141 L
1753  561 mt 1753  554 L
1753  135 mt 1753  141 L
1793  561 mt 1793  554 L
1793  135 mt 1793  141 L
1834  561 mt 1834  554 L
1834  135 mt 1834  141 L
1875  561 mt 1875  554 L
1875  135 mt 1875  141 L
1916  561 mt 1916  554 L
1916  135 mt 1916  141 L
1957  561 mt 1957  554 L
1957  135 mt 1957  141 L
1997  561 mt 1997  554 L
1997  135 mt 1997  141 L
2038  561 mt 2038  554 L
2038  135 mt 2038  141 L
2079  561 mt 2079  554 L
2079  135 mt 2079  141 L
2120  561 mt 2120  554 L
2120  135 mt 2120  141 L
2161  561 mt 2161  554 L
2161  135 mt 2161  141 L
1549  561 mt 1555  561 L
2161  561 mt 2154  561 L
%%IncludeResource: font Helvetica
/Helvetica /ISOLatin1Encoding 41.6667 FMSR

1514  576 mt 
(0) s
1549  475 mt 1555  475 L
2161  475 mt 2154  475 L
1514  490 mt 
(3) s
1549  390 mt 1555  390 L
2161  390 mt 2154  390 L
1514  405 mt 
(6) s
1549  305 mt 1555  305 L
2161  305 mt 2154  305 L
1514  320 mt 
(9) s
1549  220 mt 1555  220 L
2161  220 mt 2154  220 L
1491  235 mt 
(12) s
1549  135 mt 1555  135 L
2161  135 mt 2154  135 L
1491  150 mt 
(15) s
1549  561 mt 2161  561 L
1549  135 mt 2161  135 L
1549  561 mt 1549  135 L
2161  561 mt 2161  135 L
gs 1549 135 613 427 rc
4.16667 w
/c9 { 1.000000 0.000000 0.040611 sr} bdef
c9
41 -8 41 -2 41 126 41 -19 40 25 41 -49 41 20 41 -41 
41 10 40 26 41 -5 41 115 41 -92 41 156 40 -126 1549 335 16 MP stroke
gr

4.16667 w
c9
gs 1527 187 656 317 rc
1542  328 mt 1556  342 L
1556  328 mt 1542  342 L
1582  202 mt 1596  216 L
1596  202 mt 1582  216 L
1623  358 mt 1637  372 L
1637  358 mt 1623  372 L
1664  266 mt 1678  280 L
1678  266 mt 1664  280 L
1705  381 mt 1719  395 L
1719  381 mt 1705  395 L
1746  376 mt 1760  390 L
1760  376 mt 1746  390 L
1786  402 mt 1800  416 L
1800  402 mt 1786  416 L
1827  412 mt 1841  426 L
1841  412 mt 1827  426 L
1868  371 mt 1882  385 L
1882  371 mt 1868  385 L
1909  391 mt 1923  405 L
1923  391 mt 1909  405 L
1950  342 mt 1964  356 L
1964  342 mt 1950  356 L
1990  367 mt 2004  381 L
2004  367 mt 1990  381 L
2031  348 mt 2045  362 L
2045  348 mt 2031  362 L
2072  474 mt 2086  488 L
2086  474 mt 2072  488 L
2113  472 mt 2127  486 L
2127  472 mt 2113  486 L
2154  464 mt 2168  478 L
2168  464 mt 2154  478 L
gr

gs 1549 135 613 427 rc
gr

0 sg
1462  458 mt  -90 rotate
(RMS TB \(K\)) s
90 rotate
1629  104 mt 
(Clear Land \(3510 points\)) s
%%IncludeResource: font Helvetica
/Helvetica /ISOLatin1Encoding 25 FMSR

1428  722 mt  -45 rotate
(AMSRE 6.925V) s
45 rotate
1532  655 mt  -45 rotate
(6.925H) s
45 rotate
1575  654 mt  -45 rotate
(10.65V) s
45 rotate
1616  655 mt  -45 rotate
(10.65H) s
45 rotate
1663  644 mt  -45 rotate
(18.7V) s
45 rotate
1705  645 mt  -45 rotate
(18.7H) s
45 rotate
1747  644 mt  -45 rotate
(23.8V) s
45 rotate
1788  645 mt  -45 rotate
(23.8H) s
45 rotate
1826  644 mt  -45 rotate
(36.5V) s
45 rotate
1868  645 mt  -45 rotate
(36.5H) s
45 rotate
1909  644 mt  -45 rotate
(89.0V) s
45 rotate
1951  645 mt  -45 rotate
(89.0H) s
45 rotate
1965  669 mt  -45 rotate
(HSB 150) s
45 rotate
1982  692 mt  -45 rotate
(183.31 +/-1) s
45 rotate
2024  692 mt  -45 rotate
(183.31 +/-3) s
45 rotate
2066  692 mt  -45 rotate
(183.31 +/-7) s
45 rotate
%%IncludeResource: font Helvetica
/Helvetica /ISOLatin1Encoding 41.6667 FMSR

1543  577 mt 
( ) s
2156  150 mt 
( ) s
2.08333 w
1 sg
0 431 623 0 0 -431 492 1419 4 MP
PP
-623 0 0 431 623 0 0 -431 492 1419 5 MP stroke
1.38889 w
DO
0 sg
 492 1419 mt 1115 1419 L
1115 1419 mt 1115 1419 L
 492 1332 mt 1115 1332 L
1115 1332 mt 1115 1332 L
 492 1246 mt 1115 1246 L
1115 1246 mt 1115 1246 L
 492 1160 mt 1115 1160 L
1115 1160 mt 1115 1160 L
 492 1074 mt 1115 1074 L
1115 1074 mt 1115 1074 L
 492  988 mt 1115  988 L
1115  988 mt 1115  988 L
SO
2.08333 w
 492 1419 mt 1115 1419 L
 492  988 mt 1115  988 L
 492 1419 mt  492  988 L
1115 1419 mt 1115  988 L
 492 1419 mt 1115 1419 L
 492 1419 mt  492  988 L
 492 1419 mt  492 1412 L
 492  988 mt  492  994 L
 533 1419 mt  533 1412 L
 533  988 mt  533  994 L
 575 1419 mt  575 1412 L
 575  988 mt  575  994 L
 616 1419 mt  616 1412 L
 616  988 mt  616  994 L
 658 1419 mt  658 1412 L
 658  988 mt  658  994 L
 699 1419 mt  699 1412 L
 699  988 mt  699  994 L
 741 1419 mt  741 1412 L
 741  988 mt  741  994 L
 782 1419 mt  782 1412 L
 782  988 mt  782  994 L
 824 1419 mt  824 1412 L
 824  988 mt  824  994 L
 865 1419 mt  865 1412 L
 865  988 mt  865  994 L
 907 1419 mt  907 1412 L
 907  988 mt  907  994 L
 948 1419 mt  948 1412 L
 948  988 mt  948  994 L
 990 1419 mt  990 1412 L
 990  988 mt  990  994 L
1031 1419 mt 1031 1412 L
1031  988 mt 1031  994 L
1073 1419 mt 1073 1412 L
1073  988 mt 1073  994 L
1115 1419 mt 1115 1412 L
1115  988 mt 1115  994 L
 492 1419 mt  498 1419 L
1115 1419 mt 1108 1419 L
 457 1434 mt 
(0) s
 492 1332 mt  498 1332 L
1115 1332 mt 1108 1332 L
 457 1347 mt 
(3) s
 492 1246 mt  498 1246 L
1115 1246 mt 1108 1246 L
 457 1261 mt 
(6) s
 492 1160 mt  498 1160 L
1115 1160 mt 1108 1160 L
 457 1175 mt 
(9) s
 492 1074 mt  498 1074 L
1115 1074 mt 1108 1074 L
 434 1089 mt 
(12) s
 492  988 mt  498  988 L
1115  988 mt 1108  988 L
 434 1003 mt 
(15) s
 492 1419 mt 1115 1419 L
 492  988 mt 1115  988 L
 492 1419 mt  492  988 L
1115 1419 mt 1115  988 L
gs 492 988 624 432 rc
4.16667 w
42 9 42 -3 41 8 42 140 41 -138 42 138 41 -112 42 82 
41 -87 42 34 41 -62 42 -21 41 -21 42 2 41 -9 492 1398 16 MP stroke
gr

4.16667 w
gs 470 1182 667 239 rc
 485 1391 mt  499 1405 L
 499 1391 mt  485 1405 L
 526 1382 mt  540 1396 L
 540 1382 mt  526 1396 L
 568 1384 mt  582 1398 L
 582 1384 mt  568 1398 L
 609 1363 mt  623 1377 L
 623 1363 mt  609 1377 L
 651 1342 mt  665 1356 L
 665 1342 mt  651 1356 L
 692 1280 mt  706 1294 L
 706 1280 mt  692 1294 L
 734 1314 mt  748 1328 L
 748 1314 mt  734 1328 L
 775 1227 mt  789 1241 L
 789 1227 mt  775 1241 L
 817 1309 mt  831 1323 L
 831 1309 mt  817 1323 L
 858 1197 mt  872 1211 L
 872 1197 mt  858 1211 L
 900 1335 mt  914 1349 L
 914 1335 mt  900 1349 L
 941 1197 mt  955 1211 L
 955 1197 mt  941 1211 L
 983 1337 mt  997 1351 L
 997 1337 mt  983 1351 L
1024 1345 mt 1038 1359 L
1038 1345 mt 1024 1359 L
1066 1342 mt 1080 1356 L
1080 1342 mt 1066 1356 L
1108 1351 mt 1122 1365 L
1122 1351 mt 1108 1365 L
gr

gs 492 988 624 432 rc
/c10 { 1.000000 0.022661 0.033513 sr} bdef
c10
42 5 42 -2 41 16 42 152 41 -151 42 165 41 -141 42 75 
41 -94 42 66 41 -80 42 12 41 -37 42 59 41 -40 492 1328 16 MP stroke
gr

c10
gs 470 1126 667 244 rc
 485 1321 mt  499 1335 L
 499 1321 mt  485 1335 L
 526 1281 mt  540 1295 L
 540 1281 mt  526 1295 L
 568 1340 mt  582 1354 L
 582 1340 mt  568 1354 L
 609 1303 mt  623 1317 L
 623 1303 mt  609 1317 L
 651 1315 mt  665 1329 L
 665 1315 mt  651 1329 L
 692 1235 mt  706 1249 L
 706 1235 mt  692 1249 L
 734 1301 mt  748 1315 L
 748 1301 mt  734 1315 L
 775 1207 mt  789 1221 L
 789 1207 mt  775 1221 L
 817 1282 mt  831 1296 L
 831 1282 mt  817 1296 L
 858 1141 mt  872 1155 L
 872 1141 mt  858 1155 L
 900 1306 mt  914 1320 L
 914 1306 mt  900 1320 L
 941 1155 mt  955 1169 L
 955 1155 mt  941 1169 L
 983 1307 mt  997 1321 L
 997 1307 mt  983 1321 L
1024 1323 mt 1038 1337 L
1038 1323 mt 1024 1337 L
1066 1321 mt 1080 1335 L
1080 1321 mt 1066 1335 L
1108 1326 mt 1122 1340 L
1122 1326 mt 1108 1340 L
gr

gs 492 988 624 432 rc
gr

0 sg
 405 1313 mt  -90 rotate
(RMS TB \(K\)) s
90 rotate
 537  957 mt 
(Cloudy Ocean \(27589 points\)) s
%%IncludeResource: font Helvetica
/Helvetica /ISOLatin1Encoding 25 FMSR

 371 1580 mt  -45 rotate
(AMSRE 6.925V) s
45 rotate
 476 1513 mt  -45 rotate
(6.925H) s
45 rotate
 520 1512 mt  -45 rotate
(10.65V) s
45 rotate
 562 1513 mt  -45 rotate
(10.65H) s
45 rotate
 610 1502 mt  -45 rotate
(18.7V) s
45 rotate
 653 1503 mt  -45 rotate
(18.7H) s
45 rotate
 696 1502 mt  -45 rotate
(23.8V) s
45 rotate
 734 1503 mt  -45 rotate
(23.8H) s
45 rotate
 777 1502 mt  -45 rotate
(36.5V) s
45 rotate
 820 1503 mt  -45 rotate
(36.5H) s
45 rotate
 858 1502 mt  -45 rotate
(89.0V) s
45 rotate
 901 1503 mt  -45 rotate
(89.0H) s
45 rotate
 920 1527 mt  -45 rotate
(HSB 150) s
45 rotate
 934 1550 mt  -45 rotate
(183.31 +/-1) s
45 rotate
 977 1550 mt  -45 rotate
(183.31 +/-3) s
45 rotate
1019 1550 mt  -45 rotate
(183.31 +/-7) s
45 rotate
2.08333 w
1 sg
0 431 623 0 0 -431 1549 1419 4 MP
PP
-623 0 0 431 623 0 0 -431 1549 1419 5 MP stroke
1.38889 w
DO
0 sg
1549 1419 mt 2172 1419 L
2172 1419 mt 2172 1419 L
1549 1332 mt 2172 1332 L
2172 1332 mt 2172 1332 L
1549 1246 mt 2172 1246 L
2172 1246 mt 2172 1246 L
1549 1160 mt 2172 1160 L
2172 1160 mt 2172 1160 L
1549 1074 mt 2172 1074 L
2172 1074 mt 2172 1074 L
1549  988 mt 2172  988 L
2172  988 mt 2172  988 L
SO
2.08333 w
1549 1419 mt 2172 1419 L
1549  988 mt 2172  988 L
1549 1419 mt 1549  988 L
2172 1419 mt 2172  988 L
1549 1419 mt 2172 1419 L
1549 1419 mt 1549  988 L
1549 1419 mt 1549 1412 L
1549  988 mt 1549  994 L
1590 1419 mt 1590 1412 L
1590  988 mt 1590  994 L
1632 1419 mt 1632 1412 L
1632  988 mt 1632  994 L
1673 1419 mt 1673 1412 L
1673  988 mt 1673  994 L
1715 1419 mt 1715 1412 L
1715  988 mt 1715  994 L
1756 1419 mt 1756 1412 L
1756  988 mt 1756  994 L
1798 1419 mt 1798 1412 L
1798  988 mt 1798  994 L
1839 1419 mt 1839 1412 L
1839  988 mt 1839  994 L
1881 1419 mt 1881 1412 L
1881  988 mt 1881  994 L
1922 1419 mt 1922 1412 L
1922  988 mt 1922  994 L
1964 1419 mt 1964 1412 L
1964  988 mt 1964  994 L
2005 1419 mt 2005 1412 L
2005  988 mt 2005  994 L
2047 1419 mt 2047 1412 L
2047  988 mt 2047  994 L
2088 1419 mt 2088 1412 L
2088  988 mt 2088  994 L
2130 1419 mt 2130 1412 L
2130  988 mt 2130  994 L
2172 1419 mt 2172 1412 L
2172  988 mt 2172  994 L
1549 1419 mt 1555 1419 L
2172 1419 mt 2165 1419 L
%%IncludeResource: font Helvetica
/Helvetica /ISOLatin1Encoding 41.6667 FMSR

1514 1434 mt 
(0) s
1549 1332 mt 1555 1332 L
2172 1332 mt 2165 1332 L
1514 1347 mt 
(3) s
1549 1246 mt 1555 1246 L
2172 1246 mt 2165 1246 L
1514 1261 mt 
(6) s
1549 1160 mt 1555 1160 L
2172 1160 mt 2165 1160 L
1514 1175 mt 
(9) s
1549 1074 mt 1555 1074 L
2172 1074 mt 2165 1074 L
1491 1089 mt 
(12) s
1549  988 mt 1555  988 L
2172  988 mt 2165  988 L
1491 1003 mt 
(15) s
1549 1419 mt 2172 1419 L
1549  988 mt 2172  988 L
1549 1419 mt 1549  988 L
2172 1419 mt 2172  988 L
gs 1549 988 624 432 rc
4.16667 w
42 -7 42 -7 41 38 42 -11 41 -4 42 26 41 -11 42 -12 
41 4 42 31 41 -17 42 27 41 -15 42 21 41 -19 1549 1298 16 MP stroke
gr

4.16667 w
gs 1527 1257 667 122 rc
1542 1291 mt 1556 1305 L
1556 1291 mt 1542 1305 L
1583 1272 mt 1597 1286 L
1597 1272 mt 1583 1286 L
1625 1293 mt 1639 1307 L
1639 1293 mt 1625 1307 L
1666 1278 mt 1680 1292 L
1680 1278 mt 1666 1292 L
1708 1305 mt 1722 1319 L
1722 1305 mt 1708 1319 L
1749 1288 mt 1763 1302 L
1763 1288 mt 1749 1302 L
1791 1319 mt 1805 1333 L
1805 1319 mt 1791 1333 L
1832 1323 mt 1846 1337 L
1846 1323 mt 1832 1337 L
1874 1311 mt 1888 1325 L
1888 1311 mt 1874 1325 L
1915 1300 mt 1929 1314 L
1929 1300 mt 1915 1314 L
1957 1326 mt 1971 1340 L
1971 1326 mt 1957 1340 L
1998 1322 mt 2012 1336 L
2012 1322 mt 1998 1336 L
2040 1311 mt 2054 1325 L
2054 1311 mt 2040 1325 L
2081 1349 mt 2095 1363 L
2095 1349 mt 2081 1363 L
2123 1342 mt 2137 1356 L
2137 1342 mt 2123 1356 L
2165 1335 mt 2179 1349 L
2179 1335 mt 2165 1349 L
gr

gs 1549 988 624 432 rc
/c11 { 1.000000 0.011102 0.032807 sr} bdef
c11
42 -11 42 -9 41 60 42 -3 41 13 42 -11 41 -12 42 -22 
41 -6 42 48 41 -23 42 103 41 -87 42 138 41 -131 1549 1267 16 MP stroke
gr

c11
gs 1527 1114 667 243 rc
1542 1260 mt 1556 1274 L
1556 1260 mt 1542 1274 L
1583 1129 mt 1597 1143 L
1597 1129 mt 1583 1143 L
1625 1267 mt 1639 1281 L
1639 1267 mt 1625 1281 L
1666 1180 mt 1680 1194 L
1680 1180 mt 1666 1194 L
1708 1283 mt 1722 1297 L
1722 1283 mt 1708 1297 L
1749 1260 mt 1763 1274 L
1763 1260 mt 1749 1274 L
1791 1308 mt 1805 1322 L
1805 1308 mt 1791 1322 L
1832 1302 mt 1846 1316 L
1846 1302 mt 1832 1316 L
1874 1280 mt 1888 1294 L
1888 1280 mt 1874 1294 L
1915 1268 mt 1929 1282 L
1929 1268 mt 1915 1282 L
1957 1257 mt 1971 1271 L
1971 1257 mt 1957 1271 L
1998 1270 mt 2012 1284 L
2012 1270 mt 1998 1284 L
2040 1267 mt 2054 1281 L
2054 1267 mt 2040 1281 L
2081 1327 mt 2095 1341 L
2095 1327 mt 2081 1341 L
2123 1318 mt 2137 1332 L
2137 1318 mt 2123 1332 L
2165 1307 mt 2179 1321 L
2179 1307 mt 2165 1321 L
gr

gs 1549 988 624 432 rc
gr

0 sg
1462 1313 mt  -90 rotate
(RMS TB \(K\)) s
90 rotate
1608  957 mt 
(Cloudy Land \(11109 points\)) s
%%IncludeResource: font Helvetica
/Helvetica /ISOLatin1Encoding 25 FMSR

1428 1580 mt  -45 rotate
(AMSRE 6.925V) s
45 rotate
1533 1513 mt  -45 rotate
(6.925H) s
45 rotate
1576 1512 mt  -45 rotate
(10.65V) s
45 rotate
1618 1513 mt  -45 rotate
(10.65H) s
45 rotate
1666 1502 mt  -45 rotate
(18.7V) s
45 rotate
1709 1503 mt  -45 rotate
(18.7H) s
45 rotate
1751 1502 mt  -45 rotate
(23.8V) s
45 rotate
1793 1503 mt  -45 rotate
(23.8H) s
45 rotate
1832 1502 mt  -45 rotate
(36.5V) s
45 rotate
1874 1503 mt  -45 rotate
(36.5H) s
45 rotate
1917 1502 mt  -45 rotate
(89.0V) s
45 rotate
1959 1503 mt  -45 rotate
(89.0H) s
45 rotate
1973 1527 mt  -45 rotate
(HSB 150) s
45 rotate
1992 1550 mt  -45 rotate
(183.31 +/-1) s
45 rotate
2034 1550 mt  -45 rotate
(183.31 +/-3) s
45 rotate
2077 1550 mt  -45 rotate
(183.31 +/-7) s
45 rotate
2.08333 w
1 sg
0 99 503 0 0 -99 1643 244 4 MP
PP
-503 0 0 99 503 0 0 -99 1643 244 5 MP stroke
1.38889 w
DO
SO
2.08333 w
0 sg
1643  244 mt 2146  244 L
1643  145 mt 2146  145 L
1643  244 mt 1643  145 L
2146  244 mt 2146  145 L
1643  244 mt 2146  244 L
1643  244 mt 1643  145 L
1643  244 mt 2146  244 L
1643  145 mt 2146  145 L
1643  244 mt 1643  145 L
2146  244 mt 2146  145 L
%%IncludeResource: font Helvetica
/Helvetica /ISOLatin1Encoding 33.3333 FMSR

1799  185 mt 
(RT\(ANA\) - CAL\(OBS\)) s
gs 1643 145 504 100 rc
4.16667 w
120 0 1666 172 2 MP stroke
gs 1705 150 44 45 rc
1719  165 mt 1733  179 L
1733  165 mt 1719  179 L
gr

gr

4.16667 w
1799  229 mt 
(RT\(ANA\) - OBS) s
gs 1643 145 504 100 rc
c9
120 0 1666 216 2 MP stroke
gs 1705 194 44 45 rc
1719  209 mt 1733  223 L
1733  209 mt 1719  223 L
gr

2.08333 w
gr

2.08333 w
c9

end %%Color Dict

eplot
%%EndObject

epage
end

showpage

%%Trailer
%%EOF
